sar_adc_model/sar_adc_nonideal_comparator/build/sar_adc_nonideal_comparator.tests.test_sar_adc__test_sar_adc_thrash_input_3.29.vcd
$date
  Sat Nov 18 19:14:36 2023
$end
$version
  PyMTL 3 (Mamba)
$end
$timescale
 10ps
$end

$scope module top $end
  $var reg 10 ! s_DOT_output_result_digital $end
  $var reg 10 " input_voltage_real $end
  $var reg 1 # eoc $end
  $var reg 10 $ s_DOT_input_voltage_real $end
  $var reg 1 % input_hold_digital $end
  $var reg 1 & s_DOT_input_hold_digital $end
  $var reg 1 ' s_DOT_eoc $end
  $var reg 1 ( reset $end
  $var reg 1 ) clk $end
  $var reg 1 * s_DOT_reset $end
  $var reg 10 + output_result_digital $end
  $var reg 1 , s_DOT_sys_clk $end
  $var reg 1 - sys_clk $end
$upscope $end
$enddefinitions $end

b0b0000000000 !
b0b0000000000 "
b0b0 #
b0b0000000000 $
b0b0 %
b0b0 &
b0b0 '
b0b0 (
b0b0 )
b0b0 *
b0b0000000000 +
b0b0 ,
b0b0 -

#0
b0b1 )

b0b1000000000 !
b0b1 (
b0b1 *
b0b1000000000 +
b0b0 ,

#50
b0b0 )
#100
b0b1 )


#150
b0b0 )
#200
b0b1 )


#250
b0b0 )
#300
b0b1 )

b0b0000000001 "
b0b0000000001 $
b0b0 (
b0b0 *
b0b1 ,
b0b1 -

#350
b0b0 )
#400
b0b1 )

b0b0011111100 "
b0b0011111100 $

#450
b0b0 )
#500
b0b1 )

b0b0110100101 "
b0b0110100101 $

#550
b0b0 )
#600
b0b1 )

b0b1 %
b0b1 &

#650
b0b0 )
#700
b0b1 )

b0b0101000100 "
b0b0101000100 $

#750
b0b0 )
#800
b0b1 )

b0b0000000111 "
b0b0000000111 $

#850
b0b0 )
#900
b0b1 )

b0b0101000101 "
b0b0101000101 $

#950
b0b0 )
#1000
b0b1 )

b0b0000110010 "
b0b0000110010 $

#1050
b0b0 )
#1100
b0b1 )

b0b0010001000 "
b0b0010001000 $

#1150
b0b0 )
#1200
b0b1 )

b0b0100000001 "
b0b0100000001 $

#1250
b0b0 )
#1300
b0b1 )

b0b0010010110 "
b0b0010010110 $

#1350
b0b0 )
#1400
b0b1 )

b0b0100100011 "
b0b0100100011 $

#1450
b0b0 )
#1500
b0b1 )

b0b0100011011 "
b0b0100011011 $

#1550
b0b0 )
#1600
b0b1 )

b0b0100001111 "
b0b0100001111 $

#1650
b0b0 )
#1700
b0b1 )

b0b0100110011 "
b0b0100110011 $

#1750
b0b0 )
#1800
b0b1 )

b0b0101111110 "
b0b0101111110 $

#1850
b0b0 )
#1900
b0b1 )

b0b0001000111 "
b0b0001000111 $

#1950
b0b0 )
#2000
b0b1 )

b0b0000101111 "
b0b0000101111 $

#2050
b0b0 )
#2100
b0b1 )

b0b0010110010 "
b0b0010110010 $

#2150
b0b0 )
#2200
b0b1 )

b0b0000101001 "
b0b0000101001 $

#2250
b0b0 )
#2300
b0b1 )

b0b0001111001 "
b0b0001111001 $

#2350
b0b0 )
#2400
b0b1 )

b0b0001000000 "
b0b0001000000 $

#2450
b0b0 )
#2500
b0b1 )

b0b0000110100 "
b0b0000110100 $

#2550
b0b0 )
#2600
b0b1 )

b0b0010111011 "
b0b0010111011 $

#2650
b0b0 )
#2700
b0b1 )

b0b0110011001 "
b0b0110011001 $

#2750
b0b0 )
#2800
b0b1 )

b0b0100111110 "
b0b0100111110 $

#2850
b0b0 )
#2900
b0b1 )

b0b0001110000 "
b0b0001110000 $

#2950
b0b0 )
#3000
b0b1 )

b0b0101101001 "
b0b0101101001 $

#3050
b0b0 )
#3100
b0b1 )

b0b0011100101 "
b0b0011100101 $

#3150
b0b0 )
#3200
b0b1 )

b0b0100000010 "
b0b0100000010 $

#3250
b0b0 )
#3300
b0b1 )

b0b0100010111 "
b0b0100010111 $

#3350
b0b0 )
#3400
b0b1 )

b0b0101111111 "
b0b0101111111 $

#3450
b0b0 )
#3500
b0b1 )

b0b0100101111 "
b0b0100101111 $

#3550
b0b0 )
#3600
b0b1 )

b0b0010101111 "
b0b0010101111 $

#3650
b0b0 )
#3700
b0b1 )

b0b0010000011 "
b0b0010000011 $

#3750
b0b0 )
#3800
b0b1 )

b0b0000011011 "
b0b0000011011 $

#3850
b0b0 )
#3900
b0b1 )

b0b0011001111 "
b0b0011001111 $

#3950
b0b0 )
#4000
b0b1 )

b0b0110100000 "
b0b0110100000 $

#4050
b0b0 )
#4100
b0b1 )

b0b0110001000 "
b0b0110001000 $

#4150
b0b0 )
#4200
b0b1 )

b0b0100110101 "
b0b0100110101 $

#4250
b0b0 )
#4300
b0b1 )

b0b0010000010 "
b0b0010000010 $

#4350
b0b0 )
#4400
b0b1 )

b0b0100100111 "
b0b0100100111 $

#4450
b0b0 )
#4500
b0b1 )

b0b0110001110 "
b0b0110001110 $

#4550
b0b0 )
#4600
b0b1 )

b0b0100100010 "
b0b0100100010 $

#4650
b0b0 )
#4700
b0b1 )

b0b0100110110 "
b0b0100110110 $

#4750
b0b0 )
#4800
b0b1 )

b0b0001100011 "
b0b0001100011 $

#4850
b0b0 )
#4900
b0b1 )

b0b0011011011 "
b0b0011011011 $

#4950
b0b0 )
#5000
b0b1 )

b0b0101101010 "
b0b0101101010 $

#5050
b0b0 )
#5100
b0b1 )

b0b0011101100 "
b0b0011101100 $

#5150
b0b0 )
#5200
b0b1 )

b0b0101111001 "
b0b0101111001 $

#5250
b0b0 )
#5300
b0b1 )

b0b0001010000 "
b0b0001010000 $

#5350
b0b0 )
#5400
b0b1 )

b0b0001011001 "
b0b0001011001 $

#5450
b0b0 )
#5500
b0b1 )

b0b0010010010 "
b0b0010010010 $

#5550
b0b0 )
#5600
b0b1 )

b0b0010100101 "
b0b0010100101 $

#5650
b0b0 )
#5700
b0b1 )

b0b0011111110 "
b0b0011111110 $

#5750
b0b0 )
#5800
b0b1 )

b0b0100101011 "
b0b0100101011 $

#5850
b0b0 )
#5900
b0b1 )

b0b0101010010 "
b0b0101010010 $

#5950
b0b0 )
#6000
b0b1 )

b0b0001010101 "
b0b0001010101 $

#6050
b0b0 )
#6100
b0b1 )

b0b0101010101 "
b0b0101010101 $

#6150
b0b0 )
#6200
b0b1 )

b0b0011011100 "
b0b0011011100 $

#6250
b0b0 )
#6300
b0b1 )

b0b0010100100 "
b0b0010100100 $

#6350
b0b0 )
#6400
b0b1 )

b0b0100000100 "
b0b0100000100 $

#6450
b0b0 )
#6500
b0b1 )

b0b0010111010 "
b0b0010111010 $

#6550
b0b0 )
#6600
b0b1 )

b0b0011011011 "
b0b0011011011 $

#6650
b0b0 )
#6700
b0b1 )

b0b0101000001 "
b0b0101000001 $

#6750
b0b0 )
#6800
b0b1 )

b0b0010010110 "
b0b0010010110 $

#6850
b0b0 )
#6900
b0b1 )

b0b0011111000 "
b0b0011111000 $

#6950
b0b0 )
#7000
b0b1 )

b0b0000101110 "
b0b0000101110 $

#7050
b0b0 )
#7100
b0b1 )

b0b0000000100 "
b0b0000000100 $

#7150
b0b0 )
#7200
b0b1 )

b0b0011110000 "
b0b0011110000 $

#7250
b0b0 )
#7300
b0b1 )

b0b0000110101 "
b0b0000110101 $

#7350
b0b0 )
#7400
b0b1 )

b0b0001000110 "
b0b0001000110 $

#7450
b0b0 )
#7500
b0b1 )

b0b0100010011 "
b0b0100010011 $

#7550
b0b0 )
#7600
b0b1 )

b0b0100010010 "
b0b0100010010 $

#7650
b0b0 )
#7700
b0b1 )

b0b0101001000 "
b0b0101001000 $

#7750
b0b0 )
#7800
b0b1 )

b0b0101101100 "
b0b0101101100 $

#7850
b0b0 )
#7900
b0b1 )

b0b0001100001 "
b0b0001100001 $

#7950
b0b0 )
#8000
b0b1 )

b0b0110000011 "
b0b0110000011 $

#8050
b0b0 )
#8100
b0b1 )

b0b0110100110 "
b0b0110100110 $

#8150
b0b0 )
#8200
b0b1 )

b0b0000001100 "
b0b0000001100 $

#8250
b0b0 )
#8300
b0b1 )

b0b0110100011 "
b0b0110100011 $

#8350
b0b0 )
#8400
b0b1 )

b0b0011000010 "
b0b0011000010 $

#8450
b0b0 )
#8500
b0b1 )

b0b0101111110 "
b0b0101111110 $

#8550
b0b0 )
#8600
b0b1 )

b0b0010101011 "
b0b0010101011 $

#8650
b0b0 )
#8700
b0b1 )

b0b0000010001 "
b0b0000010001 $

#8750
b0b0 )
#8800
b0b1 )

b0b0011110000 "
b0b0011110000 $

#8850
b0b0 )
#8900
b0b1 )

b0b0101100011 "
b0b0101100011 $

#8950
b0b0 )
#9000
b0b1 )

b0b0001110110 "
b0b0001110110 $

#9050
b0b0 )
#9100
b0b1 )

b0b0001100010 "
b0b0001100010 $

#9150
b0b0 )
#9200
b0b1 )

b0b0101100010 "
b0b0101100010 $

#9250
b0b0 )
#9300
b0b1 )

b0b0110011100 "
b0b0110011100 $

#9350
b0b0 )
#9400
b0b1 )

b0b0100110100 "
b0b0100110100 $

#9450
b0b0 )
#9500
b0b1 )

b0b0011010101 "
b0b0011010101 $

#9550
b0b0 )
#9600
b0b1 )

b0b0110010110 "
b0b0110010110 $

#9650
b0b0 )
#9700
b0b1 )

b0b0010000100 "
b0b0010000100 $

#9750
b0b0 )
#9800
b0b1 )

b0b0110001110 "
b0b0110001110 $

#9850
b0b0 )
#9900
b0b1 )

b0b0011110011 "
b0b0011110011 $

#9950
b0b0 )
#10000
b0b1 )

b0b0010010011 "
b0b0010010011 $

#10050
b0b0 )
#10100
b0b1 )

b0b0011110111 "
b0b0011110111 $

#10150
b0b0 )
#10200
b0b1 )

b0b0001101001 "
b0b0001101001 $

#10250
b0b0 )
#10300
b0b1 )

b0b0010000011 "
b0b0010000011 $

#10350
b0b0 )
#10400
b0b1 )

b0b0010111100 "
b0b0010111100 $

#10450
b0b0 )
#10500
b0b1 )

b0b0101011111 "
b0b0101011111 $

#10550
b0b0 )
#10600
b0b1 )

b0b0001010011 "
b0b0001010011 $

#10650
b0b0 )
#10700
b0b1 )

b0b0010100101 "
b0b0010100101 $

#10750
b0b0 )
#10800
b0b1 )

b0b0001110100 "
b0b0001110100 $

#10850
b0b0 )
#10900
b0b1 )

b0b0010011111 "
b0b0010011111 $

#10950
b0b0 )
#11000
b0b1 )

b0b0100100100 "
b0b0100100100 $

#11050
b0b0 )
#11100
b0b1 )

b0b0001001001 "
b0b0001001001 $

#11150
b0b0 )
#11200
b0b1 )

b0b0001000000 "
b0b0001000000 $

#11250
b0b0 )
#11300
b0b1 )

b0b0011101110 "
b0b0011101110 $

#11350
b0b0 )
#11400
b0b1 )

b0b0100110110 "
b0b0100110110 $

#11450
b0b0 )
#11500
b0b1 )

b0b0100110000 "
b0b0100110000 $

#11550
b0b0 )
#11600
b0b1 )

b0b0110010001 "
b0b0110010001 $

#11650
b0b0 )
#11700
b0b1 )

b0b0000010111 "
b0b0000010111 $

#11750
b0b0 )
#11800
b0b1 )

b0b0110000100 "
b0b0110000100 $

#11850
b0b0 )
#11900
b0b1 )

b0b0001011101 "
b0b0001011101 $

#11950
b0b0 )
#12000
b0b1 )

b0b0000011101 "
b0b0000011101 $

#12050
b0b0 )
#12100
b0b1 )

b0b0011100011 "
b0b0011100011 $

#12150
b0b0 )
#12200
b0b1 )

b0b0000110100 "
b0b0000110100 $

#12250
b0b0 )
#12300
b0b1 )

b0b0000010100 "
b0b0000010100 $

#12350
b0b0 )
#12400
b0b1 )

b0b0011101100 "
b0b0011101100 $

#12450
b0b0 )
#12500
b0b1 )

b0b0010010100 "
b0b0010010100 $

#12550
b0b0 )
#12600
b0b1 )

b0b0011010011 "
b0b0011010011 $

#12650
b0b0 )
#12700
b0b1 )

b0b0001010000 "
b0b0001010000 $

#12750
b0b0 )
#12800
b0b1 )

b0b0000111110 "
b0b0000111110 $

#12850
b0b0 )
#12900
b0b1 )

b0b0000011100 "
b0b0000011100 $

#12950
b0b0 )
#13000
b0b1 )

b0b0100100111 "
b0b0100100111 $

#13050
b0b0 )
#13100
b0b1 )

b0b0010000101 "
b0b0010000101 $

#13150
b0b0 )
#13200
b0b1 )

b0b0110000110 "
b0b0110000110 $

#13250
b0b0 )
#13300
b0b1 )

b0b0011001100 "
b0b0011001100 $

#13350
b0b0 )
#13400
b0b1 )

b0b0100100100 "
b0b0100100100 $

#13450
b0b0 )
#13500
b0b1 )

b0b0101111010 "
b0b0101111010 $

#13550
b0b0 )
#13600
b0b1 )

b0b0100000000 "
b0b0100000000 $

#13650
b0b0 )
#13700
b0b1 )

b0b0011000010 "
b0b0011000010 $

#13750
b0b0 )
#13800
b0b1 )

b0b0000110001 "
b0b0000110001 $

#13850
b0b0 )
#13900
b0b1 )

b0b0100010011 "
b0b0100010011 $

#13950
b0b0 )
#14000
b0b1 )

b0b0010100011 "
b0b0010100011 $

#14050
b0b0 )
#14100
b0b1 )

b0b0101001100 "
b0b0101001100 $

#14150
b0b0 )
#14200
b0b1 )

b0b0000101111 "
b0b0000101111 $

#14250
b0b0 )
#14300
b0b1 )

b0b0101010010 "
b0b0101010010 $

#14350
b0b0 )
#14400
b0b1 )

b0b0010011001 "
b0b0010011001 $

#14450
b0b0 )
#14500
b0b1 )

b0b0010111110 "
b0b0010111110 $

#14550
b0b0 )
#14600
b0b1 )

b0b0001011101 "
b0b0001011101 $

#14650
b0b0 )
#14700
b0b1 )

b0b0010011111 "
b0b0010011111 $

#14750
b0b0 )
#14800
b0b1 )

b0b0010000010 "
b0b0010000010 $

#14850
b0b0 )
#14900
b0b1 )

b0b0100010100 "
b0b0100010100 $

#14950
b0b0 )
#15000
b0b1 )

b0b0101111010 "
b0b0101111010 $

#15050
b0b0 )
#15100
b0b1 )

b0b0000011111 "
b0b0000011111 $

#15150
b0b0 )
#15200
b0b1 )

b0b0101110101 "
b0b0101110101 $

#15250
b0b0 )
#15300
b0b1 )

b0b0000111001 "
b0b0000111001 $

#15350
b0b0 )
#15400
b0b1 )

b0b0100011101 "
b0b0100011101 $

#15450
b0b0 )
#15500
b0b1 )

b0b0100001000 "
b0b0100001000 $

#15550
b0b0 )
#15600
b0b1 )

b0b0101100100 "
b0b0101100100 $

#15650
b0b0 )
#15700
b0b1 )

b0b0000000100 "
b0b0000000100 $

#15750
b0b0 )
#15800
b0b1 )

b0b0101000011 "
b0b0101000011 $

#15850
b0b0 )
#15900
b0b1 )

b0b0001100101 "
b0b0001100101 $

#15950
b0b0 )
#16000
b0b1 )

b0b0110001000 "
b0b0110001000 $

#16050
b0b0 )
#16100
b0b1 )

b0b0101001110 "
b0b0101001110 $

#16150
b0b0 )
#16200
b0b1 )

b0b0101011111 "
b0b0101011111 $

#16250
b0b0 )
#16300
b0b1 )

b0b0001010001 "
b0b0001010001 $

#16350
b0b0 )
#16400
b0b1 )

b0b0001001110 "
b0b0001001110 $

#16450
b0b0 )
#16500
b0b1 )

b0b0011101011 "
b0b0011101011 $

#16550
b0b0 )
#16600
b0b1 )

b0b0010101100 "
b0b0010101100 $

#16650
b0b0 )
#16700
b0b1 )

b0b0000001100 "
b0b0000001100 $

#16750
b0b0 )
#16800
b0b1 )

b0b0100100110 "
b0b0100100110 $

#16850
b0b0 )
#16900
b0b1 )

b0b0110011010 "
b0b0110011010 $

#16950
b0b0 )
#17000
b0b1 )

b0b0011110110 "
b0b0011110110 $

#17050
b0b0 )
#17100
b0b1 )

b0b0011011001 "
b0b0011011001 $

#17150
b0b0 )
#17200
b0b1 )

b0b0100010001 "
b0b0100010001 $

#17250
b0b0 )
#17300
b0b1 )

b0b0000101110 "
b0b0000101110 $

#17350
b0b0 )
#17400
b0b1 )

b0b0101111011 "
b0b0101111011 $

#17450
b0b0 )
#17500
b0b1 )

b0b0010010100 "
b0b0010010100 $

#17550
b0b0 )
#17600
b0b1 )

b0b0001001100 "
b0b0001001100 $

#17650
b0b0 )
#17700
b0b1 )

b0b0101010001 "
b0b0101010001 $

#17750
b0b0 )
#17800
b0b1 )

b0b0100111010 "
b0b0100111010 $

#17850
b0b0 )
#17900
b0b1 )

b0b0001110011 "
b0b0001110011 $

#17950
b0b0 )
#18000
b0b1 )

b0b0011110100 "
b0b0011110100 $

#18050
b0b0 )
#18100
b0b1 )

b0b0011010111 "
b0b0011010111 $

#18150
b0b0 )
#18200
b0b1 )

b0b0100010001 "
b0b0100010001 $

#18250
b0b0 )
#18300
b0b1 )

b0b0001111010 "
b0b0001111010 $

#18350
b0b0 )
#18400
b0b1 )

b0b0110010101 "
b0b0110010101 $

#18450
b0b0 )
#18500
b0b1 )

b0b0101001110 "
b0b0101001110 $

#18550
b0b0 )
#18600
b0b1 )

b0b0101110110 "
b0b0101110110 $

#18650
b0b0 )
#18700
b0b1 )

b0b0101101000 "
b0b0101101000 $

#18750
b0b0 )
#18800
b0b1 )

b0b0100101001 "
b0b0100101001 $

#18850
b0b0 )
#18900
b0b1 )

b0b0000100101 "
b0b0000100101 $

#18950
b0b0 )
#19000
b0b1 )

b0b0101010110 "
b0b0101010110 $

#19050
b0b0 )
#19100
b0b1 )

b0b0101100100 "
b0b0101100100 $

#19150
b0b0 )
#19200
b0b1 )

b0b0000000011 "
b0b0000000011 $

#19250
b0b0 )
#19300
b0b1 )

b0b0000000010 "
b0b0000000010 $

#19350
b0b0 )
#19400
b0b1 )

b0b0000000001 "
b0b0000000001 $

#19450
b0b0 )
#19500
b0b1 )

b0b0001101100 "
b0b0001101100 $

#19550
b0b0 )
#19600
b0b1 )

b0b0010100101 "
b0b0010100101 $

#19650
b0b0 )
#19700
b0b1 )

b0b0101111010 "
b0b0101111010 $

#19750
b0b0 )
#19800
b0b1 )

b0b0001001111 "
b0b0001001111 $

#19850
b0b0 )
#19900
b0b1 )

b0b0000110101 "
b0b0000110101 $

#19950
b0b0 )
#20000
b0b1 )

b0b0000110010 "
b0b0000110010 $

#20050
b0b0 )
#20100
b0b1 )

b0b0101011110 "
b0b0101011110 $

#20150
b0b0 )
#20200
b0b1 )

b0b0101011000 "
b0b0101011000 $

#20250
b0b0 )
#20300
b0b1 )

b0b0001001010 "
b0b0001001010 $

#20350
b0b0 )
#20400
b0b1 )

b0b0000100000 "
b0b0000100000 $
b0b0 ,
b0b0 -

#20450
b0b0 )
#20500
b0b1 )

b0b0101000000 "
b0b0101000000 $

#20550
b0b0 )
#20600
b0b1 )

b0b0010001100 "
b0b0010001100 $

#20650
b0b0 )
#20700
b0b1 )

b0b0000110110 "
b0b0000110110 $

#20750
b0b0 )
#20800
b0b1 )

b0b0001101000 "
b0b0001101000 $

#20850
b0b0 )
#20900
b0b1 )

b0b0011000111 "
b0b0011000111 $

#20950
b0b0 )
#21000
b0b1 )

b0b0010010011 "
b0b0010010011 $

#21050
b0b0 )
#21100
b0b1 )

b0b0010100011 "
b0b0010100011 $

#21150
b0b0 )
#21200
b0b1 )

b0b0011101100 "
b0b0011101100 $

#21250
b0b0 )
#21300
b0b1 )

b0b0110010110 "
b0b0110010110 $

#21350
b0b0 )
#21400
b0b1 )

b0b0110001001 "
b0b0110001001 $

#21450
b0b0 )
#21500
b0b1 )

b0b0001001010 "
b0b0001001010 $

#21550
b0b0 )
#21600
b0b1 )

b0b0100101011 "
b0b0100101011 $

#21650
b0b0 )
#21700
b0b1 )

b0b0011000000 "
b0b0011000000 $

#21750
b0b0 )
#21800
b0b1 )

b0b0001000001 "
b0b0001000001 $

#21850
b0b0 )
#21900
b0b1 )

b0b0101100100 "
b0b0101100100 $

#21950
b0b0 )
#22000
b0b1 )

b0b0010100011 "
b0b0010100011 $

#22050
b0b0 )
#22100
b0b1 )

b0b0010101100 "
b0b0010101100 $

#22150
b0b0 )
#22200
b0b1 )

b0b0001000010 "
b0b0001000010 $

#22250
b0b0 )
#22300
b0b1 )

b0b0011001101 "
b0b0011001101 $

#22350
b0b0 )
#22400
b0b1 )

b0b0000010101 "
b0b0000010101 $

#22450
b0b0 )
#22500
b0b1 )

b0b0001001000 "
b0b0001001000 $

#22550
b0b0 )
#22600
b0b1 )

b0b0010110101 "
b0b0010110101 $

#22650
b0b0 )
#22700
b0b1 )

b0b0101100001 "
b0b0101100001 $

#22750
b0b0 )
#22800
b0b1 )

b0b0010110011 "
b0b0010110011 $

#22850
b0b0 )
#22900
b0b1 )

b0b0000011100 "
b0b0000011100 $

#22950
b0b0 )
#23000
b0b1 )

b0b0100011111 "
b0b0100011111 $

#23050
b0b0 )
#23100
b0b1 )

b0b0101100110 "
b0b0101100110 $

#23150
b0b0 )
#23200
b0b1 )

b0b0011001100 "
b0b0011001100 $

#23250
b0b0 )
#23300
b0b1 )

b0b0110001100 "
b0b0110001100 $

#23350
b0b0 )
#23400
b0b1 )

b0b0011000110 "
b0b0011000110 $

#23450
b0b0 )
#23500
b0b1 )

b0b0101001000 "
b0b0101001000 $

#23550
b0b0 )
#23600
b0b1 )

b0b0000011000 "
b0b0000011000 $

#23650
b0b0 )
#23700
b0b1 )

b0b0011011001 "
b0b0011011001 $

#23750
b0b0 )
#23800
b0b1 )

b0b0011010001 "
b0b0011010001 $

#23850
b0b0 )
#23900
b0b1 )

b0b0011111110 "
b0b0011111110 $

#23950
b0b0 )
#24000
b0b1 )

b0b0101000110 "
b0b0101000110 $

#24050
b0b0 )
#24100
b0b1 )

b0b0110001001 "
b0b0110001001 $

#24150
b0b0 )
#24200
b0b1 )

b0b0001000000 "
b0b0001000000 $

#24250
b0b0 )
#24300
b0b1 )

b0b0100110010 "
b0b0100110010 $

#24350
b0b0 )
#24400
b0b1 )

b0b0110010011 "
b0b0110010011 $

#24450
b0b0 )
#24500
b0b1 )

b0b0100011010 "
b0b0100011010 $

#24550
b0b0 )
#24600
b0b1 )

b0b0011101111 "
b0b0011101111 $

#24650
b0b0 )
#24700
b0b1 )

b0b0010101011 "
b0b0010101011 $

#24750
b0b0 )
#24800
b0b1 )

b0b0100100010 "
b0b0100100010 $

#24850
b0b0 )
#24900
b0b1 )

b0b0000101000 "
b0b0000101000 $

#24950
b0b0 )
#25000
b0b1 )

b0b0000000011 "
b0b0000000011 $

#25050
b0b0 )
#25100
b0b1 )

b0b0001000011 "
b0b0001000011 $

#25150
b0b0 )
#25200
b0b1 )

b0b0011111111 "
b0b0011111111 $

#25250
b0b0 )
#25300
b0b1 )

b0b0011011100 "
b0b0011011100 $

#25350
b0b0 )
#25400
b0b1 )

b0b0000000001 "
b0b0000000001 $

#25450
b0b0 )
#25500
b0b1 )

b0b0110000000 "
b0b0110000000 $

#25550
b0b0 )
#25600
b0b1 )

b0b0110010000 "
b0b0110010000 $

#25650
b0b0 )
#25700
b0b1 )

b0b0001100100 "
b0b0001100100 $

#25750
b0b0 )
#25800
b0b1 )

b0b0011101010 "
b0b0011101010 $

#25850
b0b0 )
#25900
b0b1 )

b0b0010001001 "
b0b0010001001 $

#25950
b0b0 )
#26000
b0b1 )

b0b0100110111 "
b0b0100110111 $

#26050
b0b0 )
#26100
b0b1 )

b0b0000010010 "
b0b0000010010 $

#26150
b0b0 )
#26200
b0b1 )

b0b0101001010 "
b0b0101001010 $

#26250
b0b0 )
#26300
b0b1 )

b0b0010110001 "
b0b0010110001 $

#26350
b0b0 )
#26400
b0b1 )

b0b0101000000 "
b0b0101000000 $

#26450
b0b0 )
#26500
b0b1 )

b0b0101111110 "
b0b0101111110 $

#26550
b0b0 )
#26600
b0b1 )

b0b0100001110 "
b0b0100001110 $

#26650
b0b0 )
#26700
b0b1 )

b0b0101011000 "
b0b0101011000 $

#26750
b0b0 )
#26800
b0b1 )

b0b0010000101 "
b0b0010000101 $

#26850
b0b0 )
#26900
b0b1 )

b0b0001000110 "
b0b0001000110 $

#26950
b0b0 )
#27000
b0b1 )

b0b0001110011 "
b0b0001110011 $

#27050
b0b0 )
#27100
b0b1 )

b0b0011010010 "
b0b0011010010 $

#27150
b0b0 )
#27200
b0b1 )

b0b0000001101 "
b0b0000001101 $

#27250
b0b0 )
#27300
b0b1 )

b0b0000101011 "
b0b0000101011 $

#27350
b0b0 )
#27400
b0b1 )

b0b0010101000 "
b0b0010101000 $

#27450
b0b0 )
#27500
b0b1 )

b0b0010110101 "
b0b0010110101 $

#27550
b0b0 )
#27600
b0b1 )

b0b0000111001 "
b0b0000111001 $

#27650
b0b0 )
#27700
b0b1 )

b0b0100111110 "
b0b0100111110 $

#27750
b0b0 )
#27800
b0b1 )

b0b0010101011 "
b0b0010101011 $

#27850
b0b0 )
#27900
b0b1 )

b0b0101101110 "
b0b0101101110 $

#27950
b0b0 )
#28000
b0b1 )

b0b0110010001 "
b0b0110010001 $

#28050
b0b0 )
#28100
b0b1 )

b0b0001101001 "
b0b0001101001 $

#28150
b0b0 )
#28200
b0b1 )

b0b0110000110 "
b0b0110000110 $

#28250
b0b0 )
#28300
b0b1 )

b0b0101100110 "
b0b0101100110 $

#28350
b0b0 )
#28400
b0b1 )

b0b0010111111 "
b0b0010111111 $

#28450
b0b0 )
#28500
b0b1 )

b0b0001101000 "
b0b0001101000 $

#28550
b0b0 )
#28600
b0b1 )

b0b0100000001 "
b0b0100000001 $

#28650
b0b0 )
#28700
b0b1 )

b0b0100101010 "
b0b0100101010 $

#28750
b0b0 )
#28800
b0b1 )

b0b0100100000 "
b0b0100100000 $

#28850
b0b0 )
#28900
b0b1 )

b0b0010111010 "
b0b0010111010 $

#28950
b0b0 )
#29000
b0b1 )

b0b0010111110 "
b0b0010111110 $

#29050
b0b0 )
#29100
b0b1 )

b0b0010000010 "
b0b0010000010 $

#29150
b0b0 )
#29200
b0b1 )

b0b0100100010 "
b0b0100100010 $

#29250
b0b0 )
#29300
b0b1 )

b0b0100100001 "
b0b0100100001 $

#29350
b0b0 )
#29400
b0b1 )

b0b0000100101 "
b0b0000100101 $

#29450
b0b0 )
#29500
b0b1 )

b0b0001000010 "
b0b0001000010 $

#29550
b0b0 )
#29600
b0b1 )

b0b0010100100 "
b0b0010100100 $

#29650
b0b0 )
#29700
b0b1 )

b0b0100110000 "
b0b0100110000 $

#29750
b0b0 )
#29800
b0b1 )

b0b0010000101 "
b0b0010000101 $

#29850
b0b0 )
#29900
b0b1 )

b0b0101000111 "
b0b0101000111 $

#29950
b0b0 )
#30000
b0b1 )

b0b0010111110 "
b0b0010111110 $

#30050
b0b0 )
#30100
b0b1 )

b0b0010111000 "
b0b0010111000 $

#30150
b0b0 )
#30200
b0b1 )

b0b0001111100 "
b0b0001111100 $

#30250
b0b0 )
#30300
b0b1 )

b0b0011000001 "
b0b0011000001 $

#30350
b0b0 )
#30400
b0b1 )

b0b0100110001 "
b0b0100110001 $
b0b1 ,
b0b1 -

#30450
b0b0 )
#30500
b0b1 )

b0b0011011000 "
b0b0011011000 $

#30550
b0b0 )
#30600
b0b1 )

b0b0011011011 "
b0b0011011011 $

#30650
b0b0 )
#30700
b0b1 )

b0b0101011011 "
b0b0101011011 $

#30750
b0b0 )
#30800
b0b1 )

b0b0101101110 "
b0b0101101110 $

#30850
b0b0 )
#30900
b0b1 )

b0b0011111001 "
b0b0011111001 $

#30950
b0b0 )
#31000
b0b1 )

b0b0001001100 "
b0b0001001100 $

#31050
b0b0 )
#31100
b0b1 )

b0b0011001000 "
b0b0011001000 $

#31150
b0b0 )
#31200
b0b1 )

b0b0100000111 "
b0b0100000111 $

#31250
b0b0 )
#31300
b0b1 )

b0b0010011010 "
b0b0010011010 $

#31350
b0b0 )
#31400
b0b1 )

b0b0100011100 "
b0b0100011100 $

#31450
b0b0 )
#31500
b0b1 )

b0b0001100011 "
b0b0001100011 $

#31550
b0b0 )
#31600
b0b1 )

b0b0001101110 "
b0b0001101110 $

#31650
b0b0 )
#31700
b0b1 )

b0b0101000010 "
b0b0101000010 $

#31750
b0b0 )
#31800
b0b1 )

b0b0010101110 "
b0b0010101110 $

#31850
b0b0 )
#31900
b0b1 )

b0b0011101101 "
b0b0011101101 $

#31950
b0b0 )
#32000
b0b1 )

b0b0000000011 "
b0b0000000011 $

#32050
b0b0 )
#32100
b0b1 )

b0b0001100001 "
b0b0001100001 $

#32150
b0b0 )
#32200
b0b1 )

b0b0010111110 "
b0b0010111110 $

#32250
b0b0 )
#32300
b0b1 )

b0b0100011100 "
b0b0100011100 $

#32350
b0b0 )
#32400
b0b1 )

b0b0100100001 "
b0b0100100001 $

#32450
b0b0 )
#32500
b0b1 )

b0b0011110101 "
b0b0011110101 $

#32550
b0b0 )
#32600
b0b1 )

b0b0110011000 "
b0b0110011000 $

#32650
b0b0 )
#32700
b0b1 )

b0b0001111111 "
b0b0001111111 $

#32750
b0b0 )
#32800
b0b1 )

b0b0010011110 "
b0b0010011110 $

#32850
b0b0 )
#32900
b0b1 )

b0b0100000110 "
b0b0100000110 $

#32950
b0b0 )
#33000
b0b1 )

b0b0100011111 "
b0b0100011111 $

#33050
b0b0 )
#33100
b0b1 )

b0b0100001110 "
b0b0100001110 $

#33150
b0b0 )
#33200
b0b1 )

b0b0110100010 "
b0b0110100010 $

#33250
b0b0 )
#33300
b0b1 )

b0b0001110110 "
b0b0001110110 $

#33350
b0b0 )
#33400
b0b1 )

b0b0100101011 "
b0b0100101011 $

#33450
b0b0 )
#33500
b0b1 )

b0b0100111111 "
b0b0100111111 $

#33550
b0b0 )
#33600
b0b1 )

b0b0001000001 "
b0b0001000001 $

#33650
b0b0 )
#33700
b0b1 )

b0b0110100011 "
b0b0110100011 $

#33750
b0b0 )
#33800
b0b1 )

b0b0011010111 "
b0b0011010111 $

#33850
b0b0 )
#33900
b0b1 )

b0b0001010100 "
b0b0001010100 $

#33950
b0b0 )
#34000
b0b1 )

b0b0010110110 "
b0b0010110110 $

#34050
b0b0 )
#34100
b0b1 )

b0b0100010110 "
b0b0100010110 $

#34150
b0b0 )
#34200
b0b1 )

b0b0000000110 "
b0b0000000110 $

#34250
b0b0 )
#34300
b0b1 )

b0b0000100100 "
b0b0000100100 $

#34350
b0b0 )
