sar_adc_model/sar_adc_nonideal_comparator/build/sar_adc_nonideal_comparator.tests.test_sar_adc__test_sar_adc_thrash_input_0.5.vcd
$date
  Sat Nov 18 19:14:35 2023
$end
$version
  PyMTL 3 (Mamba)
$end
$timescale
 10ps
$end

$scope module top $end
  $var reg 1 ! s_DOT_sys_clk $end
  $var reg 1 " s_DOT_eoc $end
  $var reg 1 # input_hold_digital $end
  $var reg 1 $ reset $end
  $var reg 10 % s_DOT_output_result_digital $end
  $var reg 1 & clk $end
  $var reg 1 ' sys_clk $end
  $var reg 1 ( s_DOT_reset $end
  $var reg 10 ) input_voltage_real $end
  $var reg 1 * eoc $end
  $var reg 1 + s_DOT_input_hold_digital $end
  $var reg 10 , s_DOT_input_voltage_real $end
  $var reg 10 - output_result_digital $end
$upscope $end
$enddefinitions $end

b0b0 !
b0b0 "
b0b0 #
b0b0 $
b0b0000000000 %
b0b0 &
b0b0 '
b0b0 (
b0b0000000000 )
b0b0 *
b0b0 +
b0b0000000000 ,
b0b0000000000 -

#0
b0b1 &

b0b1 $
b0b1000000000 %
b0b1 (
b0b0000000000 )
b0b0 *
b0b0000000000 ,
b0b1000000000 -

#50
b0b0 &
#100
b0b1 &


#150
b0b0 &
#200
b0b1 &


#250
b0b0 &
#300
b0b1 &

b0b1 !
b0b0 $
b0b1 '
b0b0 (
b0b0101001110 )
b0b0101001110 ,

#350
b0b0 &
#400
b0b1 &

b0b0100001110 )
b0b0100001110 ,

#450
b0b0 &
#500
b0b1 &

b0b0001000000 )
b0b0001000000 ,

#550
b0b0 &
#600
b0b1 &

b0b1 #
b0b1 +

#650
b0b0 &
#700
b0b1 &

b0b0110000000 )
b0b0110000000 ,

#750
b0b0 &
#800
b0b1 &

b0b0000100100 )
b0b0000100100 ,

#850
b0b0 &
#900
b0b1 &

b0b0101000001 )
b0b0101000001 ,

#950
b0b0 &
#1000
b0b1 &

b0b0001110101 )
b0b0001110101 ,

#1050
b0b0 &
#1100
b0b1 &

b0b0000100100 )
b0b0000100100 ,

#1150
b0b0 &
#1200
b0b1 &

b0b0011010100 )
b0b0011010100 ,

#1250
b0b0 &
#1300
b0b1 &

b0b0100010001 )
b0b0100010001 ,

#1350
b0b0 &
#1400
b0b1 &

b0b0010101110 )
b0b0010101110 ,

#1450
b0b0 &
#1500
b0b1 &

b0b0000010111 )
b0b0000010111 ,

#1550
b0b0 &
#1600
b0b1 &

b0b0010000110 )
b0b0010000110 ,

#1650
b0b0 &
#1700
b0b1 &

b0b0000011010 )
b0b0000011010 ,

#1750
b0b0 &
#1800
b0b1 &

b0b0101100100 )
b0b0101100100 ,

#1850
b0b0 &
#1900
b0b1 &

b0b0010010010 )
b0b0010010010 ,

#1950
b0b0 &
#2000
b0b1 &

b0b0101010101 )
b0b0101010101 ,

#2050
b0b0 &
#2100
b0b1 &

b0b0011011000 )
b0b0011011000 ,

#2150
b0b0 &
#2200
b0b1 &

b0b0101101011 )
b0b0101101011 ,

#2250
b0b0 &
#2300
b0b1 &

b0b0110001000 )
b0b0110001000 ,

#2350
b0b0 &
#2400
b0b1 &

b0b0101011011 )
b0b0101011011 ,

#2450
b0b0 &
#2500
b0b1 &

b0b0000100010 )
b0b0000100010 ,

#2550
b0b0 &
#2600
b0b1 &

b0b0011001100 )
b0b0011001100 ,

#2650
b0b0 &
#2700
b0b1 &

b0b0100110110 )
b0b0100110110 ,

#2750
b0b0 &
#2800
b0b1 &

b0b0101110110 )
b0b0101110110 ,

#2850
b0b0 &
#2900
b0b1 &

b0b0001011000 )
b0b0001011000 ,

#2950
b0b0 &
#3000
b0b1 &

b0b0100101110 )
b0b0100101110 ,

#3050
b0b0 &
#3100
b0b1 &

b0b0001010110 )
b0b0001010110 ,

#3150
b0b0 &
#3200
b0b1 &

b0b0001011110 )
b0b0001011110 ,

#3250
b0b0 &
#3300
b0b1 &

b0b0000001001 )
b0b0000001001 ,

#3350
b0b0 &
#3400
b0b1 &

b0b0101010110 )
b0b0101010110 ,

#3450
b0b0 &
#3500
b0b1 &

b0b0000001100 )
b0b0000001100 ,

#3550
b0b0 &
#3600
b0b1 &

b0b0011011000 )
b0b0011011000 ,

#3650
b0b0 &
#3700
b0b1 &

b0b0110000111 )
b0b0110000111 ,

#3750
b0b0 &
#3800
b0b1 &

b0b0011000100 )
b0b0011000100 ,

#3850
b0b0 &
#3900
b0b1 &

b0b0010110010 )
b0b0010110010 ,

#3950
b0b0 &
#4000
b0b1 &

b0b0000100000 )
b0b0000100000 ,

#4050
b0b0 &
#4100
b0b1 &

b0b0001010010 )
b0b0001010010 ,

#4150
b0b0 &
#4200
b0b1 &

b0b0110011001 )
b0b0110011001 ,

#4250
b0b0 &
#4300
b0b1 &

b0b0001011100 )
b0b0001011100 ,

#4350
b0b0 &
#4400
b0b1 &

b0b0100110010 )
b0b0100110010 ,

#4450
b0b0 &
#4500
b0b1 &

b0b0001111100 )
b0b0001111100 ,

#4550
b0b0 &
#4600
b0b1 &

b0b0010000111 )
b0b0010000111 ,

#4650
b0b0 &
#4700
b0b1 &

b0b0010001011 )
b0b0010001011 ,

#4750
b0b0 &
#4800
b0b1 &

b0b0010111001 )
b0b0010111001 ,

#4850
b0b0 &
#4900
b0b1 &

b0b0000111011 )
b0b0000111011 ,

#4950
b0b0 &
#5000
b0b1 &

b0b0100000000 )
b0b0100000000 ,

#5050
b0b0 &
#5100
b0b1 &

b0b0110000001 )
b0b0110000001 ,

#5150
b0b0 &
#5200
b0b1 &

b0b0101100100 )
b0b0101100100 ,

#5250
b0b0 &
#5300
b0b1 &

b0b0011011001 )
b0b0011011001 ,

#5350
b0b0 &
#5400
b0b1 &

b0b0001011001 )
b0b0001011001 ,

#5450
b0b0 &
#5500
b0b1 &

b0b0100010011 )
b0b0100010011 ,

#5550
b0b0 &
#5600
b0b1 &

b0b0101000111 )
b0b0101000111 ,

#5650
b0b0 &
#5700
b0b1 &

b0b0001110011 )
b0b0001110011 ,

#5750
b0b0 &
#5800
b0b1 &

b0b0110010111 )
b0b0110010111 ,

#5850
b0b0 &
#5900
b0b1 &

b0b0000011101 )
b0b0000011101 ,

#5950
b0b0 &
#6000
b0b1 &

b0b0000101111 )
b0b0000101111 ,

#6050
b0b0 &
#6100
b0b1 &

b0b0010111010 )
b0b0010111010 ,

#6150
b0b0 &
#6200
b0b1 &

b0b0101101111 )
b0b0101101111 ,

#6250
b0b0 &
#6300
b0b1 &

b0b0000010011 )
b0b0000010011 ,

#6350
b0b0 &
#6400
b0b1 &

b0b0011000000 )
b0b0011000000 ,

#6450
b0b0 &
#6500
b0b1 &

b0b0001001011 )
b0b0001001011 ,

#6550
b0b0 &
#6600
b0b1 &

b0b0101000100 )
b0b0101000100 ,

#6650
b0b0 &
#6700
b0b1 &

b0b0011010010 )
b0b0011010010 ,

#6750
b0b0 &
#6800
b0b1 &

b0b0100110110 )
b0b0100110110 ,

#6850
b0b0 &
#6900
b0b1 &

b0b0101100000 )
b0b0101100000 ,

#6950
b0b0 &
#7000
b0b1 &

b0b0011001100 )
b0b0011001100 ,

#7050
b0b0 &
#7100
b0b1 &

b0b0100000100 )
b0b0100000100 ,

#7150
b0b0 &
#7200
b0b1 &

b0b0000001011 )
b0b0000001011 ,

#7250
b0b0 &
#7300
b0b1 &

b0b0100001010 )
b0b0100001010 ,

#7350
b0b0 &
#7400
b0b1 &

b0b0001001100 )
b0b0001001100 ,

#7450
b0b0 &
#7500
b0b1 &

b0b0000101111 )
b0b0000101111 ,

#7550
b0b0 &
#7600
b0b1 &

b0b0011101100 )
b0b0011101100 ,

#7650
b0b0 &
#7700
b0b1 &

b0b0011100011 )
b0b0011100011 ,

#7750
b0b0 &
#7800
b0b1 &

b0b0000111001 )
b0b0000111001 ,

#7850
b0b0 &
#7900
b0b1 &

b0b0010100010 )
b0b0010100010 ,

#7950
b0b0 &
#8000
b0b1 &

b0b0000100100 )
b0b0000100100 ,

#8050
b0b0 &
#8100
b0b1 &

b0b0010001001 )
b0b0010001001 ,

#8150
b0b0 &
#8200
b0b1 &

b0b0011010110 )
b0b0011010110 ,

#8250
b0b0 &
#8300
b0b1 &

b0b0001100001 )
b0b0001100001 ,

#8350
b0b0 &
#8400
b0b1 &

b0b0011110111 )
b0b0011110111 ,

#8450
b0b0 &
#8500
b0b1 &

b0b0000001101 )
b0b0000001101 ,

#8550
b0b0 &
#8600
b0b1 &

b0b0100111101 )
b0b0100111101 ,

#8650
b0b0 &
#8700
b0b1 &

b0b0100100001 )
b0b0100100001 ,

#8750
b0b0 &
#8800
b0b1 &

b0b0001001110 )
b0b0001001110 ,

#8850
b0b0 &
#8900
b0b1 &

b0b0100011000 )
b0b0100011000 ,

#8950
b0b0 &
#9000
b0b1 &

b0b0010111101 )
b0b0010111101 ,

#9050
b0b0 &
#9100
b0b1 &

b0b0001100011 )
b0b0001100011 ,

#9150
b0b0 &
#9200
b0b1 &

b0b0001000111 )
b0b0001000111 ,

#9250
b0b0 &
#9300
b0b1 &

b0b0001111000 )
b0b0001111000 ,

#9350
b0b0 &
#9400
b0b1 &

b0b0010100101 )
b0b0010100101 ,

#9450
b0b0 &
#9500
b0b1 &

b0b0011001000 )
b0b0011001000 ,

#9550
b0b0 &
#9600
b0b1 &

b0b0110001111 )
b0b0110001111 ,

#9650
b0b0 &
#9700
b0b1 &

b0b0000011111 )
b0b0000011111 ,

#9750
b0b0 &
#9800
b0b1 &

b0b0100010011 )
b0b0100010011 ,

#9850
b0b0 &
#9900
b0b1 &

b0b0010110010 )
b0b0010110010 ,

#9950
b0b0 &
#10000
b0b1 &

b0b0000101011 )
b0b0000101011 ,

#10050
b0b0 &
#10100
b0b1 &

b0b0001110010 )
b0b0001110010 ,

#10150
b0b0 &
#10200
b0b1 &

b0b0101101100 )
b0b0101101100 ,

#10250
b0b0 &
#10300
b0b1 &

b0b0100110111 )
b0b0100110111 ,

#10350
b0b0 &
#10400
b0b1 &

b0b0101101000 )
b0b0101101000 ,

#10450
b0b0 &
#10500
b0b1 &

b0b0011100111 )
b0b0011100111 ,

#10550
b0b0 &
#10600
b0b1 &

b0b0101101101 )
b0b0101101101 ,

#10650
b0b0 &
#10700
b0b1 &

b0b0110001101 )
b0b0110001101 ,

#10750
b0b0 &
#10800
b0b1 &

b0b0110010111 )
b0b0110010111 ,

#10850
b0b0 &
#10900
b0b1 &

b0b0010101101 )
b0b0010101101 ,

#10950
b0b0 &
#11000
b0b1 &

b0b0101110101 )
b0b0101110101 ,

#11050
b0b0 &
#11100
b0b1 &

b0b0011111001 )
b0b0011111001 ,

#11150
b0b0 &
#11200
b0b1 &

b0b0001001001 )
b0b0001001001 ,

#11250
b0b0 &
#11300
b0b1 &

b0b0101010001 )
b0b0101010001 ,

#11350
b0b0 &
#11400
b0b1 &

b0b0011111101 )
b0b0011111101 ,

#11450
b0b0 &
#11500
b0b1 &

b0b0100111011 )
b0b0100111011 ,

#11550
b0b0 &
#11600
b0b1 &

b0b0001001001 )
b0b0001001001 ,

#11650
b0b0 &
#11700
b0b1 &

b0b0101001110 )
b0b0101001110 ,

#11750
b0b0 &
#11800
b0b1 &

b0b0100101100 )
b0b0100101100 ,

#11850
b0b0 &
#11900
b0b1 &

b0b0010100010 )
b0b0010100010 ,

#11950
b0b0 &
#12000
b0b1 &

b0b0001011100 )
b0b0001011100 ,

#12050
b0b0 &
#12100
b0b1 &

b0b0001001101 )
b0b0001001101 ,

#12150
b0b0 &
#12200
b0b1 &

b0b0101110011 )
b0b0101110011 ,

#12250
b0b0 &
#12300
b0b1 &

b0b0101001101 )
b0b0101001101 ,

#12350
b0b0 &
#12400
b0b1 &

b0b0101000000 )
b0b0101000000 ,

#12450
b0b0 &
#12500
b0b1 &

b0b0110100101 )
b0b0110100101 ,

#12550
b0b0 &
#12600
b0b1 &

b0b0101100101 )
b0b0101100101 ,

#12650
b0b0 &
#12700
b0b1 &

b0b0000110110 )
b0b0000110110 ,

#12750
b0b0 &
#12800
b0b1 &

b0b0000101011 )
b0b0000101011 ,

#12850
b0b0 &
#12900
b0b1 &

b0b0000100110 )
b0b0000100110 ,

#12950
b0b0 &
#13000
b0b1 &

b0b0000110010 )
b0b0000110010 ,

#13050
b0b0 &
#13100
b0b1 &

b0b0001111100 )
b0b0001111100 ,

#13150
b0b0 &
#13200
b0b1 &

b0b0100101101 )
b0b0100101101 ,

#13250
b0b0 &
#13300
b0b1 &

b0b0001100000 )
b0b0001100000 ,

#13350
b0b0 &
#13400
b0b1 &

b0b0000001010 )
b0b0000001010 ,

#13450
b0b0 &
#13500
b0b1 &

b0b0101000000 )
b0b0101000000 ,

#13550
b0b0 &
#13600
b0b1 &

b0b0011101010 )
b0b0011101010 ,

#13650
b0b0 &
#13700
b0b1 &

b0b0011010100 )
b0b0011010100 ,

#13750
b0b0 &
#13800
b0b1 &

b0b0101000011 )
b0b0101000011 ,

#13850
b0b0 &
#13900
b0b1 &

b0b0100001101 )
b0b0100001101 ,

#13950
b0b0 &
#14000
b0b1 &

b0b0010101001 )
b0b0010101001 ,

#14050
b0b0 &
#14100
b0b1 &

b0b0101101100 )
b0b0101101100 ,

#14150
b0b0 &
#14200
b0b1 &

b0b0101100001 )
b0b0101100001 ,

#14250
b0b0 &
#14300
b0b1 &

b0b0011100100 )
b0b0011100100 ,

#14350
b0b0 &
#14400
b0b1 &

b0b0000000101 )
b0b0000000101 ,

#14450
b0b0 &
#14500
b0b1 &

b0b0100111101 )
b0b0100111101 ,

#14550
b0b0 &
#14600
b0b1 &

b0b0000000010 )
b0b0000000010 ,

#14650
b0b0 &
#14700
b0b1 &

b0b0010000111 )
b0b0010000111 ,

#14750
b0b0 &
#14800
b0b1 &

b0b0001010011 )
b0b0001010011 ,

#14850
b0b0 &
#14900
b0b1 &

b0b0010001100 )
b0b0010001100 ,

#14950
b0b0 &
#15000
b0b1 &

b0b0101010011 )
b0b0101010011 ,

#15050
b0b0 &
#15100
b0b1 &

b0b0010110100 )
b0b0010110100 ,

#15150
b0b0 &
#15200
b0b1 &

b0b0011000011 )
b0b0011000011 ,

#15250
b0b0 &
#15300
b0b1 &

b0b0000111011 )
b0b0000111011 ,

#15350
b0b0 &
#15400
b0b1 &

b0b0101001011 )
b0b0101001011 ,

#15450
b0b0 &
#15500
b0b1 &

b0b0110000110 )
b0b0110000110 ,

#15550
b0b0 &
#15600
b0b1 &

b0b0011100011 )
b0b0011100011 ,

#15650
b0b0 &
#15700
b0b1 &

b0b0011111000 )
b0b0011111000 ,

#15750
b0b0 &
#15800
b0b1 &

b0b0100001010 )
b0b0100001010 ,

#15850
b0b0 &
#15900
b0b1 &

b0b0100000101 )
b0b0100000101 ,

#15950
b0b0 &
#16000
b0b1 &

b0b0100100010 )
b0b0100100010 ,

#16050
b0b0 &
#16100
b0b1 &

b0b0000101001 )
b0b0000101001 ,

#16150
b0b0 &
#16200
b0b1 &

b0b0101010101 )
b0b0101010101 ,

#16250
b0b0 &
#16300
b0b1 &

b0b0011110010 )
b0b0011110010 ,

#16350
b0b0 &
#16400
b0b1 &

b0b0110010111 )
b0b0110010111 ,

#16450
b0b0 &
#16500
b0b1 &

b0b0011111111 )
b0b0011111111 ,

#16550
b0b0 &
#16600
b0b1 &

b0b0100001110 )
b0b0100001110 ,

#16650
b0b0 &
#16700
b0b1 &

b0b0100100000 )
b0b0100100000 ,

#16750
b0b0 &
#16800
b0b1 &

b0b0011101101 )
b0b0011101101 ,

#16850
b0b0 &
#16900
b0b1 &

b0b0001101001 )
b0b0001101001 ,

#16950
b0b0 &
#17000
b0b1 &

b0b0101010101 )
b0b0101010101 ,

#17050
b0b0 &
#17100
b0b1 &

b0b0101100010 )
b0b0101100010 ,

#17150
b0b0 &
#17200
b0b1 &

b0b0101000110 )
b0b0101000110 ,

#17250
b0b0 &
#17300
b0b1 &

b0b0110011010 )
b0b0110011010 ,

#17350
b0b0 &
#17400
b0b1 &

b0b0000000110 )
b0b0000000110 ,

#17450
b0b0 &
#17500
b0b1 &

b0b0011001000 )
b0b0011001000 ,

#17550
b0b0 &
#17600
b0b1 &

b0b0101011101 )
b0b0101011101 ,

#17650
b0b0 &
#17700
b0b1 &

b0b0011010101 )
b0b0011010101 ,

#17750
b0b0 &
#17800
b0b1 &

b0b0011011110 )
b0b0011011110 ,

#17850
b0b0 &
#17900
b0b1 &

b0b0001111011 )
b0b0001111011 ,

#17950
b0b0 &
#18000
b0b1 &

b0b0100011001 )
b0b0100011001 ,

#18050
b0b0 &
#18100
b0b1 &

b0b0100011101 )
b0b0100011101 ,

#18150
b0b0 &
#18200
b0b1 &

b0b0000101000 )
b0b0000101000 ,

#18250
b0b0 &
#18300
b0b1 &

b0b0011110001 )
b0b0011110001 ,

#18350
b0b0 &
#18400
b0b1 &

b0b0000011010 )
b0b0000011010 ,

#18450
b0b0 &
#18500
b0b1 &

b0b0001110101 )
b0b0001110101 ,

#18550
b0b0 &
#18600
b0b1 &

b0b0011110010 )
b0b0011110010 ,

#18650
b0b0 &
#18700
b0b1 &

b0b0101101101 )
b0b0101101101 ,

#18750
b0b0 &
#18800
b0b1 &

b0b0000111101 )
b0b0000111101 ,

#18850
b0b0 &
#18900
b0b1 &

b0b0101001000 )
b0b0101001000 ,

#18950
b0b0 &
#19000
b0b1 &

b0b0110001011 )
b0b0110001011 ,

#19050
b0b0 &
#19100
b0b1 &

b0b0001110001 )
b0b0001110001 ,

#19150
b0b0 &
#19200
b0b1 &

b0b0011001110 )
b0b0011001110 ,

#19250
b0b0 &
#19300
b0b1 &

b0b0100111011 )
b0b0100111011 ,

#19350
b0b0 &
#19400
b0b1 &

b0b0101110011 )
b0b0101110011 ,

#19450
b0b0 &
#19500
b0b1 &

b0b0011100101 )
b0b0011100101 ,

#19550
b0b0 &
#19600
b0b1 &

b0b0100000010 )
b0b0100000010 ,

#19650
b0b0 &
#19700
b0b1 &

b0b0101101111 )
b0b0101101111 ,

#19750
b0b0 &
#19800
b0b1 &

b0b0010000101 )
b0b0010000101 ,

#19850
b0b0 &
#19900
b0b1 &

b0b0011001111 )
b0b0011001111 ,

#19950
b0b0 &
#20000
b0b1 &

b0b0100001111 )
b0b0100001111 ,

#20050
b0b0 &
#20100
b0b1 &

b0b0010110010 )
b0b0010110010 ,

#20150
b0b0 &
#20200
b0b1 &

b0b0011000011 )
b0b0011000011 ,

#20250
b0b0 &
#20300
b0b1 &

b0b0101100001 )
b0b0101100001 ,

#20350
b0b0 &
#20400
b0b1 &

b0b0 !
b0b0 '
b0b0101000011 )
b0b0101000011 ,

#20450
b0b0 &
#20500
b0b1 &

b0b0001111111 )
b0b0001111111 ,

#20550
b0b0 &
#20600
b0b1 &

b0b0001011001 )
b0b0001011001 ,

#20650
b0b0 &
#20700
b0b1 &

b0b0011100100 )
b0b0011100100 ,

#20750
b0b0 &
#20800
b0b1 &

b0b0101111000 )
b0b0101111000 ,

#20850
b0b0 &
#20900
b0b1 &

b0b0011100010 )
b0b0011100010 ,

#20950
b0b0 &
#21000
b0b1 &

b0b0100111101 )
b0b0100111101 ,

#21050
b0b0 &
#21100
b0b1 &

b0b0010110101 )
b0b0010110101 ,

#21150
b0b0 &
#21200
b0b1 &

b0b0100000010 )
b0b0100000010 ,

#21250
b0b0 &
#21300
b0b1 &

b0b0000000100 )
b0b0000000100 ,

#21350
b0b0 &
#21400
b0b1 &

b0b0000010011 )
b0b0000010011 ,

#21450
b0b0 &
#21500
b0b1 &

b0b0011010111 )
b0b0011010111 ,

#21550
b0b0 &
#21600
b0b1 &

b0b0011000000 )
b0b0011000000 ,

#21650
b0b0 &
#21700
b0b1 &

b0b0101110101 )
b0b0101110101 ,

#21750
b0b0 &
#21800
b0b1 &

b0b0101101100 )
b0b0101101100 ,

#21850
b0b0 &
#21900
b0b1 &

b0b0100001101 )
b0b0100001101 ,

#21950
b0b0 &
#22000
b0b1 &

b0b0011110000 )
b0b0011110000 ,

#22050
b0b0 &
#22100
b0b1 &

b0b0101000010 )
b0b0101000010 ,

#22150
b0b0 &
#22200
b0b1 &

b0b0011110100 )
b0b0011110100 ,

#22250
b0b0 &
#22300
b0b1 &

b0b0100000101 )
b0b0100000101 ,

#22350
b0b0 &
#22400
b0b1 &

b0b0100100011 )
b0b0100100011 ,

#22450
b0b0 &
#22500
b0b1 &

b0b0110100000 )
b0b0110100000 ,

#22550
b0b0 &
#22600
b0b1 &

b0b0000100111 )
b0b0000100111 ,

#22650
b0b0 &
#22700
b0b1 &

b0b0101010111 )
b0b0101010111 ,

#22750
b0b0 &
#22800
b0b1 &

b0b0001010011 )
b0b0001010011 ,

#22850
b0b0 &
#22900
b0b1 &

b0b0011100110 )
b0b0011100110 ,

#22950
b0b0 &
#23000
b0b1 &

b0b0011010011 )
b0b0011010011 ,

#23050
b0b0 &
#23100
b0b1 &

b0b0000011110 )
b0b0000011110 ,

#23150
b0b0 &
#23200
b0b1 &

b0b0110011000 )
b0b0110011000 ,

#23250
b0b0 &
#23300
b0b1 &

b0b0011100001 )
b0b0011100001 ,

#23350
b0b0 &
#23400
b0b1 &

b0b0011001101 )
b0b0011001101 ,

#23450
b0b0 &
#23500
b0b1 &

b0b0000000110 )
b0b0000000110 ,

#23550
b0b0 &
#23600
b0b1 &

b0b0011000100 )
b0b0011000100 ,

#23650
b0b0 &
#23700
b0b1 &

b0b0110010110 )
b0b0110010110 ,

#23750
b0b0 &
#23800
b0b1 &

b0b0010110010 )
b0b0010110010 ,

#23850
b0b0 &
#23900
b0b1 &

b0b0100011010 )
b0b0100011010 ,

#23950
b0b0 &
#24000
b0b1 &

b0b0100111001 )
b0b0100111001 ,

#24050
b0b0 &
#24100
b0b1 &

b0b0010001110 )
b0b0010001110 ,

#24150
b0b0 &
#24200
b0b1 &

b0b0001010111 )
b0b0001010111 ,

#24250
b0b0 &
#24300
b0b1 &

b0b0100111010 )
b0b0100111010 ,

#24350
b0b0 &
#24400
b0b1 &

b0b0110010000 )
b0b0110010000 ,

#24450
b0b0 &
#24500
b0b1 &

b0b0100010000 )
b0b0100010000 ,

#24550
b0b0 &
#24600
b0b1 &

b0b0011111100 )
b0b0011111100 ,

#24650
b0b0 &
#24700
b0b1 &

b0b0000011101 )
b0b0000011101 ,

#24750
b0b0 &
#24800
b0b1 &

b0b0101101100 )
b0b0101101100 ,

#24850
b0b0 &
#24900
b0b1 &

b0b0010000101 )
b0b0010000101 ,

#24950
b0b0 &
#25000
b0b1 &

b0b0100010011 )
b0b0100010011 ,

#25050
b0b0 &
#25100
b0b1 &

b0b0010011100 )
b0b0010011100 ,

#25150
b0b0 &
#25200
b0b1 &

b0b0000010011 )
b0b0000010011 ,

#25250
b0b0 &
#25300
b0b1 &

b0b0001000010 )
b0b0001000010 ,

#25350
b0b0 &
#25400
b0b1 &

b0b0110000000 )
b0b0110000000 ,

#25450
b0b0 &
#25500
b0b1 &

b0b0000110000 )
b0b0000110000 ,

#25550
b0b0 &
#25600
b0b1 &

b0b0010011001 )
b0b0010011001 ,

#25650
b0b0 &
#25700
b0b1 &

b0b0110001110 )
b0b0110001110 ,

#25750
b0b0 &
#25800
b0b1 &

b0b0011110010 )
b0b0011110010 ,

#25850
b0b0 &
#25900
b0b1 &

b0b0010000100 )
b0b0010000100 ,

#25950
b0b0 &
#26000
b0b1 &

b0b0001000011 )
b0b0001000011 ,

#26050
b0b0 &
#26100
b0b1 &

b0b0011111000 )
b0b0011111000 ,

#26150
b0b0 &
#26200
b0b1 &

b0b0000010110 )
b0b0000010110 ,

#26250
b0b0 &
#26300
b0b1 &

b0b0010101111 )
b0b0010101111 ,

#26350
b0b0 &
#26400
b0b1 &

b0b0011010001 )
b0b0011010001 ,

#26450
b0b0 &
#26500
b0b1 &

b0b0010011100 )
b0b0010011100 ,

#26550
b0b0 &
#26600
b0b1 &

b0b0101000101 )
b0b0101000101 ,

#26650
b0b0 &
#26700
b0b1 &

b0b0001001010 )
b0b0001001010 ,

#26750
b0b0 &
#26800
b0b1 &

b0b0010000100 )
b0b0010000100 ,

#26850
b0b0 &
#26900
b0b1 &

b0b0100010000 )
b0b0100010000 ,

#26950
b0b0 &
#27000
b0b1 &

b0b0001010110 )
b0b0001010110 ,

#27050
b0b0 &
#27100
b0b1 &

b0b0001011110 )
b0b0001011110 ,

#27150
b0b0 &
#27200
b0b1 &

b0b0101000111 )
b0b0101000111 ,

#27250
b0b0 &
#27300
b0b1 &

b0b0001001100 )
b0b0001001100 ,

#27350
b0b0 &
#27400
b0b1 &

b0b0010011110 )
b0b0010011110 ,

#27450
b0b0 &
#27500
b0b1 &

b0b0101100101 )
b0b0101100101 ,

#27550
b0b0 &
#27600
b0b1 &

b0b0100011110 )
b0b0100011110 ,

#27650
b0b0 &
#27700
b0b1 &

b0b0010011010 )
b0b0010011010 ,

#27750
b0b0 &
#27800
b0b1 &

b0b0000101111 )
b0b0000101111 ,

#27850
b0b0 &
#27900
b0b1 &

b0b0010011010 )
b0b0010011010 ,

#27950
b0b0 &
#28000
b0b1 &

b0b0101011111 )
b0b0101011111 ,

#28050
b0b0 &
#28100
b0b1 &

b0b0010010011 )
b0b0010010011 ,

#28150
b0b0 &
#28200
b0b1 &

b0b0101101100 )
b0b0101101100 ,

#28250
b0b0 &
#28300
b0b1 &

b0b0100110010 )
b0b0100110010 ,

#28350
b0b0 &
#28400
b0b1 &

b0b0110001001 )
b0b0110001001 ,

#28450
b0b0 &
#28500
b0b1 &

b0b0100011111 )
b0b0100011111 ,

#28550
b0b0 &
#28600
b0b1 &

b0b0001000011 )
b0b0001000011 ,

#28650
b0b0 &
#28700
b0b1 &

b0b0100101111 )
b0b0100101111 ,

#28750
b0b0 &
#28800
b0b1 &

b0b0110001101 )
b0b0110001101 ,

#28850
b0b0 &
#28900
b0b1 &

b0b0001110100 )
b0b0001110100 ,

#28950
b0b0 &
#29000
b0b1 &

b0b0000010101 )
b0b0000010101 ,

#29050
b0b0 &
#29100
b0b1 &

b0b0011001010 )
b0b0011001010 ,

#29150
b0b0 &
#29200
b0b1 &

b0b0000001101 )
b0b0000001101 ,

#29250
b0b0 &
#29300
b0b1 &

b0b0011010111 )
b0b0011010111 ,

#29350
b0b0 &
#29400
b0b1 &

b0b0110000110 )
b0b0110000110 ,

#29450
b0b0 &
#29500
b0b1 &

b0b0011001110 )
b0b0011001110 ,

#29550
b0b0 &
#29600
b0b1 &

b0b0110000111 )
b0b0110000111 ,

#29650
b0b0 &
#29700
b0b1 &

b0b0110001111 )
b0b0110001111 ,

#29750
b0b0 &
#29800
b0b1 &

b0b0110011110 )
b0b0110011110 ,

#29850
b0b0 &
#29900
b0b1 &

b0b0110010100 )
b0b0110010100 ,

#29950
b0b0 &
#30000
b0b1 &

b0b0010111100 )
b0b0010111100 ,

#30050
b0b0 &
#30100
b0b1 &

b0b0110001111 )
b0b0110001111 ,

#30150
b0b0 &
#30200
b0b1 &

b0b0001101100 )
b0b0001101100 ,

#30250
b0b0 &
#30300
b0b1 &

b0b0100011111 )
b0b0100011111 ,

#30350
b0b0 &
#30400
b0b1 &

b0b1 !
b0b1 '
b0b0001011010 )
b0b0001011010 ,

#30450
b0b0 &
#30500
b0b1 &

b0b0001111100 )
b0b0001111100 ,

#30550
b0b0 &
#30600
b0b1 &

b0b0010010111 )
b0b0010010111 ,

#30650
b0b0 &
#30700
b0b1 &

b0b0100100010 )
b0b0100100010 ,

#30750
b0b0 &
#30800
b0b1 &

b0b0000111101 )
b0b0000111101 ,

#30850
b0b0 &
#30900
b0b1 &

b0b0010000111 )
b0b0010000111 ,

#30950
b0b0 &
#31000
b0b1 &

b0b0001101111 )
b0b0001101111 ,

#31050
b0b0 &
#31100
b0b1 &

b0b0001101101 )
b0b0001101101 ,

#31150
b0b0 &
#31200
b0b1 &

b0b0010111100 )
b0b0010111100 ,

#31250
b0b0 &
#31300
b0b1 &

b0b0010010110 )
b0b0010010110 ,

#31350
b0b0 &
#31400
b0b1 &

b0b0101110010 )
b0b0101110010 ,

#31450
b0b0 &
#31500
b0b1 &

b0b0001001111 )
b0b0001001111 ,

#31550
b0b0 &
#31600
b0b1 &

b0b0000011110 )
b0b0000011110 ,

#31650
b0b0 &
#31700
b0b1 &

b0b0001000001 )
b0b0001000001 ,

#31750
b0b0 &
#31800
b0b1 &

b0b0000000000 )
b0b0000000000 ,

#31850
b0b0 &
#31900
b0b1 &

b0b0100010000 )
b0b0100010000 ,

#31950
b0b0 &
#32000
b0b1 &

b0b0011010011 )
b0b0011010011 ,

#32050
b0b0 &
#32100
b0b1 &

b0b0011000100 )
b0b0011000100 ,

#32150
b0b0 &
#32200
b0b1 &

b0b0110010011 )
b0b0110010011 ,

#32250
b0b0 &
#32300
b0b1 &

b0b0001011110 )
b0b0001011110 ,

#32350
b0b0 &
#32400
b0b1 &

b0b0010100000 )
b0b0010100000 ,

#32450
b0b0 &
#32500
b0b1 &

b0b0000010101 )
b0b0000010101 ,

#32550
b0b0 &
#32600
b0b1 &

b0b0011010100 )
b0b0011010100 ,

#32650
b0b0 &
#32700
b0b1 &

b0b0011101000 )
b0b0011101000 ,

#32750
b0b0 &
#32800
b0b1 &

b0b0100100001 )
b0b0100100001 ,

#32850
b0b0 &
#32900
b0b1 &

b0b0000110111 )
b0b0000110111 ,

#32950
b0b0 &
#33000
b0b1 &

b0b0000011000 )
b0b0000011000 ,

#33050
b0b0 &
#33100
b0b1 &

b0b0011000101 )
b0b0011000101 ,

#33150
b0b0 &
#33200
b0b1 &

b0b0011010101 )
b0b0011010101 ,

#33250
b0b0 &
#33300
b0b1 &

b0b0011100110 )
b0b0011100110 ,

#33350
b0b0 &
#33400
b0b1 &

b0b0101001011 )
b0b0101001011 ,

#33450
b0b0 &
#33500
b0b1 &

b0b0110001101 )
b0b0110001101 ,

#33550
b0b0 &
