sar_adc_model/sar_adc_nonideal_comparator/build/sar_adc_nonideal_comparator.tests.test_sar_adc__test_sar_adc_thrash_input_0.1.vcd
$date
  Sat Nov 18 19:14:37 2023
$end
$version
  PyMTL 3 (Mamba)
$end
$timescale
 10ps
$end

$scope module top $end
  $var reg 10 ! output_result_digital $end
  $var reg 1 " clk $end
  $var reg 10 # input_voltage_real $end
  $var reg 1 $ s_DOT_sys_clk $end
  $var reg 1 % eoc $end
  $var reg 1 & input_hold_digital $end
  $var reg 1 ' s_DOT_eoc $end
  $var reg 1 ( s_DOT_input_hold_digital $end
  $var reg 1 ) s_DOT_reset $end
  $var reg 10 * s_DOT_output_result_digital $end
  $var reg 1 + sys_clk $end
  $var reg 10 , s_DOT_input_voltage_real $end
  $var reg 1 - reset $end
$upscope $end
$enddefinitions $end

b0b0000000000 !
b0b0 "
b0b0000000000 #
b0b0 $
b0b0 %
b0b0 &
b0b0 '
b0b0 (
b0b0 )
b0b0000000000 *
b0b0 +
b0b0000000000 ,
b0b0 -

#0
b0b1 "

b0b1000000000 !
b0b0000000000 #
b0b0 $
b0b1 )
b0b1000000000 *
b0b0 +
b0b0000000000 ,
b0b1 -

#50
b0b0 "
#100
b0b1 "


#150
b0b0 "
#200
b0b1 "


#250
b0b0 "
#300
b0b1 "

b0b0001010011 #
b0b1 $
b0b0 )
b0b1 +
b0b0001010011 ,
b0b0 -

#350
b0b0 "
#400
b0b1 "

b0b0100100100 #
b0b0100100100 ,

#450
b0b0 "
#500
b0b1 "

b0b0000001101 #
b0b0000001101 ,

#550
b0b0 "
#600
b0b1 "

b0b1 &
b0b1 (

#650
b0b0 "
#700
b0b1 "

b0b0110011110 #
b0b0110011110 ,

#750
b0b0 "
#800
b0b1 "

b0b0100010101 #
b0b0100010101 ,

#850
b0b0 "
#900
b0b1 "

b0b0101001001 #
b0b0101001001 ,

#950
b0b0 "
#1000
b0b1 "

b0b0101110000 #
b0b0101110000 ,

#1050
b0b0 "
#1100
b0b1 "

b0b0011100001 #
b0b0011100001 ,

#1150
b0b0 "
#1200
b0b1 "

b0b0101110101 #
b0b0101110101 ,

#1250
b0b0 "
#1300
b0b1 "

b0b0000010001 #
b0b0000010001 ,

#1350
b0b0 "
#1400
b0b1 "

b0b0010010110 #
b0b0010010110 ,

#1450
b0b0 "
#1500
b0b1 "

b0b0100000101 #
b0b0100000101 ,

#1550
b0b0 "
#1600
b0b1 "

b0b0010010000 #
b0b0010010000 ,

#1650
b0b0 "
#1700
b0b1 "

b0b0010111011 #
b0b0010111011 ,

#1750
b0b0 "
#1800
b0b1 "

b0b0001111011 #
b0b0001111011 ,

#1850
b0b0 "
#1900
b0b1 "

b0b0100001001 #
b0b0100001001 ,

#1950
b0b0 "
#2000
b0b1 "

b0b0010001101 #
b0b0010001101 ,

#2050
b0b0 "
#2100
b0b1 "

b0b0011001011 #
b0b0011001011 ,

#2150
b0b0 "
#2200
b0b1 "

b0b0011111010 #
b0b0011111010 ,

#2250
b0b0 "
#2300
b0b1 "

b0b0110011110 #
b0b0110011110 ,

#2350
b0b0 "
#2400
b0b1 "

b0b0100101001 #
b0b0100101001 ,

#2450
b0b0 "
#2500
b0b1 "

b0b0000101110 #
b0b0000101110 ,

#2550
b0b0 "
#2600
b0b1 "

b0b0001111000 #
b0b0001111000 ,

#2650
b0b0 "
#2700
b0b1 "

b0b0110100011 #
b0b0110100011 ,

#2750
b0b0 "
#2800
b0b1 "

b0b0101010100 #
b0b0101010100 ,

#2850
b0b0 "
#2900
b0b1 "

b0b0001110100 #
b0b0001110100 ,

#2950
b0b0 "
#3000
b0b1 "

b0b0100010110 #
b0b0100010110 ,

#3050
b0b0 "
#3100
b0b1 "

b0b0100010111 #
b0b0100010111 ,

#3150
b0b0 "
#3200
b0b1 "

b0b0011101010 #
b0b0011101010 ,

#3250
b0b0 "
#3300
b0b1 "

b0b0001100101 #
b0b0001100101 ,

#3350
b0b0 "
#3400
b0b1 "

b0b0000010100 #
b0b0000010100 ,

#3450
b0b0 "
#3500
b0b1 "

b0b0011110010 #
b0b0011110010 ,

#3550
b0b0 "
#3600
b0b1 "

b0b0001101010 #
b0b0001101010 ,

#3650
b0b0 "
#3700
b0b1 "

b0b0000100111 #
b0b0000100111 ,

#3750
b0b0 "
#3800
b0b1 "

b0b0100100000 #
b0b0100100000 ,

#3850
b0b0 "
#3900
b0b1 "

b0b0100110010 #
b0b0100110010 ,

#3950
b0b0 "
#4000
b0b1 "

b0b0001000011 #
b0b0001000011 ,

#4050
b0b0 "
#4100
b0b1 "

b0b0011011110 #
b0b0011011110 ,

#4150
b0b0 "
#4200
b0b1 "

b0b0101010000 #
b0b0101010000 ,

#4250
b0b0 "
#4300
b0b1 "

b0b0100011001 #
b0b0100011001 ,

#4350
b0b0 "
#4400
b0b1 "

b0b0100010010 #
b0b0100010010 ,

#4450
b0b0 "
#4500
b0b1 "

b0b0001110000 #
b0b0001110000 ,

#4550
b0b0 "
#4600
b0b1 "

b0b0000001101 #
b0b0000001101 ,

#4650
b0b0 "
#4700
b0b1 "

b0b0000100001 #
b0b0000100001 ,

#4750
b0b0 "
#4800
b0b1 "

b0b0101111011 #
b0b0101111011 ,

#4850
b0b0 "
#4900
b0b1 "

b0b0011011001 #
b0b0011011001 ,

#4950
b0b0 "
#5000
b0b1 "

b0b0100111101 #
b0b0100111101 ,

#5050
b0b0 "
#5100
b0b1 "

b0b0100110111 #
b0b0100110111 ,

#5150
b0b0 "
#5200
b0b1 "

b0b0101101111 #
b0b0101101111 ,

#5250
b0b0 "
#5300
b0b1 "

b0b0101101000 #
b0b0101101000 ,

#5350
b0b0 "
#5400
b0b1 "

b0b0101001110 #
b0b0101001110 ,

#5450
b0b0 "
#5500
b0b1 "

b0b0110100101 #
b0b0110100101 ,

#5550
b0b0 "
#5600
b0b1 "

b0b0011111100 #
b0b0011111100 ,

#5650
b0b0 "
#5700
b0b1 "

b0b0010101111 #
b0b0010101111 ,

#5750
b0b0 "
#5800
b0b1 "

b0b0110010111 #
b0b0110010111 ,

#5850
b0b0 "
#5900
b0b1 "

b0b0011010011 #
b0b0011010011 ,

#5950
b0b0 "
#6000
b0b1 "

b0b0101011011 #
b0b0101011011 ,

#6050
b0b0 "
#6100
b0b1 "

b0b0000000101 #
b0b0000000101 ,

#6150
b0b0 "
#6200
b0b1 "

b0b0101001110 #
b0b0101001110 ,

#6250
b0b0 "
#6300
b0b1 "

b0b0000101001 #
b0b0000101001 ,

#6350
b0b0 "
#6400
b0b1 "

b0b0101111110 #
b0b0101111110 ,

#6450
b0b0 "
#6500
b0b1 "

b0b0011100010 #
b0b0011100010 ,

#6550
b0b0 "
#6600
b0b1 "

b0b0000110011 #
b0b0000110011 ,

#6650
b0b0 "
#6700
b0b1 "

b0b0001111111 #
b0b0001111111 ,

#6750
b0b0 "
#6800
b0b1 "

b0b0101011101 #
b0b0101011101 ,

#6850
b0b0 "
#6900
b0b1 "

b0b0000110010 #
b0b0000110010 ,

#6950
b0b0 "
#7000
b0b1 "

b0b0000111000 #
b0b0000111000 ,

#7050
b0b0 "
#7100
b0b1 "

b0b0010011011 #
b0b0010011011 ,

#7150
b0b0 "
#7200
b0b1 "

b0b0101010011 #
b0b0101010011 ,

#7250
b0b0 "
#7300
b0b1 "

b0b0101100011 #
b0b0101100011 ,

#7350
b0b0 "
#7400
b0b1 "

b0b0011100100 #
b0b0011100100 ,

#7450
b0b0 "
#7500
b0b1 "

b0b0100000011 #
b0b0100000011 ,

#7550
b0b0 "
#7600
b0b1 "

b0b0001111110 #
b0b0001111110 ,

#7650
b0b0 "
#7700
b0b1 "

b0b0011100010 #
b0b0011100010 ,

#7750
b0b0 "
#7800
b0b1 "

b0b0011010001 #
b0b0011010001 ,

#7850
b0b0 "
#7900
b0b1 "

b0b0001011010 #
b0b0001011010 ,

#7950
b0b0 "
#8000
b0b1 "

b0b0000100010 #
b0b0000100010 ,

#8050
b0b0 "
#8100
b0b1 "

b0b0010100110 #
b0b0010100110 ,

#8150
b0b0 "
#8200
b0b1 "

b0b0100011111 #
b0b0100011111 ,

#8250
b0b0 "
#8300
b0b1 "

b0b0110011010 #
b0b0110011010 ,

#8350
b0b0 "
#8400
b0b1 "

b0b0110100001 #
b0b0110100001 ,

#8450
b0b0 "
#8500
b0b1 "

b0b0110011010 #
b0b0110011010 ,

#8550
b0b0 "
#8600
b0b1 "

b0b0100010101 #
b0b0100010101 ,

#8650
b0b0 "
#8700
b0b1 "

b0b0001111010 #
b0b0001111010 ,

#8750
b0b0 "
#8800
b0b1 "

b0b0001011100 #
b0b0001011100 ,

#8850
b0b0 "
#8900
b0b1 "

b0b0110011100 #
b0b0110011100 ,

#8950
b0b0 "
#9000
b0b1 "

b0b0010000011 #
b0b0010000011 ,

#9050
b0b0 "
#9100
b0b1 "

b0b0001110001 #
b0b0001110001 ,

#9150
b0b0 "
#9200
b0b1 "

b0b0001001011 #
b0b0001001011 ,

#9250
b0b0 "
#9300
b0b1 "

b0b0100000110 #
b0b0100000110 ,

#9350
b0b0 "
#9400
b0b1 "

b0b0001001000 #
b0b0001001000 ,

#9450
b0b0 "
#9500
b0b1 "

b0b0101111101 #
b0b0101111101 ,

#9550
b0b0 "
#9600
b0b1 "

b0b0010010111 #
b0b0010010111 ,

#9650
b0b0 "
#9700
b0b1 "

b0b0011111101 #
b0b0011111101 ,

#9750
b0b0 "
#9800
b0b1 "

b0b0010011010 #
b0b0010011010 ,

#9850
b0b0 "
#9900
b0b1 "

b0b0101001000 #
b0b0101001000 ,

#9950
b0b0 "
#10000
b0b1 "

b0b0000000110 #
b0b0000000110 ,

#10050
b0b0 "
#10100
b0b1 "

b0b0010001011 #
b0b0010001011 ,

#10150
b0b0 "
#10200
b0b1 "

b0b0000110000 #
b0b0000110000 ,

#10250
b0b0 "
#10300
b0b1 "

b0b0101000000 #
b0b0101000000 ,

#10350
b0b0 "
#10400
b0b1 "

b0b0100101101 #
b0b0100101101 ,

#10450
b0b0 "
#10500
b0b1 "

b0b0010111001 #
b0b0010111001 ,

#10550
b0b0 "
#10600
b0b1 "

b0b0001111000 #
b0b0001111000 ,

#10650
b0b0 "
#10700
b0b1 "

b0b0101100110 #
b0b0101100110 ,

#10750
b0b0 "
#10800
b0b1 "

b0b0010001010 #
b0b0010001010 ,

#10850
b0b0 "
#10900
b0b1 "

b0b0010001100 #
b0b0010001100 ,

#10950
b0b0 "
#11000
b0b1 "

b0b0101111011 #
b0b0101111011 ,

#11050
b0b0 "
#11100
b0b1 "

b0b0001001000 #
b0b0001001000 ,

#11150
b0b0 "
#11200
b0b1 "

b0b0001000011 #
b0b0001000011 ,

#11250
b0b0 "
#11300
b0b1 "

b0b0100011011 #
b0b0100011011 ,

#11350
b0b0 "
#11400
b0b1 "

b0b0001001100 #
b0b0001001100 ,

#11450
b0b0 "
#11500
b0b1 "

b0b0011101010 #
b0b0011101010 ,

#11550
b0b0 "
#11600
b0b1 "

b0b0010101110 #
b0b0010101110 ,

#11650
b0b0 "
#11700
b0b1 "

b0b0101011101 #
b0b0101011101 ,

#11750
b0b0 "
#11800
b0b1 "

b0b0001111111 #
b0b0001111111 ,

#11850
b0b0 "
#11900
b0b1 "

b0b0010101010 #
b0b0010101010 ,

#11950
b0b0 "
#12000
b0b1 "

b0b0100001001 #
b0b0100001001 ,

#12050
b0b0 "
#12100
b0b1 "

b0b0011010110 #
b0b0011010110 ,

#12150
b0b0 "
#12200
b0b1 "

b0b0011111011 #
b0b0011111011 ,

#12250
b0b0 "
#12300
b0b1 "

b0b0011010010 #
b0b0011010010 ,

#12350
b0b0 "
#12400
b0b1 "

b0b0101101011 #
b0b0101101011 ,

#12450
b0b0 "
#12500
b0b1 "

b0b0100100001 #
b0b0100100001 ,

#12550
b0b0 "
#12600
b0b1 "

b0b0100010100 #
b0b0100010100 ,

#12650
b0b0 "
#12700
b0b1 "

b0b0101101011 #
b0b0101101011 ,

#12750
b0b0 "
#12800
b0b1 "

b0b0101110111 #
b0b0101110111 ,

#12850
b0b0 "
#12900
b0b1 "

b0b0110001010 #
b0b0110001010 ,

#12950
b0b0 "
#13000
b0b1 "

b0b0001110000 #
b0b0001110000 ,

#13050
b0b0 "
#13100
b0b1 "

b0b0100101010 #
b0b0100101010 ,

#13150
b0b0 "
#13200
b0b1 "

b0b0101000110 #
b0b0101000110 ,

#13250
b0b0 "
#13300
b0b1 "

b0b0100110011 #
b0b0100110011 ,

#13350
b0b0 "
#13400
b0b1 "

b0b0101010010 #
b0b0101010010 ,

#13450
b0b0 "
#13500
b0b1 "

b0b0011111111 #
b0b0011111111 ,

#13550
b0b0 "
#13600
b0b1 "

b0b0011101100 #
b0b0011101100 ,

#13650
b0b0 "
#13700
b0b1 "

b0b0110100001 #
b0b0110100001 ,

#13750
b0b0 "
#13800
b0b1 "

b0b0011101101 #
b0b0011101101 ,

#13850
b0b0 "
#13900
b0b1 "

b0b0101110100 #
b0b0101110100 ,

#13950
b0b0 "
#14000
b0b1 "

b0b0001000100 #
b0b0001000100 ,

#14050
b0b0 "
#14100
b0b1 "

b0b0010110101 #
b0b0010110101 ,

#14150
b0b0 "
#14200
b0b1 "

b0b0001011110 #
b0b0001011110 ,

#14250
b0b0 "
#14300
b0b1 "

b0b0010111000 #
b0b0010111000 ,

#14350
b0b0 "
#14400
b0b1 "

b0b0000110000 #
b0b0000110000 ,

#14450
b0b0 "
#14500
b0b1 "

b0b0101010000 #
b0b0101010000 ,

#14550
b0b0 "
#14600
b0b1 "

b0b0010110000 #
b0b0010110000 ,

#14650
b0b0 "
#14700
b0b1 "

b0b0011000011 #
b0b0011000011 ,

#14750
b0b0 "
#14800
b0b1 "

b0b0100110000 #
b0b0100110000 ,

#14850
b0b0 "
#14900
b0b1 "

b0b0100011100 #
b0b0100011100 ,

#14950
b0b0 "
#15000
b0b1 "

b0b0100011101 #
b0b0100011101 ,

#15050
b0b0 "
#15100
b0b1 "

b0b0001011101 #
b0b0001011101 ,

#15150
b0b0 "
#15200
b0b1 "

b0b0100000101 #
b0b0100000101 ,

#15250
b0b0 "
#15300
b0b1 "

b0b0010100110 #
b0b0010100110 ,

#15350
b0b0 "
#15400
b0b1 "

b0b0011101011 #
b0b0011101011 ,

#15450
b0b0 "
#15500
b0b1 "

b0b0001000100 #
b0b0001000100 ,

#15550
b0b0 "
#15600
b0b1 "

b0b0101100111 #
b0b0101100111 ,

#15650
b0b0 "
#15700
b0b1 "

b0b0001101011 #
b0b0001101011 ,

#15750
b0b0 "
#15800
b0b1 "

b0b0100010011 #
b0b0100010011 ,

#15850
b0b0 "
#15900
b0b1 "

b0b0001110011 #
b0b0001110011 ,

#15950
b0b0 "
#16000
b0b1 "

b0b0010010001 #
b0b0010010001 ,

#16050
b0b0 "
#16100
b0b1 "

b0b0100101110 #
b0b0100101110 ,

#16150
b0b0 "
#16200
b0b1 "

b0b0101000001 #
b0b0101000001 ,

#16250
b0b0 "
#16300
b0b1 "

b0b0101110101 #
b0b0101110101 ,

#16350
b0b0 "
#16400
b0b1 "

b0b0110011101 #
b0b0110011101 ,

#16450
b0b0 "
#16500
b0b1 "

b0b0101001110 #
b0b0101001110 ,

#16550
b0b0 "
#16600
b0b1 "

b0b0000000001 #
b0b0000000001 ,

#16650
b0b0 "
#16700
b0b1 "

b0b0011010000 #
b0b0011010000 ,

#16750
b0b0 "
#16800
b0b1 "

b0b0100111101 #
b0b0100111101 ,

#16850
b0b0 "
#16900
b0b1 "

b0b0101001000 #
b0b0101001000 ,

#16950
b0b0 "
#17000
b0b1 "

b0b0001010010 #
b0b0001010010 ,

#17050
b0b0 "
#17100
b0b1 "

b0b0100111001 #
b0b0100111001 ,

#17150
b0b0 "
#17200
b0b1 "

b0b0011000010 #
b0b0011000010 ,

#17250
b0b0 "
#17300
b0b1 "

b0b0100011001 #
b0b0100011001 ,

#17350
b0b0 "
#17400
b0b1 "

b0b0110010111 #
b0b0110010111 ,

#17450
b0b0 "
#17500
b0b1 "

b0b0101010001 #
b0b0101010001 ,

#17550
b0b0 "
#17600
b0b1 "

b0b0001011101 #
b0b0001011101 ,

#17650
b0b0 "
#17700
b0b1 "

b0b0011010010 #
b0b0011010010 ,

#17750
b0b0 "
#17800
b0b1 "

b0b0011111001 #
b0b0011111001 ,

#17850
b0b0 "
#17900
b0b1 "

b0b0100011011 #
b0b0100011011 ,

#17950
b0b0 "
#18000
b0b1 "

b0b0101011010 #
b0b0101011010 ,

#18050
b0b0 "
#18100
b0b1 "

b0b0000110001 #
b0b0000110001 ,

#18150
b0b0 "
#18200
b0b1 "

b0b0100101010 #
b0b0100101010 ,

#18250
b0b0 "
#18300
b0b1 "

b0b0100010111 #
b0b0100010111 ,

#18350
b0b0 "
#18400
b0b1 "

b0b0001011111 #
b0b0001011111 ,

#18450
b0b0 "
#18500
b0b1 "

b0b0110011100 #
b0b0110011100 ,

#18550
b0b0 "
#18600
b0b1 "

b0b0011110100 #
b0b0011110100 ,

#18650
b0b0 "
#18700
b0b1 "

b0b0100101100 #
b0b0100101100 ,

#18750
b0b0 "
#18800
b0b1 "

b0b0100111010 #
b0b0100111010 ,

#18850
b0b0 "
#18900
b0b1 "

b0b0010110010 #
b0b0010110010 ,

#18950
b0b0 "
#19000
b0b1 "

b0b0001000001 #
b0b0001000001 ,

#19050
b0b0 "
#19100
b0b1 "

b0b0110000110 #
b0b0110000110 ,

#19150
b0b0 "
#19200
b0b1 "

b0b0100110111 #
b0b0100110111 ,

#19250
b0b0 "
#19300
b0b1 "

b0b0110010001 #
b0b0110010001 ,

#19350
b0b0 "
#19400
b0b1 "

b0b0100000111 #
b0b0100000111 ,

#19450
b0b0 "
#19500
b0b1 "

b0b0000100011 #
b0b0000100011 ,

#19550
b0b0 "
#19600
b0b1 "

b0b0010111010 #
b0b0010111010 ,

#19650
b0b0 "
#19700
b0b1 "

b0b0010001100 #
b0b0010001100 ,

#19750
b0b0 "
#19800
b0b1 "

b0b0101010000 #
b0b0101010000 ,

#19850
b0b0 "
#19900
b0b1 "

b0b0011110101 #
b0b0011110101 ,

#19950
b0b0 "
#20000
b0b1 "

b0b0001100110 #
b0b0001100110 ,

#20050
b0b0 "
#20100
b0b1 "

b0b0001101001 #
b0b0001101001 ,

#20150
b0b0 "
#20200
b0b1 "

b0b0101011100 #
b0b0101011100 ,

#20250
b0b0 "
#20300
b0b1 "

b0b0101111010 #
b0b0101111010 ,

#20350
b0b0 "
#20400
b0b1 "

b0b0000010111 #
b0b0 $
b0b0 +
b0b0000010111 ,

#20450
b0b0 "
#20500
b0b1 "

b0b0010001000 #
b0b0010001000 ,

#20550
b0b0 "
#20600
b0b1 "

b0b0110011000 #
b0b0110011000 ,

#20650
b0b0 "
#20700
b0b1 "

b0b0010011011 #
b0b0010011011 ,

#20750
b0b0 "
#20800
b0b1 "

b0b0001000010 #
b0b0001000010 ,

#20850
b0b0 "
#20900
b0b1 "

b0b0001000011 #
b0b0001000011 ,

#20950
b0b0 "
#21000
b0b1 "

b0b0100110011 #
b0b0100110011 ,

#21050
b0b0 "
#21100
b0b1 "

b0b0001100101 #
b0b0001100101 ,

#21150
b0b0 "
#21200
b0b1 "

b0b0101110101 #
b0b0101110101 ,

#21250
b0b0 "
#21300
b0b1 "

b0b0011010101 #
b0b0011010101 ,

#21350
b0b0 "
#21400
b0b1 "

b0b0101001010 #
b0b0101001010 ,

#21450
b0b0 "
#21500
b0b1 "

b0b0110001000 #
b0b0110001000 ,

#21550
b0b0 "
#21600
b0b1 "

b0b0110001101 #
b0b0110001101 ,

#21650
b0b0 "
#21700
b0b1 "

b0b0001011010 #
b0b0001011010 ,

#21750
b0b0 "
#21800
b0b1 "

b0b0110100001 #
b0b0110100001 ,

#21850
b0b0 "
#21900
b0b1 "

b0b0011000011 #
b0b0011000011 ,

#21950
b0b0 "
#22000
b0b1 "

b0b0110100010 #
b0b0110100010 ,

#22050
b0b0 "
#22100
b0b1 "

b0b0000000000 #
b0b0000000000 ,

#22150
b0b0 "
#22200
b0b1 "

b0b0000011111 #
b0b0000011111 ,

#22250
b0b0 "
#22300
b0b1 "

b0b0110011101 #
b0b0110011101 ,

#22350
b0b0 "
#22400
b0b1 "

b0b0010111000 #
b0b0010111000 ,

#22450
b0b0 "
#22500
b0b1 "

b0b0011001000 #
b0b0011001000 ,

#22550
b0b0 "
#22600
b0b1 "

b0b0001011001 #
b0b0001011001 ,

#22650
b0b0 "
#22700
b0b1 "

b0b0011011011 #
b0b0011011011 ,

#22750
b0b0 "
#22800
b0b1 "

b0b0001000000 #
b0b0001000000 ,

#22850
b0b0 "
#22900
b0b1 "

b0b0001011111 #
b0b0001011111 ,

#22950
b0b0 "
#23000
b0b1 "

b0b0000110111 #
b0b0000110111 ,

#23050
b0b0 "
#23100
b0b1 "

b0b0011100100 #
b0b0011100100 ,

#23150
b0b0 "
#23200
b0b1 "

b0b0001001011 #
b0b0001001011 ,

#23250
b0b0 "
#23300
b0b1 "

b0b0000011000 #
b0b0000011000 ,

#23350
b0b0 "
#23400
b0b1 "

b0b0011110010 #
b0b0011110010 ,

#23450
b0b0 "
#23500
b0b1 "

b0b0110010011 #
b0b0110010011 ,

#23550
b0b0 "
#23600
b0b1 "

b0b0101101011 #
b0b0101101011 ,

#23650
b0b0 "
#23700
b0b1 "

b0b0010010101 #
b0b0010010101 ,

#23750
b0b0 "
#23800
b0b1 "

b0b0101111011 #
b0b0101111011 ,

#23850
b0b0 "
#23900
b0b1 "

b0b0011001100 #
b0b0011001100 ,

#23950
b0b0 "
#24000
b0b1 "

b0b0010011000 #
b0b0010011000 ,

#24050
b0b0 "
#24100
b0b1 "

b0b0000010101 #
b0b0000010101 ,

#24150
b0b0 "
#24200
b0b1 "

b0b0000111100 #
b0b0000111100 ,

#24250
b0b0 "
#24300
b0b1 "

b0b0011100001 #
b0b0011100001 ,

#24350
b0b0 "
#24400
b0b1 "

b0b0000010010 #
b0b0000010010 ,

#24450
b0b0 "
#24500
b0b1 "

b0b0001110111 #
b0b0001110111 ,

#24550
b0b0 "
#24600
b0b1 "

b0b0110010001 #
b0b0110010001 ,

#24650
b0b0 "
#24700
b0b1 "

b0b0100001000 #
b0b0100001000 ,

#24750
b0b0 "
#24800
b0b1 "

b0b0101001100 #
b0b0101001100 ,

#24850
b0b0 "
#24900
b0b1 "

b0b0011100001 #
b0b0011100001 ,

#24950
b0b0 "
#25000
b0b1 "

b0b0000001100 #
b0b0000001100 ,

#25050
b0b0 "
#25100
b0b1 "

b0b0001011010 #
b0b0001011010 ,

#25150
b0b0 "
#25200
b0b1 "

b0b0100011110 #
b0b0100011110 ,

#25250
b0b0 "
#25300
b0b1 "

b0b0010100101 #
b0b0010100101 ,

#25350
b0b0 "
#25400
b0b1 "

b0b0010110100 #
b0b0010110100 ,

#25450
b0b0 "
#25500
b0b1 "

b0b0000000010 #
b0b0000000010 ,

#25550
b0b0 "
#25600
b0b1 "

b0b0100010111 #
b0b0100010111 ,

#25650
b0b0 "
#25700
b0b1 "

b0b0110011110 #
b0b0110011110 ,

#25750
b0b0 "
#25800
b0b1 "

b0b0101101101 #
b0b0101101101 ,

#25850
b0b0 "
#25900
b0b1 "

b0b0010111001 #
b0b0010111001 ,

#25950
b0b0 "
#26000
b0b1 "

b0b0101001011 #
b0b0101001011 ,

#26050
b0b0 "
#26100
b0b1 "

b0b0001100110 #
b0b0001100110 ,

#26150
b0b0 "
#26200
b0b1 "

b0b0011001101 #
b0b0011001101 ,

#26250
b0b0 "
#26300
b0b1 "

b0b0100000100 #
b0b0100000100 ,

#26350
b0b0 "
#26400
b0b1 "

b0b0010010010 #
b0b0010010010 ,

#26450
b0b0 "
#26500
b0b1 "

b0b0001110110 #
b0b0001110110 ,

#26550
b0b0 "
#26600
b0b1 "

b0b0110000000 #
b0b0110000000 ,

#26650
b0b0 "
#26700
b0b1 "

b0b0000101110 #
b0b0000101110 ,

#26750
b0b0 "
#26800
b0b1 "

b0b0010000010 #
b0b0010000010 ,

#26850
b0b0 "
#26900
b0b1 "

b0b0110100000 #
b0b0110100000 ,

#26950
b0b0 "
#27000
b0b1 "

b0b0100111000 #
b0b0100111000 ,

#27050
b0b0 "
#27100
b0b1 "

b0b0011010111 #
b0b0011010111 ,

#27150
b0b0 "
#27200
b0b1 "

b0b0100000010 #
b0b0100000010 ,

#27250
b0b0 "
#27300
b0b1 "

b0b0100010001 #
b0b0100010001 ,

#27350
b0b0 "
#27400
b0b1 "

b0b0101000101 #
b0b0101000101 ,

#27450
b0b0 "
#27500
b0b1 "

b0b0000001100 #
b0b0000001100 ,

#27550
b0b0 "
#27600
b0b1 "

b0b0100111011 #
b0b0100111011 ,

#27650
b0b0 "
#27700
b0b1 "

b0b0010011100 #
b0b0010011100 ,

#27750
b0b0 "
#27800
b0b1 "

b0b0001111010 #
b0b0001111010 ,

#27850
b0b0 "
#27900
b0b1 "

b0b0011001010 #
b0b0011001010 ,

#27950
b0b0 "
#28000
b0b1 "

b0b0110001010 #
b0b0110001010 ,

#28050
b0b0 "
#28100
b0b1 "

b0b0101101100 #
b0b0101101100 ,

#28150
b0b0 "
#28200
b0b1 "

b0b0001110010 #
b0b0001110010 ,

#28250
b0b0 "
#28300
b0b1 "

b0b0100111000 #
b0b0100111000 ,

#28350
b0b0 "
#28400
b0b1 "

b0b0001011110 #
b0b0001011110 ,

#28450
b0b0 "
#28500
b0b1 "


#28550
b0b0 "
#28600
b0b1 "

b0b0010010011 #
b0b0010010011 ,

#28650
b0b0 "
#28700
b0b1 "

b0b0100010000 #
b0b0100010000 ,

#28750
b0b0 "
#28800
b0b1 "

b0b0001000111 #
b0b0001000111 ,

#28850
b0b0 "
#28900
b0b1 "

b0b0011110111 #
b0b0011110111 ,

#28950
b0b0 "
#29000
b0b1 "

b0b0011111001 #
b0b0011111001 ,

#29050
b0b0 "
#29100
b0b1 "

b0b0101101001 #
b0b0101101001 ,

#29150
b0b0 "
#29200
b0b1 "

b0b0001011101 #
b0b0001011101 ,

#29250
b0b0 "
#29300
b0b1 "

b0b0001100000 #
b0b0001100000 ,

#29350
b0b0 "
#29400
b0b1 "

b0b0101010101 #
b0b0101010101 ,

#29450
b0b0 "
#29500
b0b1 "

b0b0101010010 #
b0b0101010010 ,

#29550
b0b0 "
#29600
b0b1 "

b0b0010001111 #
b0b0010001111 ,

#29650
b0b0 "
#29700
b0b1 "

b0b0100110000 #
b0b0100110000 ,

#29750
b0b0 "
#29800
b0b1 "

b0b0000011111 #
b0b0000011111 ,

#29850
b0b0 "
#29900
b0b1 "

b0b0011101001 #
b0b0011101001 ,

#29950
b0b0 "
#30000
b0b1 "

b0b0010111110 #
b0b0010111110 ,

#30050
b0b0 "
#30100
b0b1 "

b0b0011110100 #
b0b0011110100 ,

#30150
b0b0 "
#30200
b0b1 "

b0b0001100101 #
b0b0001100101 ,

#30250
b0b0 "
#30300
b0b1 "

b0b0000111110 #
b0b0000111110 ,

#30350
b0b0 "
#30400
b0b1 "

b0b0110000000 #
b0b1 $
b0b1 +
b0b0110000000 ,

#30450
b0b0 "
#30500
b0b1 "

b0b0110010111 #
b0b0110010111 ,

#30550
b0b0 "
#30600
b0b1 "

b0b0001010111 #
b0b0001010111 ,

#30650
b0b0 "
#30700
b0b1 "

b0b0001011110 #
b0b0001011110 ,

#30750
b0b0 "
#30800
b0b1 "

b0b0010010010 #
b0b0010010010 ,

#30850
b0b0 "
#30900
b0b1 "

b0b0001000000 #
b0b0001000000 ,

#30950
b0b0 "
#31000
b0b1 "

b0b0011110001 #
b0b0011110001 ,

#31050
b0b0 "
#31100
b0b1 "

b0b0000110000 #
b0b0000110000 ,

#31150
b0b0 "
#31200
b0b1 "

b0b0011110001 #
b0b0011110001 ,

#31250
b0b0 "
#31300
b0b1 "

b0b0011100011 #
b0b0011100011 ,

#31350
b0b0 "
#31400
b0b1 "

b0b0010101101 #
b0b0010101101 ,

#31450
b0b0 "
#31500
b0b1 "

b0b0010011110 #
b0b0010011110 ,

#31550
b0b0 "
#31600
b0b1 "

b0b0011100011 #
b0b0011100011 ,

#31650
b0b0 "
#31700
b0b1 "

b0b0001110010 #
b0b0001110010 ,

#31750
b0b0 "
#31800
b0b1 "

b0b0001110001 #
b0b0001110001 ,

#31850
b0b0 "
#31900
b0b1 "

b0b0101101000 #
b0b0101101000 ,

#31950
b0b0 "
#32000
b0b1 "

b0b0100000111 #
b0b0100000111 ,

#32050
b0b0 "
#32100
b0b1 "

b0b0011111100 #
b0b0011111100 ,

#32150
b0b0 "
#32200
b0b1 "

b0b0010000100 #
b0b0010000100 ,

#32250
b0b0 "
#32300
b0b1 "

b0b0001101000 #
b0b0001101000 ,

#32350
b0b0 "
#32400
b0b1 "

b0b0011011011 #
b0b0011011011 ,

#32450
b0b0 "
#32500
b0b1 "

b0b0000110001 #
b0b0000110001 ,

#32550
b0b0 "
#32600
b0b1 "

b0b0011101011 #
b0b0011101011 ,

#32650
b0b0 "
#32700
b0b1 "

b0b0101100010 #
b0b0101100010 ,

#32750
b0b0 "
#32800
b0b1 "

b0b0010001000 #
b0b0010001000 ,

#32850
b0b0 "
#32900
b0b1 "

b0b0011110100 #
b0b0011110100 ,

#32950
b0b0 "
#33000
b0b1 "

b0b0100001101 #
b0b0100001101 ,

#33050
b0b0 "
#33100
b0b1 "

b0b0110011111 #
b0b0110011111 ,

#33150
b0b0 "
#33200
b0b1 "

b0b0010000110 #
b0b0010000110 ,

#33250
b0b0 "
#33300
b0b1 "

b0b0101111101 #
b0b0101111101 ,

#33350
b0b0 "
#33400
b0b1 "

b0b0000100001 #
b0b0000100001 ,

#33450
b0b0 "
#33500
b0b1 "

b0b0011010010 #
b0b0011010010 ,

#33550
b0b0 "
