sar_adc_model/sar_adc_ideal/build/sar_adc.tests.test_sar_adc__test_sar_adc_thrash_input_1.6.vcd
$date
  Fri Nov 17 12:32:00 2023
$end
$version
  PyMTL 3 (Mamba)
$end
$timescale
 10ps
$end

$scope module top $end
  $var reg 10 ! input_voltage_real $end
  $var reg 1 " eoc $end
  $var reg 1 # clk $end
  $var reg 1 $ s_DOT_eoc $end
  $var reg 1 % input_hold_digital $end
  $var reg 1 & s_DOT_reset $end
  $var reg 10 ' output_result_digital $end
  $var reg 10 ( s_DOT_input_voltage_real $end
  $var reg 1 ) reset $end
  $var reg 1 * s_DOT_sys_clk $end
  $var reg 1 + s_DOT_input_hold_digital $end
  $var reg 10 , s_DOT_output_result_digital $end
  $var reg 1 - sys_clk $end
$upscope $end
$enddefinitions $end

b0b0000000000 !
b0b0 "
b0b0 #
b0b0 $
b0b0 %
b0b0 &
b0b0000000000 '
b0b0000000000 (
b0b0 )
b0b0 *
b0b0 +
b0b0000000000 ,
b0b0 -

#0
b0b1 #

b0b1 &
b0b1000000000 '
b0b1 )
b0b1000000000 ,
b0b0 -

#50
b0b0 #
#100
b0b1 #


#150
b0b0 #
#200
b0b1 #


#250
b0b0 #
#300
b0b1 #

b0b0010011011 !
b0b0 &
b0b0010011011 (
b0b0 )
b0b1 *
b0b1 -

#350
b0b0 #
#400
b0b1 #

b0b0001110010 !
b0b0001110010 (

#450
b0b0 #
#500
b0b1 #

b0b0100001001 !
b0b0100001001 (
b0b0 *
b0b0 -

#550
b0b0 #
#600
b0b1 #

b0b0000001101 !
b0b0000001101 (
b0b1 *
b0b1 -

#650
b0b0 #
#700
b0b1 #

b0b0011001101 !
b0b0011001101 (
b0b0 *
b0b0 -

#750
b0b0 #
#800
b0b1 #

b0b1 %
b0b1 +

#850
b0b0 #
#900
b0b1 #

b0b0001111011 !
b0b0100000000 '
b0b0001111011 (
b0b1 *
b0b0100000000 ,
b0b1 -

#950
b0b0 #
#1000
b0b1 #

b0b0000011101 !
b0b0000011101 (
b0b0 *
b0b0 -

#1050
b0b0 #
#1100
b0b1 #

b0b0000011111 !
b0b0110000000 '
b0b0000011111 (
b0b1 *
b0b0110000000 ,
b0b1 -

#1150
b0b0 #
#1200
b0b1 #

b0b0101101100 !
b0b0101101100 (
b0b0 *
b0b0 -

#1250
b0b0 #
#1300
b0b1 #

b0b0010111011 !
b0b0111000000 '
b0b0010111011 (
b0b1 *
b0b0111000000 ,
b0b1 -

#1350
b0b0 #
#1400
b0b1 #

b0b0000000001 !
b0b0000000001 (
b0b0 *
b0b0 -

#1450
b0b0 #
#1500
b0b1 #

b0b0001001011 !
b0b0111100000 '
b0b0001001011 (
b0b1 *
b0b0111100000 ,
b0b1 -

#1550
b0b0 #
#1600
b0b1 #

b0b0010011011 !
b0b0010011011 (
b0b0 *
b0b0 -

#1650
b0b0 #
#1700
b0b1 #

b0b0000011010 !
b0b0111110000 '
b0b0000011010 (
b0b1 *
b0b0111110000 ,
b0b1 -

#1750
b0b0 #
#1800
b0b1 #

b0b0011010110 !
b0b0011010110 (
b0b0 *
b0b0 -

#1850
b0b0 #
#1900
b0b1 #

b0b0100000110 !
b0b0111111000 '
b0b0100000110 (
b0b1 *
b0b0111111000 ,
b0b1 -

#1950
b0b0 #
#2000
b0b1 #

b0b0001011001 !
b0b0001011001 (
b0b0 *
b0b0 -

#2050
b0b0 #
#2100
b0b1 #

b0b0010010011 !
b0b0111110100 '
b0b0010010011 (
b0b1 *
b0b0111110100 ,
b0b1 -

#2150
b0b0 #
#2200
b0b1 #

b0b0110011111 !
b0b0110011111 (
b0b0 *
b0b0 -

#2250
b0b0 #
#2300
b0b1 #

b0b0000000001 !
b0b0111110010 '
b0b0000000001 (
b0b1 *
b0b0111110010 ,
b0b1 -

#2350
b0b0 #
#2400
b0b1 #

b0b0100110111 !
b0b0100110111 (
b0b0 *
b0b0 -

#2450
b0b0 #
#2500
b0b1 #

b0b0010100111 !
b0b1 "
b0b1 $
b0b0111110011 '
b0b0010100111 (
b0b1 *
b0b0111110011 ,
b0b1 -

#2550
b0b0 #
#2600
b0b1 #

b0b0011111000 !
b0b0011111000 (
b0b0 *
b0b0 -

#2650
b0b0 #
#2700
b0b1 #

