sar_adc_model/sar_adc_ideal/build/sar_adc_ideal.tests.test_sar_adc__test_sar_adc_simple_0.1_top.verilator1.vcd
$version Generated by VerilatedVcd $end
$date Sun Nov 19 20:29:49 2023
 $end
$timescale  10ps $end

 $scope module TOP $end
  $var wire  1 c clk [0:0] $end
  $var wire  1 k eoc [0:0] $end
  $var wire  1 s input_hold_digital [0:0] $end
  $var wire 10 { input_voltage_real [9:0] $end
  $var wire 10 %! output_result_digital [9:0] $end
  $var wire  1 -! reset [0:0] $end
  $var wire  1 5! sys_clk [0:0] $end
  $scope module sar_adc__N_BITS_10 $end
   $var wire  1 c clk [0:0] $end
   $var wire  1 k eoc [0:0] $end
   $var wire  1 s input_hold_digital [0:0] $end
   $var wire 10 { input_voltage_real [9:0] $end
   $var wire 10 %! output_result_digital [9:0] $end
   $var wire  1 -! reset [0:0] $end
   $var wire  1 5! sys_clk [0:0] $end
   $scope module v $end
    $var wire 32 g" N_BITS [31:0] $end
    $var wire  1 c clk $end
    $var wire  1 S comparator_output_digital $end
    $var wire  1 k eoc $end
    $var wire  1 s input_hold_digital $end
    $var wire 10 { input_voltage_real [9:0] $end
    $var wire 10 =! n_voltage_real [9:0] $end
    $var wire 10 %! output_result_digital [9:0] $end
    $var wire 10 # p_voltage_real [9:0] $end
    $var wire  1 -! reset $end
    $var wire  1 5! sys_clk $end
    $scope module DAC_instance $end
     $var wire  1 c clk $end
     $var wire 13 Y# const_18 [12:0] $end
     $var wire 15 3$ const_30 [14:0] $end
     $var wire 10 %! input_voltage_digital [9:0] $end
     $var wire 10 =! output_voltage_real [9:0] $end
     $var wire 42 A# padl_14 [41:0] $end
     $var wire 21 Q# padl_16 [20:0] $end
     $var wire  9 E! padl_2 [8:0] $end
     $var wire 42 O" padl_21 [41:0] $end
     $var wire 52 y# padl_26 [51:0] $end
     $var wire 26 +$ padl_28 [25:0] $end
     $var wire 52 m! padl_6 [51:0] $end
     $var wire 21 Q# padl_bits_15 [20:0] $end
     $var wire 13 Y# padl_bits_17 [12:0] $end
     $var wire 21 _" padl_bits_22 [20:0] $end
     $var wire 26 +$ padl_bits_27 [25:0] $end
     $var wire 15 3$ padl_bits_29 [14:0] $end
     $var wire  8 M! padl_bits_3 [7:0] $end
     $var wire 26 }! padl_bits_7 [25:0] $end
     $var wire  8 a# padl_bits_zero_19 [7:0] $end
     $var wire 21 i# padl_bits_zero_20 [20:0] $end
     $var wire 21 i# padl_bits_zero_25 [20:0] $end
     $var wire  1 1# padl_bits_zero_31 [0:0] $end
     $var wire 10 =! padr_0 [9:0] $end
     $var wire 21 _" padr_23 [20:0] $end
     $var wire 26 }! padr_8 [25:0] $end
     $var wire  1 1# padr_bits_1 [0:0] $end
     $var wire 11 q# padr_bits_24 [10:0] $end
     $var wire 13 9# padr_bits_9 [12:0] $end
     $var wire  1 -! reset $end
     $var wire  1 1# toSInt_10 [0:0] $end
     $var wire 13 '" toSInt_imm_11 [12:0] $end
     $var wire 34 /" truncR_12 [33:0] $end
     $var wire 28 U! truncR_4 [27:0] $end
     $var wire 42 ?" truncval_13 [41:0] $end
     $var wire 52 ]! truncval_5 [51:0] $end
    $upscope $end
    $scope module SAR_instance $end
     $var wire 32 g" N_BITS [31:0] $end
     $var wire  1 5! clk $end
     $var wire  1 s conduct_comparison $end
     $var wire  5 C counter [4:0] $end
     $var wire  1 k eoc $end
     $var wire  1 S feedback_value $end
     $var wire 10 %! quantized_voltage [9:0] $end
     $var wire 10 K quantized_voltage_register [9:0] $end
     $var wire  1 -! reset $end
     $scope module unnamedblk1 $end
      $var wire 32 )# i [31:0] $end
     $upscope $end
    $upscope $end
    $scope module comparator_instance $end
     $var wire  1 c clk $end
     $var wire 13 C$ const_1 [12:0] $end
     $var wire 15 S$ const_4 [14:0] $end
     $var wire 32 [ fsm [31:0] $end
     $var wire 32 !# fsm_1 [31:0] $end
     $var wire 32 w" fsm_init [31:0] $end
     $var wire 10 =! n_voltage_real [9:0] $end
     $var wire  1 S out_digital [0:0] $end
     $var wire 10 # p_voltage_real [9:0] $end
     $var wire  1 ; prev_sys_clk [0:0] $end
     $var wire  1 -! reset $end
     $var wire  4 ;$ state_cycle_counter [3:0] $end
     $var wire  1 5! sys_clk $end
     $var wire 15 S$ toUsInt_3 [14:0] $end
     $var wire 13 C$ truncR_0 [12:0] $end
     $var wire 14 K$ truncR_2 [13:0] $end
    $upscope $end
    $scope module sah $end
     $var wire  1 c clk $end
     $var wire 32 3 fsm [31:0] $end
     $var wire 32 !# fsm_1 [31:0] $end
     $var wire 32 w" fsm_init [31:0] $end
     $var wire  1 s input_control_digital [0:0] $end
     $var wire 10 { input_voltage_real [9:0] $end
     $var wire 10 # output_voltage_real [9:0] $end
     $var wire  1 + prev_sys_clk [0:0] $end
     $var wire  1 -! reset $end
     $var wire 10 # state_cap [9:0] $end
     $var wire  4 o" state_cycle_counter [3:0] $end
     $var wire  1 5! sys_clk $end
    $upscope $end
   $upscope $end
  $upscope $end
 $upscope $end
$enddefinitions $end


#50
b0000000000 #
0+
b00000000000000000000000000000000 3
0;
b00000 C
b0000000000 K
1S
b00000000000000000000000000000000 [
0c
0k
0s
b0000000000 {
b1000000000 %!
1-!
05!
b0011010010 =!
b001101001 E!
b01101001 M!
b0110100110010000000000000000 U!
b0000000000000000000000000110100110010000000000000000 ]!
b0000000000000000000000000000110100110010000000000000 m!
b00110100110010000000000000 }!
b0011010011001 '"
b0110100110011000000000000000000000 /"
b000000000110100110011000000000000000000000 ?"
b000000000000000000000100000000000000000000 O"
b100000000000000000000 _"
b00000000000000000000000000001010 g"
b0000 o"
b00000000000000000000000000000000 w"
b00000000000000000000000000000001 !#
b00000000000000000000000000001010 )#
01#
b0000000000000 9#
b000000000000000000000000000001101001100110 A#
b000000001101001100110 Q#
b1101001100110 Y#
b00000000 a#
b000000000000000000000 i#
b00000000000 q#
b0000000000000000000000000000000000000000000000001000 y#
b00000000000000000000001000 +$
b000000000001000 3$
b0000 ;$
b1000000000000 C$
b00000000000000 K$
b000000000000000 S$
#100
1c
#150
0c
#200
1c
#250
0c
#300
1c
#350
0c
b0000001101 {
0-!
#400
b0000001101 #
1c
#450
0c
15!
#500
1+
1;
0S
b00000000000000000000000000000001 [
1c
#550
0c
05!
#600
0+
0;
1c
#650
b00001 C
0c
1s
15!
#700
1+
b00000000000000000000000000000001 3
1;
1c
#750
0c
05!
#800
0+
0;
1c
#850
b00010 C
0c
b0100000000 %!
15!
b0001101000 =!
b000110100 E!
b00110100 M!
b0011010011000000000000000000 U!
b0000000000000000000000000011010011000000000000000000 ]!
b0000000000000000000000000000011010011000000000000000 m!
b00011010011000000000000000 }!
b0001101001100 '"
b0011010011001100000000000000000000 /"
b000000000011010011001100000000000000000000 ?"
b000000000000000000000010000000000000000000 O"
b010000000000000000000 _"
#900
1+
1;
1c
#950
0c
05!
#1000
0+
0;
1c
#1050
b00011 C
0c
15!
#1100
1+
1;
1c
#1150
0c
05!
#1200
0+
0;
1c
#1250
b00100 C
0c
b0010000000 %!
15!
b0000110100 =!
b000011010 E!
b00011010 M!
b0001101001100000000000000000 U!
b0000000000000000000000000001101001100000000000000000 ]!
b0000000000000000000000000000001101001100000000000000 m!
b00001101001100000000000000 }!
b0000110100110 '"
b0001101001100110000000000000000000 /"
b000000000001101001100110000000000000000000 ?"
b000000000000000000000001000000000000000000 O"
b001000000000000000000 _"
#1300
1+
1;
1c
#1350
0c
05!
#1400
0+
0;
1c
#1450
b00101 C
0c
15!
#1500
1+
1;
1c
#1550
0c
05!
#1600
0+
0;
1c
#1650
b00110 C
0c
b0001000000 %!
15!
b0000011010 =!
b000001101 E!
b00001101 M!
b0000110100110000000000000000 U!
b0000000000000000000000000000110100110000000000000000 ]!
b0000000000000000000000000000000110100110000000000000 m!
b00000110100110000000000000 }!
b0000011010011 '"
b0000110100110011000000000000000000 /"
b000000000000110100110011000000000000000000 ?"
b000000000000000000000000100000000000000000 O"
b000100000000000000000 _"
#1700
1+
1;
1c
#1750
0c
05!
#1800
0+
0;
1c
#1850
b00111 C
0c
15!
#1900
1+
1;
1c
#1950
0c
05!
#2000
0+
0;
1c
#2050
b01000 C
0c
b0000100000 %!
15!
b0000001100 =!
b000000110 E!
b00000110 M!
b0000011010010000000000000000 U!
b0000000000000000000000000000011010010000000000000000 ]!
b0000000000000000000000000000000011010010000000000000 m!
b00000011010010000000000000 }!
b0000001101001 '"
b0000011010011001100000000000000000 /"
b000000000000011010011001100000000000000000 ?"
b000000000000000000000000010000000000000000 O"
b000010000000000000000 _"
#2100
1+
1;
1S
b00000000000000000000000000000000 [
1c
#2150
0c
05!
#2200
0+
0;
1c
#2250
b01001 C
b0000100000 K
0c
15!
#2300
1+
1;
1c
#2350
0c
05!
#2400
0+
0;
1c
#2450
b01010 C
0c
b0000110000 %!
15!
b0000010010 =!
b000001001 E!
b00001001 M!
b0000100111100000000000000000 U!
b0000000000000000000000000000100111100000000000000000 ]!
b0000000000000000000000000000000100111100000000000000 m!
b00000100111100000000000000 }!
b0000010011110 '"
b0000100111100110010000000000000000 /"
b000000000000100111100110010000000000000000 ?"
b000000000000000000000000011000000000000000 O"
b000011000000000000000 _"
#2500
1+
1;
0S
b00000000000000000000000000000001 [
1c
#2550
0c
05!
#2600
0+
0;
1c
#2650
b01011 C
0c
15!
#2700
1+
1;
1c
#2750
0c
05!
#2800
0+
0;
1c
#2850
b01100 C
0c
b0000101000 %!
15!
b0000010000 =!
b000001000 E!
b00001000 M!
b0000100000110000000000000000 U!
b0000000000000000000000000000100000110000000000000000 ]!
b0000000000000000000000000000000100000110000000000000 m!
b00000100000110000000000000 }!
b0000010000011 '"
b0000100000111111111000000000000000 /"
b000000000000100000111111111000000000000000 ?"
b000000000000000000000000010100000000000000 O"
b000010100000000000000 _"
#2900
1+
1;
1c
#2950
0c
05!
#3000
0+
0;
1c
#3050
b01101 C
0c
15!
#3100
1+
1;
1c
#3150
0c
05!
#3200
0+
0;
1c
#3250
b01110 C
0c
b0000100100 %!
15!
b0000001110 =!
b000000111 E!
b00000111 M!
b0000011101100000000000000000 U!
b0000000000000000000000000000011101100000000000000000 ]!
b0000000000000000000000000000000011101100000000000000 m!
b00000011101100000000000000 }!
b0000001110110 '"
b0000011101101100101100000000000000 /"
b000000000000011101101100101100000000000000 ?"
b000000000000000000000000010010000000000000 O"
b000010010000000000000 _"
#3300
1+
1;
1c
#3350
0c
05!
#3400
0+
0;
1c
#3450
b01111 C
0c
15!
#3500
1+
1;
1c
#3550
0c
05!
#3600
0+
0;
1c
#3650
b10000 C
0c
b0000100010 %!
15!
b0000011100000000000000000000 U!
b0000000000000000000000000000011100000000000000000000 ]!
b0000000000000000000000000000000011100000000000000000 m!
b00000011100000000000000000 }!
b0000001110000 '"
b0000011100000011000110000000000000 /"
b000000000000011100000011000110000000000000 ?"
b000000000000000000000000010001000000000000 O"
b000010001000000000000 _"
#3700
1+
1;
1c
#3750
0c
05!
#3800
0+
0;
1c
#3850
b10001 C
0c
15!
#3900
1+
1;
1c
#3950
0c
05!
#4000
0+
0;
1c
#4050
b10010 C
0c
1k
b0000100001 %!
15!
b0000001100 =!
b000000110 E!
b00000110 M!
b0000011011000000000000000000 U!
b0000000000000000000000000000011011000000000000000000 ]!
b0000000000000000000000000000000011011000000000000000 m!
b00000011011000000000000000 }!
b0000001101100 '"
b0000011011001110010011000000000000 /"
b000000000000011011001110010011000000000000 ?"
b000000000000000000000000010000100000000000 O"
b000010000100000000000 _"
#4100
1+
1;
1S
b00000000000000000000000000000000 [
1c
#4150
0c
05!
#4200
0+
0;
1c
#4250
b10011 C
b0000100001 K
0c
15!
#4300
1+
1;
1c
#4350
0c
05!
#4400
0+
0;
1c
#4450
b00000 C
0c
0k
b1000100001 %!
15!
b0011100000 =!
b001110000 E!
b01110000 M!
b0111000001100000000000000000 U!
b0000000000000000000000000111000001100000000000000000 ]!
b0000000000000000000000000000111000001100000000000000 m!
b00111000001100000000000000 }!
b0011100000110 '"
b0111000001100110010011000000000000 /"
b000000000111000001100110010011000000000000 ?"
b000000000000000000000100010000100000000000 O"
b100010000100000000000 _"
#4500
1+
1;
0S
b00000000000000000000000000000001 [
1c
#4550
0c
05!
#4600
0+
0;
1c
#4650
b00001 C
0c
15!
#4700
1+
1;
1c
#4750
0c
05!
#4800
0+
0;
1c
#4850
b00010 C
0c
b0100100001 %!
15!
b0001110110 =!
b000111011 E!
b00111011 M!
b0011101110010000000000000000 U!
b0000000000000000000000000011101110010000000000000000 ]!
b0000000000000000000000000000011101110010000000000000 m!
b00011101110010000000000000 }!
b0001110111001 '"
b0011101110011010010011000000000000 /"
b000000000011101110011010010011000000000000 ?"
b000000000000000000000010010000100000000000 O"
b010010000100000000000 _"
#4900
1+
1;
1c
#4950
0c
05!
#5000
0+
0;
1c
#5050
b00011 C
0c
15!
#5100
1+
1;
1c
#5150
0c
05!
#5200
0+
0;
1c
#5250
b00100 C
0c
b0010100001 %!
15!
b0001000010 =!
b000100001 E!
b00100001 M!
b0010000100110000000000000000 U!
b0000000000000000000000000010000100110000000000000000 ]!
b0000000000000000000000000000010000100110000000000000 m!
b00010000100110000000000000 }!
b0001000010011 '"
b0010000100110100010011000000000000 /"
b000000000010000100110100010011000000000000 ?"
b000000000000000000000001010000100000000000 O"
b001010000100000000000 _"
#5300
1+
1;
1c
#5350
0c
05!
#5400
0+
0;
1c
#5450
b00101 C
0c
15!
#5500
1+
1;
1c
#5550
0c
05!
#5600
0+
0;
1c
#5650
b00110 C
0c
b0001100001 %!
15!
b0000101000 =!
b000010100 E!
b00010100 M!
b0001010000000000000000000000 U!
b0000000000000000000000000001010000000000000000000000 ]!
b0000000000000000000000000000001010000000000000000000 m!
b00001010000000000000000000 }!
b0000101000000 '"
b0001010000000001010011000000000000 /"
b000000000001010000000001010011000000000000 ?"
b000000000000000000000000110000100000000000 O"
b000110000100000000000 _"
#5700
1+
1;
1c
#5750
0c
05!
#5800
0+
0;
1c
#5850
b00111 C
0c
15!
#5900
1+
1;
1c
#5950
0c
05!
#6000
0+
0;
1c
#6050
b01000 C
0c
b0000100001 %!
15!
b0000001100 =!
b000000110 E!
b00000110 M!
b0000011011000000000000000000 U!
b0000000000000000000000000000011011000000000000000000 ]!
b0000000000000000000000000000000011011000000000000000 m!
b00000011011000000000000000 }!
b0000001101100 '"
b0000011011001110010011000000000000 /"
b000000000000011011001110010011000000000000 ?"
b000000000000000000000000010000100000000000 O"
b000010000100000000000 _"
#6100
1+
1;
1S
b00000000000000000000000000000000 [
1c
#6150
0c
05!
#6200
0+
0;
1c
#6250
b01001 C
0c
15!
#6300
1+
1;
1c
#6350
0c
05!
#6400
0+
0;
1c
#6450
b01010 C
0c
b0000110001 %!
15!
b0000010100 =!
b000001010 E!
b00001010 M!
b0000101000010000000000000000 U!
b0000000000000000000000000000101000010000000000000000 ]!
b0000000000000000000000000000000101000010000000000000 m!
b00000101000010000000000000 }!
b0000010100001 '"
b0000101000011011000011000000000000 /"
b000000000000101000011011000011000000000000 ?"
b000000000000000000000000011000100000000000 O"
b000011000100000000000 _"
#6500
1+
1;
0S
b00000000000000000000000000000001 [
1c
#6550
0c
05!
#6600
0+
0;
1c
#6650
b01011 C
0c
15!
#6700
1+
1;
1c
#6750
0c
05!
#6800
0+
0;
1c
#6850
b01100 C
0c
b0000101001 %!
15!
b0000010000 =!
b000001000 E!
b00001000 M!
b0000100001110000000000000000 U!
b0000000000000000000000000000100001110000000000000000 ]!
b0000000000000000000000000000000100001110000000000000 m!
b00000100001110000000000000 }!
b0000010000111 '"
b0000100001110100101011000000000000 /"
b000000000000100001110100101011000000000000 ?"
b000000000000000000000000010100100000000000 O"
b000010100100000000000 _"
#6900
1+
1;
1c
#6950
0c
05!
#7000
0+
0;
1c
#7050
b01101 C
0c
15!
#7100
1+
1;
1c
#7150
0c
05!
#7200
0+
0;
1c
#7250
b01110 C
0c
b0000100101 %!
15!
b0000001110 =!
b000000111 E!
b00000111 M!
b0000011110100000000000000000 U!
b0000000000000000000000000000011110100000000000000000 ]!
b0000000000000000000000000000000011110100000000000000 m!
b00000011110100000000000000 }!
b0000001111010 '"
b0000011110100001011111000000000000 /"
b000000000000011110100001011111000000000000 ?"
b000000000000000000000000010010100000000000 O"
b000010010100000000000 _"
#7300
1+
1;
1c
#7350
0c
05!
#7400
0+
0;
1c
#7450
b01111 C
0c
15!
#7500
1+
1;
1c
#7550
0c
05!
#7600
0+
0;
1c
#7650
b10000 C
0c
b0000100011 %!
15!
b0000011100110000000000000000 U!
b0000000000000000000000000000011100110000000000000000 ]!
b0000000000000000000000000000000011100110000000000000 m!
b00000011100110000000000000 }!
b0000001110011 '"
b0000011100110111111001000000000000 /"
b000000000000011100110111111001000000000000 ?"
b000000000000000000000000010001100000000000 O"
b000010001100000000000 _"
#7700
1+
1;
1c
#7750
0c
05!
#7800
0+
0;
1c
#7850
b10001 C
0c
15!
#7900
1+
1;
1c
#7950
0c
05!
#8000
0+
0;
1c
#8050
b10010 C
0c
1k
b0000100001 %!
15!
b0000001100 =!
b000000110 E!
b00000110 M!
b0000011011000000000000000000 U!
b0000000000000000000000000000011011000000000000000000 ]!
b0000000000000000000000000000000011011000000000000000 m!
b00000011011000000000000000 }!
b0000001101100 '"
b0000011011001110010011000000000000 /"
b000000000000011011001110010011000000000000 ?"
b000000000000000000000000010000100000000000 O"
b000010000100000000000 _"
#8100
1+
1;
1S
b00000000000000000000000000000000 [
1c
#8150
0c
05!
#8200
0+
0;
1c
#8250
b10011 C
0c
15!
#8300
1+
1;
1c
#8350
0c
05!
#8400
0+
0;
1c
#8450
b00000 C
0c
0k
b1000100001 %!
15!
b0011100000 =!
b001110000 E!
b01110000 M!
b0111000001100000000000000000 U!
b0000000000000000000000000111000001100000000000000000 ]!
b0000000000000000000000000000111000001100000000000000 m!
b00111000001100000000000000 }!
b0011100000110 '"
b0111000001100110010011000000000000 /"
b000000000111000001100110010011000000000000 ?"
b000000000000000000000100010000100000000000 O"
b100010000100000000000 _"
#8500
1+
1;
0S
b00000000000000000000000000000001 [
1c
#8550
0c
05!
#8600
0+
0;
1c
#8650
b00001 C
0c
15!
#8700
1+
1;
1c
#8750
0c
05!
#8800
0+
0;
1c
#8850
b00010 C
0c
b0100100001 %!
15!
b0001110110 =!
b000111011 E!
b00111011 M!
b0011101110010000000000000000 U!
b0000000000000000000000000011101110010000000000000000 ]!
b0000000000000000000000000000011101110010000000000000 m!
b00011101110010000000000000 }!
b0001110111001 '"
b0011101110011010010011000000000000 /"
b000000000011101110011010010011000000000000 ?"
b000000000000000000000010010000100000000000 O"
b010010000100000000000 _"
#8900
1+
1;
1c
#8950
0c
05!
#9000
0+
0;
1c
#9050
b00011 C
0c
15!
#9100
1+
1;
1c
#9150
0c
05!
#9200
0+
0;
1c
#9250
b00100 C
0c
b0010100001 %!
15!
b0001000010 =!
b000100001 E!
b00100001 M!
b0010000100110000000000000000 U!
b0000000000000000000000000010000100110000000000000000 ]!
b0000000000000000000000000000010000100110000000000000 m!
b00010000100110000000000000 }!
b0001000010011 '"
b0010000100110100010011000000000000 /"
b000000000010000100110100010011000000000000 ?"
b000000000000000000000001010000100000000000 O"
b001010000100000000000 _"
#9300
1+
1;
1c
#9350
0c
05!
#9400
0+
0;
1c
#9450
b00101 C
0c
15!
#9500
1+
1;
1c
#9550
0c
05!
#9600
0+
0;
1c
#9650
b00110 C
0c
b0001100001 %!
15!
b0000101000 =!
b000010100 E!
b00010100 M!
b0001010000000000000000000000 U!
b0000000000000000000000000001010000000000000000000000 ]!
b0000000000000000000000000000001010000000000000000000 m!
b00001010000000000000000000 }!
b0000101000000 '"
b0001010000000001010011000000000000 /"
b000000000001010000000001010011000000000000 ?"
b000000000000000000000000110000100000000000 O"
b000110000100000000000 _"
#9700
1+
1;
1c
#9750
0c
05!
#9800
0+
0;
1c
#9850
b00111 C
0c
15!
#9900
1+
1;
1c
#9950
0c
05!
#10000
0+
0;
1c
#10050
b01000 C
0c
b0000100001 %!
15!
b0000001100 =!
b000000110 E!
b00000110 M!
b0000011011000000000000000000 U!
b0000000000000000000000000000011011000000000000000000 ]!
b0000000000000000000000000000000011011000000000000000 m!
b00000011011000000000000000 }!
b0000001101100 '"
b0000011011001110010011000000000000 /"
b000000000000011011001110010011000000000000 ?"
b000000000000000000000000010000100000000000 O"
b000010000100000000000 _"
#10100
1+
1;
1S
b00000000000000000000000000000000 [
1c
#10150
0c
05!
#10200
0+
0;
1c
#10250
b01001 C
0c
15!
#10300
1+
1;
1c
#10350
0c
05!
#10400
0+
0;
1c
#10450
b01010 C
0c
b0000110001 %!
15!
b0000010100 =!
b000001010 E!
b00001010 M!
b0000101000010000000000000000 U!
b0000000000000000000000000000101000010000000000000000 ]!
b0000000000000000000000000000000101000010000000000000 m!
b00000101000010000000000000 }!
b0000010100001 '"
b0000101000011011000011000000000000 /"
b000000000000101000011011000011000000000000 ?"
b000000000000000000000000011000100000000000 O"
b000011000100000000000 _"
#10500
1+
1;
0S
b00000000000000000000000000000001 [
1c
#10550
0c
05!
#10600
0+
0;
1c
#10650
b01011 C
0c
15!
#10700
1+
1;
1c
#10750
0c
05!
#10800
0+
0;
1c
#10850
b01100 C
0c
b0000101001 %!
15!
b0000010000 =!
b000001000 E!
b00001000 M!
b0000100001110000000000000000 U!
b0000000000000000000000000000100001110000000000000000 ]!
b0000000000000000000000000000000100001110000000000000 m!
b00000100001110000000000000 }!
b0000010000111 '"
b0000100001110100101011000000000000 /"
b000000000000100001110100101011000000000000 ?"
b000000000000000000000000010100100000000000 O"
b000010100100000000000 _"
#10900
1+
1;
1c
#10950
0c
05!
#11000
0+
0;
1c
#11050
b01101 C
0c
15!
#11100
1+
1;
1c
#11150
0c
05!
#11200
0+
0;
1c
#11250
b01110 C
0c
b0000100101 %!
15!
b0000001110 =!
b000000111 E!
b00000111 M!
b0000011110100000000000000000 U!
b0000000000000000000000000000011110100000000000000000 ]!
b0000000000000000000000000000000011110100000000000000 m!
b00000011110100000000000000 }!
b0000001111010 '"
b0000011110100001011111000000000000 /"
b000000000000011110100001011111000000000000 ?"
b000000000000000000000000010010100000000000 O"
b000010010100000000000 _"
#11300
1+
1;
1c
#11350
0c
05!
#11400
0+
0;
1c
#11450
b01111 C
0c
15!
#11500
1+
1;
1c
#11550
0c
05!
#11600
0+
0;
1c
#11650
b10000 C
0c
b0000100011 %!
15!
b0000011100110000000000000000 U!
b0000000000000000000000000000011100110000000000000000 ]!
b0000000000000000000000000000000011100110000000000000 m!
b00000011100110000000000000 }!
b0000001110011 '"
b0000011100110111111001000000000000 /"
b000000000000011100110111111001000000000000 ?"
b000000000000000000000000010001100000000000 O"
b000010001100000000000 _"
#11700
1+
1;
1c
#11750
0c
05!
#11800
0+
0;
1c
#11850
b10001 C
0c
15!
#11900
1+
1;
1c
#11950
0c
05!
#12000
0+
0;
1c
#12050
b10010 C
0c
1k
b0000100001 %!
15!
b0000001100 =!
b000000110 E!
b00000110 M!
b0000011011000000000000000000 U!
b0000000000000000000000000000011011000000000000000000 ]!
b0000000000000000000000000000000011011000000000000000 m!
b00000011011000000000000000 }!
b0000001101100 '"
b0000011011001110010011000000000000 /"
b000000000000011011001110010011000000000000 ?"
b000000000000000000000000010000100000000000 O"
b000010000100000000000 _"
#12100
1+
1;
1S
b00000000000000000000000000000000 [
1c
#12150
0c
05!
#12200
0+
0;
1c
#12250
b10011 C
0c
15!
#12300
1+
1;
1c
#12350
0c
05!
#12400
0+
0;
1c
#12450
b00000 C
0c
0k
b1000100001 %!
15!
b0011100000 =!
b001110000 E!
b01110000 M!
b0111000001100000000000000000 U!
b0000000000000000000000000111000001100000000000000000 ]!
b0000000000000000000000000000111000001100000000000000 m!
b00111000001100000000000000 }!
b0011100000110 '"
b0111000001100110010011000000000000 /"
b000000000111000001100110010011000000000000 ?"
b000000000000000000000100010000100000000000 O"
b100010000100000000000 _"
#12500
1+
1;
0S
b00000000000000000000000000000001 [
1c
#12550
0c
05!
#12600
0+
0;
1c
#12650
b00001 C
0c
15!
#12700
1+
1;
1c
#12750
0c
05!
#12800
0+
0;
1c
#12850
b00010 C
0c
b0100100001 %!
15!
b0001110110 =!
b000111011 E!
b00111011 M!
b0011101110010000000000000000 U!
b0000000000000000000000000011101110010000000000000000 ]!
b0000000000000000000000000000011101110010000000000000 m!
b00011101110010000000000000 }!
b0001110111001 '"
b0011101110011010010011000000000000 /"
b000000000011101110011010010011000000000000 ?"
b000000000000000000000010010000100000000000 O"
b010010000100000000000 _"
#12900
1+
1;
1c
#12950
0c
05!
#13000
0+
0;
1c
#13050
b00011 C
0c
15!
#13100
1+
1;
1c
#13150
0c
05!
#13200
0+
0;
1c
#13250
b00100 C
0c
b0010100001 %!
15!
b0001000010 =!
b000100001 E!
b00100001 M!
b0010000100110000000000000000 U!
b0000000000000000000000000010000100110000000000000000 ]!
b0000000000000000000000000000010000100110000000000000 m!
b00010000100110000000000000 }!
b0001000010011 '"
b0010000100110100010011000000000000 /"
b000000000010000100110100010011000000000000 ?"
b000000000000000000000001010000100000000000 O"
b001010000100000000000 _"
#13300
1+
1;
1c
#13350
0c
05!
#13400
0+
0;
1c
#13450
b00101 C
0c
15!
#13500
1+
1;
1c
#13550
0c
05!
#13600
0+
0;
1c
#13650
b00110 C
0c
b0001100001 %!
15!
b0000101000 =!
b000010100 E!
b00010100 M!
b0001010000000000000000000000 U!
b0000000000000000000000000001010000000000000000000000 ]!
b0000000000000000000000000000001010000000000000000000 m!
b00001010000000000000000000 }!
b0000101000000 '"
b0001010000000001010011000000000000 /"
b000000000001010000000001010011000000000000 ?"
b000000000000000000000000110000100000000000 O"
b000110000100000000000 _"
#13700
1+
1;
1c
#13750
0c
05!
#13800
0+
0;
1c
#13850
b00111 C
0c
15!
#13900
1+
1;
1c
#13950
0c
05!
#14000
0+
0;
1c
#14050
b01000 C
0c
b0000100001 %!
15!
b0000001100 =!
b000000110 E!
b00000110 M!
b0000011011000000000000000000 U!
b0000000000000000000000000000011011000000000000000000 ]!
b0000000000000000000000000000000011011000000000000000 m!
b00000011011000000000000000 }!
b0000001101100 '"
b0000011011001110010011000000000000 /"
b000000000000011011001110010011000000000000 ?"
b000000000000000000000000010000100000000000 O"
b000010000100000000000 _"
#14100
1+
1;
1S
b00000000000000000000000000000000 [
1c
#14150
0c
05!
#14200
0+
0;
1c
#14250
b01001 C
0c
15!
#14300
1+
1;
1c
#14350
0c
05!
#14400
0+
0;
1c
#14450
b01010 C
0c
b0000110001 %!
15!
b0000010100 =!
b000001010 E!
b00001010 M!
b0000101000010000000000000000 U!
b0000000000000000000000000000101000010000000000000000 ]!
b0000000000000000000000000000000101000010000000000000 m!
b00000101000010000000000000 }!
b0000010100001 '"
b0000101000011011000011000000000000 /"
b000000000000101000011011000011000000000000 ?"
b000000000000000000000000011000100000000000 O"
b000011000100000000000 _"
#14500
1+
1;
0S
b00000000000000000000000000000001 [
1c
#14550
0c
05!
#14600
0+
0;
1c
#14650
b01011 C
0c
15!
#14700
1+
1;
1c
#14750
0c
05!
#14800
0+
0;
1c
#14850
b01100 C
0c
b0000101001 %!
15!
b0000010000 =!
b000001000 E!
b00001000 M!
b0000100001110000000000000000 U!
b0000000000000000000000000000100001110000000000000000 ]!
b0000000000000000000000000000000100001110000000000000 m!
b00000100001110000000000000 }!
b0000010000111 '"
b0000100001110100101011000000000000 /"
b000000000000100001110100101011000000000000 ?"
b000000000000000000000000010100100000000000 O"
b000010100100000000000 _"
#14900
1+
1;
1c
#14950
0c
05!
#15000
0+
0;
1c
#15050
b01101 C
0c
15!
#15100
1+
1;
1c
#15150
0c
05!
#15200
0+
0;
1c
#15250
b01110 C
0c
b0000100101 %!
15!
b0000001110 =!
b000000111 E!
b00000111 M!
b0000011110100000000000000000 U!
b0000000000000000000000000000011110100000000000000000 ]!
b0000000000000000000000000000000011110100000000000000 m!
b00000011110100000000000000 }!
b0000001111010 '"
b0000011110100001011111000000000000 /"
b000000000000011110100001011111000000000000 ?"
b000000000000000000000000010010100000000000 O"
b000010010100000000000 _"
#15300
1+
1;
1c
#15350
0c
05!
#15400
0+
0;
1c
#15450
b01111 C
0c
15!
#15500
1+
1;
1c
#15550
0c
05!
#15600
0+
0;
1c
#15650
b10000 C
0c
b0000100011 %!
15!
b0000011100110000000000000000 U!
b0000000000000000000000000000011100110000000000000000 ]!
b0000000000000000000000000000000011100110000000000000 m!
b00000011100110000000000000 }!
b0000001110011 '"
b0000011100110111111001000000000000 /"
b000000000000011100110111111001000000000000 ?"
b000000000000000000000000010001100000000000 O"
b000010001100000000000 _"
#15700
1+
1;
1c
#15750
0c
05!
#15800
0+
0;
1c
#15850
b10001 C
0c
15!
#15900
1+
1;
1c
#15950
0c
05!
#16000
0+
0;
1c
#16050
b10010 C
0c
1k
b0000100001 %!
15!
b0000001100 =!
b000000110 E!
b00000110 M!
b0000011011000000000000000000 U!
b0000000000000000000000000000011011000000000000000000 ]!
b0000000000000000000000000000000011011000000000000000 m!
b00000011011000000000000000 }!
b0000001101100 '"
b0000011011001110010011000000000000 /"
b000000000000011011001110010011000000000000 ?"
b000000000000000000000000010000100000000000 O"
b000010000100000000000 _"
#16100
1+
1;
1S
b00000000000000000000000000000000 [
1c
#16150
0c
05!
#16200
0+
0;
1c
#16250
b10011 C
0c
15!
#16300
1+
1;
1c
#16350
0c
05!
#16400
0+
0;
1c
