sar_adc_model/sar_adc_ideal/build/sar_adc.tests.test_sar_adc__test_sar_adc_basic_3.29_top.verilator1.vcd
$version Generated by VerilatedVcd $end
$date Fri Nov 17 12:32:00 2023
 $end
$timescale  10ps $end

 $scope module TOP $end
  $var wire  1 c clk [0:0] $end
  $var wire  1 k eoc [0:0] $end
  $var wire  1 s input_hold_digital [0:0] $end
  $var wire 10 { input_voltage_real [9:0] $end
  $var wire 10 %! output_result_digital [9:0] $end
  $var wire  1 -! reset [0:0] $end
  $var wire  1 5! sys_clk [0:0] $end
  $scope module sar_adc__N_BITS_10 $end
   $var wire  1 c clk [0:0] $end
   $var wire  1 k eoc [0:0] $end
   $var wire  1 s input_hold_digital [0:0] $end
   $var wire 10 { input_voltage_real [9:0] $end
   $var wire 10 %! output_result_digital [9:0] $end
   $var wire  1 -! reset [0:0] $end
   $var wire  1 5! sys_clk [0:0] $end
   $scope module v $end
    $var wire 32 g" N_BITS [31:0] $end
    $var wire  1 c clk $end
    $var wire  1 S comparator_output_digital $end
    $var wire  1 k eoc $end
    $var wire  1 s input_hold_digital $end
    $var wire 10 { input_voltage_real [9:0] $end
    $var wire 10 =! n_voltage_real [9:0] $end
    $var wire 10 %! output_result_digital [9:0] $end
    $var wire 10 # p_voltage_real [9:0] $end
    $var wire  1 -! reset $end
    $var wire  1 5! sys_clk $end
    $scope module DAC_instance $end
     $var wire  1 c clk $end
     $var wire 13 Y# const_18 [12:0] $end
     $var wire 15 3$ const_30 [14:0] $end
     $var wire 10 %! input_voltage_digital [9:0] $end
     $var wire 10 =! output_voltage_real [9:0] $end
     $var wire 42 A# padl_14 [41:0] $end
     $var wire 21 Q# padl_16 [20:0] $end
     $var wire  9 E! padl_2 [8:0] $end
     $var wire 42 O" padl_21 [41:0] $end
     $var wire 52 y# padl_26 [51:0] $end
     $var wire 26 +$ padl_28 [25:0] $end
     $var wire 52 m! padl_6 [51:0] $end
     $var wire 21 Q# padl_bits_15 [20:0] $end
     $var wire 13 Y# padl_bits_17 [12:0] $end
     $var wire 21 _" padl_bits_22 [20:0] $end
     $var wire 26 +$ padl_bits_27 [25:0] $end
     $var wire 15 3$ padl_bits_29 [14:0] $end
     $var wire  8 M! padl_bits_3 [7:0] $end
     $var wire 26 }! padl_bits_7 [25:0] $end
     $var wire  8 a# padl_bits_zero_19 [7:0] $end
     $var wire 21 i# padl_bits_zero_20 [20:0] $end
     $var wire 21 i# padl_bits_zero_25 [20:0] $end
     $var wire  1 1# padl_bits_zero_31 [0:0] $end
     $var wire 10 =! padr_0 [9:0] $end
     $var wire 21 _" padr_23 [20:0] $end
     $var wire 26 }! padr_8 [25:0] $end
     $var wire  1 1# padr_bits_1 [0:0] $end
     $var wire 11 q# padr_bits_24 [10:0] $end
     $var wire 13 9# padr_bits_9 [12:0] $end
     $var wire  1 -! reset $end
     $var wire  1 1# toSInt_10 [0:0] $end
     $var wire 13 '" toSInt_imm_11 [12:0] $end
     $var wire 34 /" truncR_12 [33:0] $end
     $var wire 28 U! truncR_4 [27:0] $end
     $var wire 42 ?" truncval_13 [41:0] $end
     $var wire 52 ]! truncval_5 [51:0] $end
    $upscope $end
    $scope module SAR_instance $end
     $var wire 32 g" N_BITS [31:0] $end
     $var wire  1 5! clk $end
     $var wire  1 s conduct_comparison $end
     $var wire  4 C counter [3:0] $end
     $var wire  1 k eoc $end
     $var wire  1 S feedback_value $end
     $var wire 10 %! quantized_voltage [9:0] $end
     $var wire 10 K quantized_voltage_register [9:0] $end
     $var wire  1 -! reset $end
     $scope module unnamedblk1 $end
      $var wire 32 )# i [31:0] $end
     $upscope $end
    $upscope $end
    $scope module comparator_instance $end
     $var wire  1 c clk $end
     $var wire 13 C$ const_1 [12:0] $end
     $var wire 15 S$ const_4 [14:0] $end
     $var wire 32 [ fsm [31:0] $end
     $var wire 32 !# fsm_1 [31:0] $end
     $var wire 32 w" fsm_init [31:0] $end
     $var wire 10 =! n_voltage_real [9:0] $end
     $var wire  1 S out_digital [0:0] $end
     $var wire 10 # p_voltage_real [9:0] $end
     $var wire  1 ; prev_sys_clk [0:0] $end
     $var wire  1 -! reset $end
     $var wire  4 ;$ state_cycle_counter [3:0] $end
     $var wire  1 5! sys_clk $end
     $var wire 15 S$ toUsInt_3 [14:0] $end
     $var wire 13 C$ truncR_0 [12:0] $end
     $var wire 14 K$ truncR_2 [13:0] $end
    $upscope $end
    $scope module sah $end
     $var wire  1 c clk $end
     $var wire 32 3 fsm [31:0] $end
     $var wire 32 !# fsm_1 [31:0] $end
     $var wire 32 w" fsm_init [31:0] $end
     $var wire  1 s input_control_digital [0:0] $end
     $var wire 10 { input_voltage_real [9:0] $end
     $var wire 10 # output_voltage_real [9:0] $end
     $var wire  1 + prev_sys_clk [0:0] $end
     $var wire  1 -! reset $end
     $var wire 10 # state_cap [9:0] $end
     $var wire  4 o" state_cycle_counter [3:0] $end
     $var wire  1 5! sys_clk $end
    $upscope $end
   $upscope $end
  $upscope $end
 $upscope $end
$enddefinitions $end


#50
b0000000000 #
0+
b00000000000000000000000000000000 3
0;
b0000 C
b0000000000 K
1S
b00000000000000000000000000000000 [
0c
0k
0s
b0000000000 {
b1000000000 %!
1-!
05!
b0011010010 =!
b001101001 E!
b01101001 M!
b0110100110010000000000000000 U!
b0000000000000000000000000110100110010000000000000000 ]!
b0000000000000000000000000000110100110010000000000000 m!
b00110100110010000000000000 }!
b0011010011001 '"
b0110100110011000000000000000000000 /"
b000000000110100110011000000000000000000000 ?"
b000000000000000000000100000000000000000000 O"
b100000000000000000000 _"
b00000000000000000000000000001010 g"
b0000 o"
b00000000000000000000000000000000 w"
b00000000000000000000000000000001 !#
b00000000000000000000000000001010 )#
01#
b0000000000000 9#
b000000000000000000000000000001101001100110 A#
b000000001101001100110 Q#
b1101001100110 Y#
b00000000 a#
b000000000000000000000 i#
b00000000000 q#
b0000000000000000000000000000000000000000000000001000 y#
b00000000000000000000001000 +$
b000000000001000 3$
b0000 ;$
b1000000000000 C$
b00000000000000 K$
b000000000000000 S$
#100
1c
#150
0c
#200
1c
#250
0c
#300
1c
#350
0c
b0110100101 {
0-!
15!
#400
b0110100101 #
1+
1;
1c
#450
0c
#500
1c
#550
0c
05!
#600
0+
0;
1c
#650
0c
15!
#700
1+
1;
1c
#750
0c
05!
#800
0+
0;
1c
#850
0c
15!
#900
1+
1;
1c
#950
0c
1s
05!
#1000
0+
b00000000000000000000000000000001 3
0;
1c
#1050
b0001 C
b1000000000 K
0c
b1100000000 %!
15!
b0100111100 =!
b010011110 E!
b10011110 M!
b1001111001100000000000000000 U!
b0000000000000000000000001001111001100000000000000000 ]!
b0000000000000000000000000001001111001100000000000000 m!
b01001111001100000000000000 }!
b0100111100110 '"
b1001111001100100000000000000000000 /"
b000000001001111001100100000000000000000000 ?"
b000000000000000000000110000000000000000000 O"
b110000000000000000000 _"
#1100
1+
1;
1c
#1150
0c
05!
#1200
0+
0;
1c
#1250
b0010 C
b1100000000 K
0c
b1110000000 %!
15!
b0101110000 =!
b010111000 E!
b10111000 M!
b1011100011000000000000000000 U!
b0000000000000000000000001011100011000000000000000000 ]!
b0000000000000000000000000001011100011000000000000000 m!
b01011100011000000000000000 }!
b0101110001100 '"
b1011100011001010000000000000000000 /"
b000000001011100011001010000000000000000000 ?"
b000000000000000000000111000000000000000000 O"
b111000000000000000000 _"
#1300
1+
1;
1c
#1350
0c
05!
#1400
0+
0;
1c
#1450
b0011 C
b1110000000 K
0c
b1111000000 %!
15!
b0110001010 =!
b011000101 E!
b11000101 M!
b1100010111110000000000000000 U!
b0000000000000000000000001100010111110000000000000000 ]!
b0000000000000000000000000001100010111110000000000000 m!
b01100010111110000000000000 }!
b0110001011111 '"
b1100010111111101000000000000000000 /"
b000000001100010111111101000000000000000000 ?"
b000000000000000000000111100000000000000000 O"
b111100000000000000000 _"
#1500
1+
1;
1c
#1550
0c
05!
#1600
0+
0;
1c
#1650
b0100 C
b1111000000 K
0c
b1111100000 %!
15!
b0110011000 =!
b011001100 E!
b11001100 M!
b1100110010010000000000000000 U!
b0000000000000000000000001100110010010000000000000000 ]!
b0000000000000000000000000001100110010010000000000000 m!
b01100110010010000000000000 }!
b0110011001001 '"
b1100110010010110100000000000000000 /"
b000000001100110010010110100000000000000000 ?"
b000000000000000000000111110000000000000000 O"
b111110000000000000000 _"
#1700
1+
1;
1c
#1750
0c
05!
#1800
0+
0;
1c
#1850
b0101 C
b1111100000 K
0c
b1111110000 %!
15!
b0110011110 =!
b011001111 E!
b11001111 M!
b1100111111100000000000000000 U!
b0000000000000000000000001100111111100000000000000000 ]!
b0000000000000000000000000001100111111100000000000000 m!
b01100111111100000000000000 }!
b0110011111110 '"
b1100111111100011010000000000000000 /"
b000000001100111111100011010000000000000000 ?"
b000000000000000000000111111000000000000000 O"
b111111000000000000000 _"
#1900
1+
1;
1c
#1950
0c
05!
#2000
0+
0;
1c
#2050
b0110 C
b1111110000 K
0c
b1111111000 %!
15!
b0110100010 =!
b011010001 E!
b11010001 M!
b1101000110000000000000000000 U!
b0000000000000000000000001101000110000000000000000000 ]!
b0000000000000000000000000001101000110000000000000000 m!
b01101000110000000000000000 }!
b0110100011000 '"
b1101000110001001101000000000000000 /"
b000000001101000110001001101000000000000000 ?"
b000000000000000000000111111100000000000000 O"
b111111100000000000000 _"
#2100
1+
1;
1c
#2150
0c
05!
#2200
0+
0;
1c
#2250
b0111 C
b1111111000 K
0c
b1111111100 %!
15!
b0110100100 =!
b011010010 E!
b11010010 M!
b1101001001010000000000000000 U!
b0000000000000000000000001101001001010000000000000000 ]!
b0000000000000000000000000001101001001010000000000000 m!
b01101001001010000000000000 }!
b0110100100101 '"
b1101001001011100110100000000000000 /"
b000000001101001001011100110100000000000000 ?"
b000000000000000000000111111110000000000000 O"
b111111110000000000000 _"
#2300
1+
1;
1c
#2350
0c
05!
#2400
0+
0;
1c
#2450
b1000 C
b1111111100 K
0c
b1111111110 %!
15!
b1101001011000000000000000000 U!
b0000000000000000000000001101001011000000000000000000 ]!
b0000000000000000000000000001101001011000000000000000 m!
b01101001011000000000000000 }!
b0110100101100 '"
b1101001011000110011010000000000000 /"
b000000001101001011000110011010000000000000 ?"
b000000000000000000000111111111000000000000 O"
b111111111000000000000 _"
#2500
1+
1;
1c
#2550
0c
05!
#2600
0+
0;
1c
#2650
b1001 C
b1111111110 K
0c
1k
b1111111111 %!
15!
b1101001011110000000000000000 U!
b0000000000000000000000001101001011110000000000000000 ]!
b0000000000000000000000000001101001011110000000000000 m!
b01101001011110000000000000 }!
b0110100101111 '"
b1101001011111011001101000000000000 /"
b000000001101001011111011001101000000000000 ?"
b000000000000000000000111111111100000000000 O"
b111111111100000000000 _"
#2700
1+
1;
1c
#2750
0c
05!
#2800
0+
0;
1c
#2850
b0000 C
b1111111111 K
0c
0k
15!
