sar_adc_model/sar_adc_ideal/build/sar_adc.tests.test_sar_adc__test_sar_adc_basic_0.1_top.verilator1.vcd
$version Generated by VerilatedVcd $end
$date Fri Nov 17 12:32:00 2023
 $end
$timescale  10ps $end

 $scope module TOP $end
  $var wire  1 c clk [0:0] $end
  $var wire  1 k eoc [0:0] $end
  $var wire  1 s input_hold_digital [0:0] $end
  $var wire 10 { input_voltage_real [9:0] $end
  $var wire 10 %! output_result_digital [9:0] $end
  $var wire  1 -! reset [0:0] $end
  $var wire  1 5! sys_clk [0:0] $end
  $scope module sar_adc__N_BITS_10 $end
   $var wire  1 c clk [0:0] $end
   $var wire  1 k eoc [0:0] $end
   $var wire  1 s input_hold_digital [0:0] $end
   $var wire 10 { input_voltage_real [9:0] $end
   $var wire 10 %! output_result_digital [9:0] $end
   $var wire  1 -! reset [0:0] $end
   $var wire  1 5! sys_clk [0:0] $end
   $scope module v $end
    $var wire 32 g" N_BITS [31:0] $end
    $var wire  1 c clk $end
    $var wire  1 S comparator_output_digital $end
    $var wire  1 k eoc $end
    $var wire  1 s input_hold_digital $end
    $var wire 10 { input_voltage_real [9:0] $end
    $var wire 10 =! n_voltage_real [9:0] $end
    $var wire 10 %! output_result_digital [9:0] $end
    $var wire 10 # p_voltage_real [9:0] $end
    $var wire  1 -! reset $end
    $var wire  1 5! sys_clk $end
    $scope module DAC_instance $end
     $var wire  1 c clk $end
     $var wire 13 Y# const_18 [12:0] $end
     $var wire 15 3$ const_30 [14:0] $end
     $var wire 10 %! input_voltage_digital [9:0] $end
     $var wire 10 =! output_voltage_real [9:0] $end
     $var wire 42 A# padl_14 [41:0] $end
     $var wire 21 Q# padl_16 [20:0] $end
     $var wire  9 E! padl_2 [8:0] $end
     $var wire 42 O" padl_21 [41:0] $end
     $var wire 52 y# padl_26 [51:0] $end
     $var wire 26 +$ padl_28 [25:0] $end
     $var wire 52 m! padl_6 [51:0] $end
     $var wire 21 Q# padl_bits_15 [20:0] $end
     $var wire 13 Y# padl_bits_17 [12:0] $end
     $var wire 21 _" padl_bits_22 [20:0] $end
     $var wire 26 +$ padl_bits_27 [25:0] $end
     $var wire 15 3$ padl_bits_29 [14:0] $end
     $var wire  8 M! padl_bits_3 [7:0] $end
     $var wire 26 }! padl_bits_7 [25:0] $end
     $var wire  8 a# padl_bits_zero_19 [7:0] $end
     $var wire 21 i# padl_bits_zero_20 [20:0] $end
     $var wire 21 i# padl_bits_zero_25 [20:0] $end
     $var wire  1 1# padl_bits_zero_31 [0:0] $end
     $var wire 10 =! padr_0 [9:0] $end
     $var wire 21 _" padr_23 [20:0] $end
     $var wire 26 }! padr_8 [25:0] $end
     $var wire  1 1# padr_bits_1 [0:0] $end
     $var wire 11 q# padr_bits_24 [10:0] $end
     $var wire 13 9# padr_bits_9 [12:0] $end
     $var wire  1 -! reset $end
     $var wire  1 1# toSInt_10 [0:0] $end
     $var wire 13 '" toSInt_imm_11 [12:0] $end
     $var wire 34 /" truncR_12 [33:0] $end
     $var wire 28 U! truncR_4 [27:0] $end
     $var wire 42 ?" truncval_13 [41:0] $end
     $var wire 52 ]! truncval_5 [51:0] $end
    $upscope $end
    $scope module SAR_instance $end
     $var wire 32 g" N_BITS [31:0] $end
     $var wire  1 5! clk $end
     $var wire  1 s conduct_comparison $end
     $var wire  4 C counter [3:0] $end
     $var wire  1 k eoc $end
     $var wire  1 S feedback_value $end
     $var wire 10 %! quantized_voltage [9:0] $end
     $var wire 10 K quantized_voltage_register [9:0] $end
     $var wire  1 -! reset $end
     $scope module unnamedblk1 $end
      $var wire 32 )# i [31:0] $end
     $upscope $end
    $upscope $end
    $scope module comparator_instance $end
     $var wire  1 c clk $end
     $var wire 13 C$ const_1 [12:0] $end
     $var wire 15 S$ const_4 [14:0] $end
     $var wire 32 [ fsm [31:0] $end
     $var wire 32 !# fsm_1 [31:0] $end
     $var wire 32 w" fsm_init [31:0] $end
     $var wire 10 =! n_voltage_real [9:0] $end
     $var wire  1 S out_digital [0:0] $end
     $var wire 10 # p_voltage_real [9:0] $end
     $var wire  1 ; prev_sys_clk [0:0] $end
     $var wire  1 -! reset $end
     $var wire  4 ;$ state_cycle_counter [3:0] $end
     $var wire  1 5! sys_clk $end
     $var wire 15 S$ toUsInt_3 [14:0] $end
     $var wire 13 C$ truncR_0 [12:0] $end
     $var wire 14 K$ truncR_2 [13:0] $end
    $upscope $end
    $scope module sah $end
     $var wire  1 c clk $end
     $var wire 32 3 fsm [31:0] $end
     $var wire 32 !# fsm_1 [31:0] $end
     $var wire 32 w" fsm_init [31:0] $end
     $var wire  1 s input_control_digital [0:0] $end
     $var wire 10 { input_voltage_real [9:0] $end
     $var wire 10 # output_voltage_real [9:0] $end
     $var wire  1 + prev_sys_clk [0:0] $end
     $var wire  1 -! reset $end
     $var wire 10 # state_cap [9:0] $end
     $var wire  4 o" state_cycle_counter [3:0] $end
     $var wire  1 5! sys_clk $end
    $upscope $end
   $upscope $end
  $upscope $end
 $upscope $end
$enddefinitions $end


#50
b0000000000 #
0+
b00000000000000000000000000000000 3
0;
b0000 C
b0000000000 K
1S
b00000000000000000000000000000000 [
0c
0k
0s
b0000000000 {
b1000000000 %!
1-!
05!
b0011010010 =!
b001101001 E!
b01101001 M!
b0110100110010000000000000000 U!
b0000000000000000000000000110100110010000000000000000 ]!
b0000000000000000000000000000110100110010000000000000 m!
b00110100110010000000000000 }!
b0011010011001 '"
b0110100110011000000000000000000000 /"
b000000000110100110011000000000000000000000 ?"
b000000000000000000000100000000000000000000 O"
b100000000000000000000 _"
b00000000000000000000000000001010 g"
b0000 o"
b00000000000000000000000000000000 w"
b00000000000000000000000000000001 !#
b00000000000000000000000000001010 )#
01#
b0000000000000 9#
b000000000000000000000000000001101001100110 A#
b000000001101001100110 Q#
b1101001100110 Y#
b00000000 a#
b000000000000000000000 i#
b00000000000 q#
b0000000000000000000000000000000000000000000000001000 y#
b00000000000000000000001000 +$
b000000000001000 3$
b0000 ;$
b1000000000000 C$
b00000000000000 K$
b000000000000000 S$
#100
1c
#150
0c
#200
1c
#250
0c
#300
1c
#350
0c
b0000001101 {
0-!
15!
#400
b0000001101 #
1+
1;
1c
#450
0c
#500
0S
b00000000000000000000000000000001 [
1c
#550
0c
05!
#600
0+
0;
1c
#650
0c
15!
#700
1+
1;
1c
#750
0c
05!
#800
0+
0;
1c
#850
0c
15!
#900
1+
1;
1c
#950
0c
1s
05!
#1000
0+
b00000000000000000000000000000001 3
0;
1c
#1050
b0001 C
0c
b0100000000 %!
15!
b0001101000 =!
b000110100 E!
b00110100 M!
b0011010011000000000000000000 U!
b0000000000000000000000000011010011000000000000000000 ]!
b0000000000000000000000000000011010011000000000000000 m!
b00011010011000000000000000 }!
b0001101001100 '"
b0011010011001100000000000000000000 /"
b000000000011010011001100000000000000000000 ?"
b000000000000000000000010000000000000000000 O"
b010000000000000000000 _"
#1100
1+
1;
1c
#1150
0c
05!
#1200
0+
0;
1c
#1250
b0010 C
0c
b0010000000 %!
15!
b0000110100 =!
b000011010 E!
b00011010 M!
b0001101001100000000000000000 U!
b0000000000000000000000000001101001100000000000000000 ]!
b0000000000000000000000000000001101001100000000000000 m!
b00001101001100000000000000 }!
b0000110100110 '"
b0001101001100110000000000000000000 /"
b000000000001101001100110000000000000000000 ?"
b000000000000000000000001000000000000000000 O"
b001000000000000000000 _"
#1300
1+
1;
1c
#1350
0c
05!
#1400
0+
0;
1c
#1450
b0011 C
0c
b0001000000 %!
15!
b0000011010 =!
b000001101 E!
b00001101 M!
b0000110100110000000000000000 U!
b0000000000000000000000000000110100110000000000000000 ]!
b0000000000000000000000000000000110100110000000000000 m!
b00000110100110000000000000 }!
b0000011010011 '"
b0000110100110011000000000000000000 /"
b000000000000110100110011000000000000000000 ?"
b000000000000000000000000100000000000000000 O"
b000100000000000000000 _"
#1500
1+
1;
1c
#1550
0c
05!
#1600
0+
0;
1c
#1650
b0100 C
0c
b0000100000 %!
15!
b0000001100 =!
b000000110 E!
b00000110 M!
b0000011010010000000000000000 U!
b0000000000000000000000000000011010010000000000000000 ]!
b0000000000000000000000000000000011010010000000000000 m!
b00000011010010000000000000 }!
b0000001101001 '"
b0000011010011001100000000000000000 /"
b000000000000011010011001100000000000000000 ?"
b000000000000000000000000010000000000000000 O"
b000010000000000000000 _"
#1700
1+
1;
1S
b00000000000000000000000000000000 [
1c
#1750
0c
05!
#1800
0+
0;
1c
#1850
b0101 C
b0000100000 K
0c
b0000110000 %!
15!
b0000010010 =!
b000001001 E!
b00001001 M!
b0000100111100000000000000000 U!
b0000000000000000000000000000100111100000000000000000 ]!
b0000000000000000000000000000000100111100000000000000 m!
b00000100111100000000000000 }!
b0000010011110 '"
b0000100111100110010000000000000000 /"
b000000000000100111100110010000000000000000 ?"
b000000000000000000000000011000000000000000 O"
b000011000000000000000 _"
#1900
1+
1;
0S
b00000000000000000000000000000001 [
1c
#1950
0c
05!
#2000
0+
0;
1c
#2050
b0110 C
0c
b0000101000 %!
15!
b0000010000 =!
b000001000 E!
b00001000 M!
b0000100000110000000000000000 U!
b0000000000000000000000000000100000110000000000000000 ]!
b0000000000000000000000000000000100000110000000000000 m!
b00000100000110000000000000 }!
b0000010000011 '"
b0000100000111111111000000000000000 /"
b000000000000100000111111111000000000000000 ?"
b000000000000000000000000010100000000000000 O"
b000010100000000000000 _"
#2100
1+
1;
1c
#2150
0c
05!
#2200
0+
0;
1c
#2250
b0111 C
0c
b0000100100 %!
15!
b0000001110 =!
b000000111 E!
b00000111 M!
b0000011101100000000000000000 U!
b0000000000000000000000000000011101100000000000000000 ]!
b0000000000000000000000000000000011101100000000000000 m!
b00000011101100000000000000 }!
b0000001110110 '"
b0000011101101100101100000000000000 /"
b000000000000011101101100101100000000000000 ?"
b000000000000000000000000010010000000000000 O"
b000010010000000000000 _"
#2300
1+
1;
1c
#2350
0c
05!
#2400
0+
0;
1c
#2450
b1000 C
0c
b0000100010 %!
15!
b0000011100000000000000000000 U!
b0000000000000000000000000000011100000000000000000000 ]!
b0000000000000000000000000000000011100000000000000000 m!
b00000011100000000000000000 }!
b0000001110000 '"
b0000011100000011000110000000000000 /"
b000000000000011100000011000110000000000000 ?"
b000000000000000000000000010001000000000000 O"
b000010001000000000000 _"
#2500
1+
1;
1c
#2550
0c
05!
#2600
0+
0;
1c
#2650
b1001 C
0c
1k
b0000100001 %!
15!
b0000001100 =!
b000000110 E!
b00000110 M!
b0000011011000000000000000000 U!
b0000000000000000000000000000011011000000000000000000 ]!
b0000000000000000000000000000000011011000000000000000 m!
b00000011011000000000000000 }!
b0000001101100 '"
b0000011011001110010011000000000000 /"
b000000000000011011001110010011000000000000 ?"
b000000000000000000000000010000100000000000 O"
b000010000100000000000 _"
#2700
1+
1;
1S
b00000000000000000000000000000000 [
1c
#2750
0c
05!
#2800
0+
0;
1c
#2850
b0000 C
b0000100001 K
0c
0k
b1000100001 %!
15!
b0011100000 =!
b001110000 E!
b01110000 M!
b0111000001100000000000000000 U!
b0000000000000000000000000111000001100000000000000000 ]!
b0000000000000000000000000000111000001100000000000000 m!
b00111000001100000000000000 }!
b0011100000110 '"
b0111000001100110010011000000000000 /"
b000000000111000001100110010011000000000000 ?"
b000000000000000000000100010000100000000000 O"
b100010000100000000000 _"
#2900
1+
1;
0S
b00000000000000000000000000000001 [
1c
