sar_adc_model/sar_adc_ideal/build/sar_adc_ideal.tests.test_sar_adc__test_sar_adc_simple_0.1.vcd
$date
  Sun Nov 19 20:29:49 2023
$end
$version
  PyMTL 3 (Mamba)
$end
$timescale
 10ps
$end

$scope module top $end
  $var reg 1 ! eoc $end
  $var reg 10 " s_DOT_input_voltage_real $end
  $var reg 1 # s_DOT_eoc $end
  $var reg 1 $ s_DOT_input_hold_digital $end
  $var reg 1 % s_DOT_reset $end
  $var reg 10 & s_DOT_output_result_digital $end
  $var reg 10 ' output_result_digital $end
  $var reg 1 ( s_DOT_sys_clk $end
  $var reg 1 ) input_hold_digital $end
  $var reg 1 * sys_clk $end
  $var reg 10 + input_voltage_real $end
  $var reg 1 , reset $end
  $var reg 1 - clk $end
$upscope $end
$enddefinitions $end

b0b0 !
b0b0000000000 "
b0b0 #
b0b0 $
b0b0 %
b0b0000000000 &
b0b0000000000 '
b0b0 (
b0b0 )
b0b0 *
b0b0000000000 +
b0b0 ,
b0b0 -

#0
b0b1 -

b0b1 %
b0b1000000000 &
b0b1000000000 '
b0b1 ,

#50
b0b0 -
#100
b0b1 -


#150
b0b0 -
#200
b0b1 -


#250
b0b0 -
#300
b0b1 -

b0b0000001101 "
b0b0 %
b0b0000001101 +
b0b0 ,

#350
b0b0 -
#400
b0b1 -

b0b1 (
b0b1 *

#450
b0b0 -
#500
b0b1 -

b0b0 (
b0b0 *

#550
b0b0 -
#600
b0b1 -

b0b1 $
b0b1 (
b0b1 )
b0b1 *

#650
b0b0 -
#700
b0b1 -

b0b0 (
b0b0 *

#750
b0b0 -
#800
b0b1 -

b0b0100000000 &
b0b0100000000 '
b0b1 (
b0b1 *

#850
b0b0 -
#900
b0b1 -

b0b0 (
b0b0 *

#950
b0b0 -
#1000
b0b1 -

b0b1 (
b0b1 *

#1050
b0b0 -
#1100
b0b1 -

b0b0 (
b0b0 *

#1150
b0b0 -
#1200
b0b1 -

b0b0010000000 &
b0b0010000000 '
b0b1 (
b0b1 *

#1250
b0b0 -
#1300
b0b1 -

b0b0 (
b0b0 *

#1350
b0b0 -
#1400
b0b1 -

b0b1 (
b0b1 *

#1450
b0b0 -
#1500
b0b1 -

b0b0 (
b0b0 *

#1550
b0b0 -
#1600
b0b1 -

b0b0001000000 &
b0b0001000000 '
b0b1 (
b0b1 *

#1650
b0b0 -
#1700
b0b1 -

b0b0 (
b0b0 *

#1750
b0b0 -
#1800
b0b1 -

b0b1 (
b0b1 *

#1850
b0b0 -
#1900
b0b1 -

b0b0 (
b0b0 *

#1950
b0b0 -
#2000
b0b1 -

b0b0000100000 &
b0b0000100000 '
b0b1 (
b0b1 *

#2050
b0b0 -
#2100
b0b1 -

b0b0 (
b0b0 *

#2150
b0b0 -
#2200
b0b1 -

b0b1 (
b0b1 *

#2250
b0b0 -
#2300
b0b1 -

b0b0 (
b0b0 *

#2350
b0b0 -
#2400
b0b1 -

b0b0000110000 &
b0b0000110000 '
b0b1 (
b0b1 *

#2450
b0b0 -
#2500
b0b1 -

b0b0 (
b0b0 *

#2550
b0b0 -
#2600
b0b1 -

b0b1 (
b0b1 *

#2650
b0b0 -
#2700
b0b1 -

b0b0 (
b0b0 *

#2750
b0b0 -
#2800
b0b1 -

b0b0000101000 &
b0b0000101000 '
b0b1 (
b0b1 *

#2850
b0b0 -
#2900
b0b1 -

b0b0 (
b0b0 *

#2950
b0b0 -
#3000
b0b1 -

b0b1 (
b0b1 *

#3050
b0b0 -
#3100
b0b1 -

b0b0 (
b0b0 *

#3150
b0b0 -
#3200
b0b1 -

b0b0000100100 &
b0b0000100100 '
b0b1 (
b0b1 *

#3250
b0b0 -
#3300
b0b1 -

b0b0 (
b0b0 *

#3350
b0b0 -
#3400
b0b1 -

b0b1 (
b0b1 *

#3450
b0b0 -
#3500
b0b1 -

b0b0 (
b0b0 *

#3550
b0b0 -
#3600
b0b1 -

b0b0000100010 &
b0b0000100010 '
b0b1 (
b0b1 *

#3650
b0b0 -
#3700
b0b1 -

b0b0 (
b0b0 *

#3750
b0b0 -
#3800
b0b1 -

b0b1 (
b0b1 *

#3850
b0b0 -
#3900
b0b1 -

b0b0 (
b0b0 *

#3950
b0b0 -
#4000
b0b1 -

b0b1 !
b0b1 #
b0b0000100001 &
b0b0000100001 '
b0b1 (
b0b1 *

#4050
b0b0 -
#4100
b0b1 -

b0b0 (
b0b0 *

#4150
b0b0 -
#4200
b0b1 -

b0b1 (
b0b1 *

#4250
b0b0 -
#4300
b0b1 -

b0b0 (
b0b0 *

#4350
b0b0 -
#4400
b0b1 -

b0b0 !
b0b0 #
b0b1000100001 &
b0b1000100001 '
b0b1 (
b0b1 *

#4450
b0b0 -
#4500
b0b1 -

b0b0 (
b0b0 *

#4550
b0b0 -
#4600
b0b1 -

b0b1 (
b0b1 *

#4650
b0b0 -
#4700
b0b1 -

b0b0 (
b0b0 *

#4750
b0b0 -
#4800
b0b1 -

b0b0100100001 &
b0b0100100001 '
b0b1 (
b0b1 *

#4850
b0b0 -
#4900
b0b1 -

b0b0 (
b0b0 *

#4950
b0b0 -
#5000
b0b1 -

b0b1 (
b0b1 *

#5050
b0b0 -
#5100
b0b1 -

b0b0 (
b0b0 *

#5150
b0b0 -
#5200
b0b1 -

b0b0010100001 &
b0b0010100001 '
b0b1 (
b0b1 *

#5250
b0b0 -
#5300
b0b1 -

b0b0 (
b0b0 *

#5350
b0b0 -
#5400
b0b1 -

b0b1 (
b0b1 *

#5450
b0b0 -
#5500
b0b1 -

b0b0 (
b0b0 *

#5550
b0b0 -
#5600
b0b1 -

b0b0001100001 &
b0b0001100001 '
b0b1 (
b0b1 *

#5650
b0b0 -
#5700
b0b1 -

b0b0 (
b0b0 *

#5750
b0b0 -
#5800
b0b1 -

b0b1 (
b0b1 *

#5850
b0b0 -
#5900
b0b1 -

b0b0 (
b0b0 *

#5950
b0b0 -
#6000
b0b1 -

b0b0000100001 &
b0b0000100001 '
b0b1 (
b0b1 *

#6050
b0b0 -
#6100
b0b1 -

b0b0 (
b0b0 *

#6150
b0b0 -
#6200
b0b1 -

b0b1 (
b0b1 *

#6250
b0b0 -
#6300
b0b1 -

b0b0 (
b0b0 *

#6350
b0b0 -
#6400
b0b1 -

b0b0000110001 &
b0b0000110001 '
b0b1 (
b0b1 *

#6450
b0b0 -
#6500
b0b1 -

b0b0 (
b0b0 *

#6550
b0b0 -
#6600
b0b1 -

b0b1 (
b0b1 *

#6650
b0b0 -
#6700
b0b1 -

b0b0 (
b0b0 *

#6750
b0b0 -
#6800
b0b1 -

b0b0000101001 &
b0b0000101001 '
b0b1 (
b0b1 *

#6850
b0b0 -
#6900
b0b1 -

b0b0 (
b0b0 *

#6950
b0b0 -
#7000
b0b1 -

b0b1 (
b0b1 *

#7050
b0b0 -
#7100
b0b1 -

b0b0 (
b0b0 *

#7150
b0b0 -
#7200
b0b1 -

b0b0000100101 &
b0b0000100101 '
b0b1 (
b0b1 *

#7250
b0b0 -
#7300
b0b1 -

b0b0 (
b0b0 *

#7350
b0b0 -
#7400
b0b1 -

b0b1 (
b0b1 *

#7450
b0b0 -
#7500
b0b1 -

b0b0 (
b0b0 *

#7550
b0b0 -
#7600
b0b1 -

b0b0000100011 &
b0b0000100011 '
b0b1 (
b0b1 *

#7650
b0b0 -
#7700
b0b1 -

b0b0 (
b0b0 *

#7750
b0b0 -
#7800
b0b1 -

b0b1 (
b0b1 *

#7850
b0b0 -
#7900
b0b1 -

b0b0 (
b0b0 *

#7950
b0b0 -
#8000
b0b1 -

b0b1 !
b0b1 #
b0b0000100001 &
b0b0000100001 '
b0b1 (
b0b1 *

#8050
b0b0 -
#8100
b0b1 -

b0b0 (
b0b0 *

#8150
b0b0 -
#8200
b0b1 -

b0b1 (
b0b1 *

#8250
b0b0 -
#8300
b0b1 -

b0b0 (
b0b0 *

#8350
b0b0 -
#8400
b0b1 -

b0b0 !
b0b0 #
b0b1000100001 &
b0b1000100001 '
b0b1 (
b0b1 *

#8450
b0b0 -
#8500
b0b1 -

b0b0 (
b0b0 *

#8550
b0b0 -
#8600
b0b1 -

b0b1 (
b0b1 *

#8650
b0b0 -
#8700
b0b1 -

b0b0 (
b0b0 *

#8750
b0b0 -
#8800
b0b1 -

b0b0100100001 &
b0b0100100001 '
b0b1 (
b0b1 *

#8850
b0b0 -
#8900
b0b1 -

b0b0 (
b0b0 *

#8950
b0b0 -
#9000
b0b1 -

b0b1 (
b0b1 *

#9050
b0b0 -
#9100
b0b1 -

b0b0 (
b0b0 *

#9150
b0b0 -
#9200
b0b1 -

b0b0010100001 &
b0b0010100001 '
b0b1 (
b0b1 *

#9250
b0b0 -
#9300
b0b1 -

b0b0 (
b0b0 *

#9350
b0b0 -
#9400
b0b1 -

b0b1 (
b0b1 *

#9450
b0b0 -
#9500
b0b1 -

b0b0 (
b0b0 *

#9550
b0b0 -
#9600
b0b1 -

b0b0001100001 &
b0b0001100001 '
b0b1 (
b0b1 *

#9650
b0b0 -
#9700
b0b1 -

b0b0 (
b0b0 *

#9750
b0b0 -
#9800
b0b1 -

b0b1 (
b0b1 *

#9850
b0b0 -
#9900
b0b1 -

b0b0 (
b0b0 *

#9950
b0b0 -
#10000
b0b1 -

b0b0000100001 &
b0b0000100001 '
b0b1 (
b0b1 *

#10050
b0b0 -
#10100
b0b1 -

b0b0 (
b0b0 *

#10150
b0b0 -
#10200
b0b1 -

b0b1 (
b0b1 *

#10250
b0b0 -
#10300
b0b1 -

b0b0 (
b0b0 *

#10350
b0b0 -
#10400
b0b1 -

b0b0000110001 &
b0b0000110001 '
b0b1 (
b0b1 *

#10450
b0b0 -
#10500
b0b1 -

b0b0 (
b0b0 *

#10550
b0b0 -
#10600
b0b1 -

b0b1 (
b0b1 *

#10650
b0b0 -
#10700
b0b1 -

b0b0 (
b0b0 *

#10750
b0b0 -
#10800
b0b1 -

b0b0000101001 &
b0b0000101001 '
b0b1 (
b0b1 *

#10850
b0b0 -
#10900
b0b1 -

b0b0 (
b0b0 *

#10950
b0b0 -
#11000
b0b1 -

b0b1 (
b0b1 *

#11050
b0b0 -
#11100
b0b1 -

b0b0 (
b0b0 *

#11150
b0b0 -
#11200
b0b1 -

b0b0000100101 &
b0b0000100101 '
b0b1 (
b0b1 *

#11250
b0b0 -
#11300
b0b1 -

b0b0 (
b0b0 *

#11350
b0b0 -
#11400
b0b1 -

b0b1 (
b0b1 *

#11450
b0b0 -
#11500
b0b1 -

b0b0 (
b0b0 *

#11550
b0b0 -
#11600
b0b1 -

b0b0000100011 &
b0b0000100011 '
b0b1 (
b0b1 *

#11650
b0b0 -
#11700
b0b1 -

b0b0 (
b0b0 *

#11750
b0b0 -
#11800
b0b1 -

b0b1 (
b0b1 *

#11850
b0b0 -
#11900
b0b1 -

b0b0 (
b0b0 *

#11950
b0b0 -
#12000
b0b1 -

b0b1 !
b0b1 #
b0b0000100001 &
b0b0000100001 '
b0b1 (
b0b1 *

#12050
b0b0 -
#12100
b0b1 -

b0b0 (
b0b0 *

#12150
b0b0 -
#12200
b0b1 -

b0b1 (
b0b1 *

#12250
b0b0 -
#12300
b0b1 -

b0b0 (
b0b0 *

#12350
b0b0 -
#12400
b0b1 -

b0b0 !
b0b0 #
b0b1000100001 &
b0b1000100001 '
b0b1 (
b0b1 *

#12450
b0b0 -
#12500
b0b1 -

b0b0 (
b0b0 *

#12550
b0b0 -
#12600
b0b1 -

b0b1 (
b0b1 *

#12650
b0b0 -
#12700
b0b1 -

b0b0 (
b0b0 *

#12750
b0b0 -
#12800
b0b1 -

b0b0100100001 &
b0b0100100001 '
b0b1 (
b0b1 *

#12850
b0b0 -
#12900
b0b1 -

b0b0 (
b0b0 *

#12950
b0b0 -
#13000
b0b1 -

b0b1 (
b0b1 *

#13050
b0b0 -
#13100
b0b1 -

b0b0 (
b0b0 *

#13150
b0b0 -
#13200
b0b1 -

b0b0010100001 &
b0b0010100001 '
b0b1 (
b0b1 *

#13250
b0b0 -
#13300
b0b1 -

b0b0 (
b0b0 *

#13350
b0b0 -
#13400
b0b1 -

b0b1 (
b0b1 *

#13450
b0b0 -
#13500
b0b1 -

b0b0 (
b0b0 *

#13550
b0b0 -
#13600
b0b1 -

b0b0001100001 &
b0b0001100001 '
b0b1 (
b0b1 *

#13650
b0b0 -
#13700
b0b1 -

b0b0 (
b0b0 *

#13750
b0b0 -
#13800
b0b1 -

b0b1 (
b0b1 *

#13850
b0b0 -
#13900
b0b1 -

b0b0 (
b0b0 *

#13950
b0b0 -
#14000
b0b1 -

b0b0000100001 &
b0b0000100001 '
b0b1 (
b0b1 *

#14050
b0b0 -
#14100
b0b1 -

b0b0 (
b0b0 *

#14150
b0b0 -
#14200
b0b1 -

b0b1 (
b0b1 *

#14250
b0b0 -
#14300
b0b1 -

b0b0 (
b0b0 *

#14350
b0b0 -
#14400
b0b1 -

b0b0000110001 &
b0b0000110001 '
b0b1 (
b0b1 *

#14450
b0b0 -
#14500
b0b1 -

b0b0 (
b0b0 *

#14550
b0b0 -
#14600
b0b1 -

b0b1 (
b0b1 *

#14650
b0b0 -
#14700
b0b1 -

b0b0 (
b0b0 *

#14750
b0b0 -
#14800
b0b1 -

b0b0000101001 &
b0b0000101001 '
b0b1 (
b0b1 *

#14850
b0b0 -
#14900
b0b1 -

b0b0 (
b0b0 *

#14950
b0b0 -
#15000
b0b1 -

b0b1 (
b0b1 *

#15050
b0b0 -
#15100
b0b1 -

b0b0 (
b0b0 *

#15150
b0b0 -
#15200
b0b1 -

b0b0000100101 &
b0b0000100101 '
b0b1 (
b0b1 *

#15250
b0b0 -
#15300
b0b1 -

b0b0 (
b0b0 *

#15350
b0b0 -
#15400
b0b1 -

b0b1 (
b0b1 *

#15450
b0b0 -
#15500
b0b1 -

b0b0 (
b0b0 *

#15550
b0b0 -
#15600
b0b1 -

b0b0000100011 &
b0b0000100011 '
b0b1 (
b0b1 *

#15650
b0b0 -
#15700
b0b1 -

b0b0 (
b0b0 *

#15750
b0b0 -
#15800
b0b1 -

b0b1 (
b0b1 *

#15850
b0b0 -
#15900
b0b1 -

b0b0 (
b0b0 *

#15950
b0b0 -
#16000
b0b1 -

b0b1 !
b0b1 #
b0b0000100001 &
b0b0000100001 '
b0b1 (
b0b1 *

#16050
b0b0 -
#16100
b0b1 -

b0b0 (
b0b0 *

#16150
b0b0 -
#16200
b0b1 -

b0b1 (
b0b1 *

#16250
b0b0 -
#16300
b0b1 -

b0b0 (
b0b0 *

#16350
b0b0 -
#16400
b0b1 -

b0b0 !
b0b0 #
b0b1000100001 &
b0b1000100001 '
b0b1 (
b0b1 *

#16450
b0b0 -
#16500
b0b1 -

b0b0 (
b0b0 *

#16550
b0b0 -
#16600
b0b1 -

b0b1 (
b0b1 *

#16650
b0b0 -
#16700
b0b1 -

b0b0 (
b0b0 *

#16750
b0b0 -
#16800
b0b1 -

b0b0100100001 &
b0b0100100001 '
b0b1 (
b0b1 *

#16850
b0b0 -
#16900
b0b1 -

b0b0 (
b0b0 *

#16950
b0b0 -
#17000
b0b1 -

b0b1 (
b0b1 *

#17050
b0b0 -
#17100
b0b1 -

b0b0 (
b0b0 *

#17150
b0b0 -
#17200
b0b1 -

b0b0010100001 &
b0b0010100001 '
b0b1 (
b0b1 *

#17250
b0b0 -
#17300
b0b1 -

b0b0 (
b0b0 *

#17350
b0b0 -
#17400
b0b1 -

b0b1 (
b0b1 *

#17450
b0b0 -
#17500
b0b1 -

b0b0 (
b0b0 *

#17550
b0b0 -
#17600
b0b1 -

b0b0001100001 &
b0b0001100001 '
b0b1 (
b0b1 *

#17650
b0b0 -
#17700
b0b1 -

b0b0 (
b0b0 *

#17750
b0b0 -
#17800
b0b1 -

b0b1 (
b0b1 *

#17850
b0b0 -
#17900
b0b1 -

b0b0 (
b0b0 *

#17950
b0b0 -
#18000
b0b1 -

b0b0000100001 &
b0b0000100001 '
b0b1 (
b0b1 *

#18050
b0b0 -
#18100
b0b1 -

b0b0 (
b0b0 *

#18150
b0b0 -
#18200
b0b1 -

b0b1 (
b0b1 *

#18250
b0b0 -
#18300
b0b1 -

b0b0 (
b0b0 *

#18350
b0b0 -
#18400
b0b1 -

b0b0000110001 &
b0b0000110001 '
b0b1 (
b0b1 *

#18450
b0b0 -
#18500
b0b1 -

b0b0 (
b0b0 *

#18550
b0b0 -
#18600
b0b1 -

b0b1 (
b0b1 *

#18650
b0b0 -
#18700
b0b1 -

b0b0 (
b0b0 *

#18750
b0b0 -
#18800
b0b1 -

b0b0000101001 &
b0b0000101001 '
b0b1 (
b0b1 *

#18850
b0b0 -
#18900
b0b1 -

b0b0 (
b0b0 *

#18950
b0b0 -
#19000
b0b1 -

b0b1 (
b0b1 *

#19050
b0b0 -
#19100
b0b1 -

b0b0 (
b0b0 *

#19150
b0b0 -
#19200
b0b1 -

b0b0000100101 &
b0b0000100101 '
b0b1 (
b0b1 *

#19250
b0b0 -
#19300
b0b1 -

b0b0 (
b0b0 *

#19350
b0b0 -
#19400
b0b1 -

b0b1 (
b0b1 *

#19450
b0b0 -
#19500
b0b1 -

b0b0 (
b0b0 *

#19550
b0b0 -
#19600
b0b1 -

b0b0000100011 &
b0b0000100011 '
b0b1 (
b0b1 *

#19650
b0b0 -
#19700
b0b1 -

b0b0 (
b0b0 *

#19750
b0b0 -
#19800
b0b1 -

b0b1 (
b0b1 *

#19850
b0b0 -
#19900
b0b1 -

b0b0 (
b0b0 *

#19950
b0b0 -
#20000
b0b1 -

b0b1 !
b0b1 #
b0b0000100001 &
b0b0000100001 '
b0b1 (
b0b1 *

#20050
b0b0 -
#20100
b0b1 -

b0b0 (
b0b0 *

#20150
b0b0 -
#20200
b0b1 -

b0b1 (
b0b1 *

#20250
b0b0 -
#20300
b0b1 -

b0b0 (
b0b0 *

#20350
b0b0 -
#20400
b0b1 -

b0b0 !
b0b0 #
b0b1000100001 &
b0b1000100001 '
b0b1 (
b0b1 *

#20450
b0b0 -
#20500
b0b1 -

b0b0 (
b0b0 *

#20550
b0b0 -
#20600
b0b1 -

b0b1 (
b0b1 *

#20650
b0b0 -
#20700
b0b1 -

b0b0 (
b0b0 *

#20750
b0b0 -
#20800
b0b1 -

b0b0100100001 &
b0b0100100001 '
b0b1 (
b0b1 *

#20850
b0b0 -
#20900
b0b1 -

b0b0 (
b0b0 *

#20950
b0b0 -
#21000
b0b1 -

b0b1 (
b0b1 *

#21050
b0b0 -
#21100
b0b1 -

b0b0 (
b0b0 *

#21150
b0b0 -
#21200
b0b1 -

b0b0010100001 &
b0b0010100001 '
b0b1 (
b0b1 *

#21250
b0b0 -
#21300
b0b1 -

b0b0 (
b0b0 *

#21350
b0b0 -
#21400
b0b1 -

b0b1 (
b0b1 *

#21450
b0b0 -
#21500
b0b1 -

b0b0 (
b0b0 *

#21550
b0b0 -
#21600
b0b1 -

b0b0001100001 &
b0b0001100001 '
b0b1 (
b0b1 *

#21650
b0b0 -
#21700
b0b1 -

b0b0 (
b0b0 *

#21750
b0b0 -
#21800
b0b1 -

b0b1 (
b0b1 *

#21850
b0b0 -
#21900
b0b1 -

b0b0 (
b0b0 *

#21950
b0b0 -
#22000
b0b1 -

b0b0000100001 &
b0b0000100001 '
b0b1 (
b0b1 *

#22050
b0b0 -
#22100
b0b1 -

b0b0 (
b0b0 *

#22150
b0b0 -
#22200
b0b1 -

b0b1 (
b0b1 *

#22250
b0b0 -
#22300
b0b1 -

b0b0 (
b0b0 *

#22350
b0b0 -
#22400
b0b1 -

b0b0000110001 &
b0b0000110001 '
b0b1 (
b0b1 *

#22450
b0b0 -
#22500
b0b1 -

b0b0 (
b0b0 *

#22550
b0b0 -
#22600
b0b1 -

b0b1 (
b0b1 *

#22650
b0b0 -
#22700
b0b1 -

b0b0 (
b0b0 *

#22750
b0b0 -
#22800
b0b1 -

b0b0000101001 &
b0b0000101001 '
b0b1 (
b0b1 *

#22850
b0b0 -
#22900
b0b1 -

b0b0 (
b0b0 *

#22950
b0b0 -
#23000
b0b1 -

b0b1 (
b0b1 *

#23050
b0b0 -
#23100
b0b1 -

b0b0 (
b0b0 *

#23150
b0b0 -
#23200
b0b1 -

b0b0000100101 &
b0b0000100101 '
b0b1 (
b0b1 *

#23250
b0b0 -
#23300
b0b1 -

b0b0 (
b0b0 *

#23350
b0b0 -
#23400
b0b1 -

b0b1 (
b0b1 *

#23450
b0b0 -
#23500
b0b1 -

b0b0 (
b0b0 *

#23550
b0b0 -
#23600
b0b1 -

b0b0000100011 &
b0b0000100011 '
b0b1 (
b0b1 *

#23650
b0b0 -
#23700
b0b1 -

b0b0 (
b0b0 *

#23750
b0b0 -
#23800
b0b1 -

b0b1 (
b0b1 *

#23850
b0b0 -
#23900
b0b1 -

b0b0 (
b0b0 *

#23950
b0b0 -
#24000
b0b1 -

b0b1 !
b0b1 #
b0b0000100001 &
b0b0000100001 '
b0b1 (
b0b1 *

#24050
b0b0 -
#24100
b0b1 -

b0b0 (
b0b0 *

#24150
b0b0 -
#24200
b0b1 -

b0b1 (
b0b1 *

#24250
b0b0 -
#24300
b0b1 -

b0b0 (
b0b0 *

#24350
b0b0 -
#24400
b0b1 -

b0b0 !
b0b0 #
b0b1000100001 &
b0b1000100001 '
b0b1 (
b0b1 *

#24450
b0b0 -
#24500
b0b1 -

b0b0 (
b0b0 *

#24550
b0b0 -
#24600
b0b1 -

b0b1 (
b0b1 *

#24650
b0b0 -
#24700
b0b1 -

b0b0 (
b0b0 *

#24750
b0b0 -
#24800
b0b1 -

b0b0100100001 &
b0b0100100001 '
b0b1 (
b0b1 *

#24850
b0b0 -
#24900
b0b1 -

b0b0 (
b0b0 *

#24950
b0b0 -
#25000
b0b1 -

b0b1 (
b0b1 *

#25050
b0b0 -
#25100
b0b1 -

b0b0 (
b0b0 *

#25150
b0b0 -
#25200
b0b1 -

b0b0010100001 &
b0b0010100001 '
b0b1 (
b0b1 *

#25250
b0b0 -
#25300
b0b1 -

b0b0 (
b0b0 *

#25350
b0b0 -
#25400
b0b1 -

b0b1 (
b0b1 *

#25450
b0b0 -
#25500
b0b1 -

b0b0 (
b0b0 *

#25550
b0b0 -
#25600
b0b1 -

b0b0001100001 &
b0b0001100001 '
b0b1 (
b0b1 *

#25650
b0b0 -
#25700
b0b1 -

b0b0 (
b0b0 *

#25750
b0b0 -
#25800
b0b1 -

b0b1 (
b0b1 *

#25850
b0b0 -
#25900
b0b1 -

b0b0 (
b0b0 *

#25950
b0b0 -
#26000
b0b1 -

b0b0000100001 &
b0b0000100001 '
b0b1 (
b0b1 *

#26050
b0b0 -
#26100
b0b1 -

b0b0 (
b0b0 *

#26150
b0b0 -
#26200
b0b1 -

b0b1 (
b0b1 *

#26250
b0b0 -
#26300
b0b1 -

b0b0 (
b0b0 *

#26350
b0b0 -
#26400
b0b1 -

b0b0000110001 &
b0b0000110001 '
b0b1 (
b0b1 *

#26450
b0b0 -
#26500
b0b1 -

b0b0 (
b0b0 *

#26550
b0b0 -
#26600
b0b1 -

b0b1 (
b0b1 *

#26650
b0b0 -
#26700
b0b1 -

b0b0 (
b0b0 *

#26750
b0b0 -
#26800
b0b1 -

b0b0000101001 &
b0b0000101001 '
b0b1 (
b0b1 *

#26850
b0b0 -
#26900
b0b1 -

b0b0 (
b0b0 *

#26950
b0b0 -
#27000
b0b1 -

b0b1 (
b0b1 *

#27050
b0b0 -
#27100
b0b1 -

b0b0 (
b0b0 *

#27150
b0b0 -
#27200
b0b1 -

b0b0000100101 &
b0b0000100101 '
b0b1 (
b0b1 *

#27250
b0b0 -
#27300
b0b1 -

b0b0 (
b0b0 *

#27350
b0b0 -
#27400
b0b1 -

b0b1 (
b0b1 *

#27450
b0b0 -
#27500
b0b1 -

b0b0 (
b0b0 *

#27550
b0b0 -
#27600
b0b1 -

b0b0000100011 &
b0b0000100011 '
b0b1 (
b0b1 *

#27650
b0b0 -
#27700
b0b1 -

b0b0 (
b0b0 *

#27750
b0b0 -
#27800
b0b1 -

b0b1 (
b0b1 *

#27850
b0b0 -
#27900
b0b1 -

b0b0 (
b0b0 *

#27950
b0b0 -
#28000
b0b1 -

b0b1 !
b0b1 #
b0b0000100001 &
b0b0000100001 '
b0b1 (
b0b1 *

#28050
b0b0 -
#28100
b0b1 -

b0b0 (
b0b0 *

#28150
b0b0 -
#28200
b0b1 -

b0b1 (
b0b1 *

#28250
b0b0 -
#28300
b0b1 -

b0b0 (
b0b0 *

#28350
b0b0 -
#28400
b0b1 -

b0b0 !
b0b0 #
b0b1000100001 &
b0b1000100001 '
b0b1 (
b0b1 *

#28450
b0b0 -
#28500
b0b1 -

b0b0 (
b0b0 *

#28550
b0b0 -
#28600
b0b1 -

b0b1 (
b0b1 *

#28650
b0b0 -
#28700
b0b1 -

b0b0 (
b0b0 *

#28750
b0b0 -
#28800
b0b1 -

b0b0100100001 &
b0b0100100001 '
b0b1 (
b0b1 *

#28850
b0b0 -
#28900
b0b1 -

b0b0 (
b0b0 *

#28950
b0b0 -
#29000
b0b1 -

b0b1 (
b0b1 *

#29050
b0b0 -
#29100
b0b1 -

b0b0 (
b0b0 *

#29150
b0b0 -
#29200
b0b1 -

b0b0010100001 &
b0b0010100001 '
b0b1 (
b0b1 *

#29250
b0b0 -
#29300
b0b1 -

b0b0 (
b0b0 *

#29350
b0b0 -
#29400
b0b1 -

b0b1 (
b0b1 *

#29450
b0b0 -
#29500
b0b1 -

b0b0 (
b0b0 *

#29550
b0b0 -
#29600
b0b1 -

b0b0001100001 &
b0b0001100001 '
b0b1 (
b0b1 *

#29650
b0b0 -
#29700
b0b1 -

b0b0 (
b0b0 *

#29750
b0b0 -
#29800
b0b1 -

b0b1 (
b0b1 *

#29850
b0b0 -
#29900
b0b1 -

b0b0 (
b0b0 *

#29950
b0b0 -
#30000
b0b1 -

b0b0000100001 &
b0b0000100001 '
b0b1 (
b0b1 *

#30050
b0b0 -
#30100
b0b1 -

b0b0 (
b0b0 *

#30150
b0b0 -
#30200
b0b1 -

b0b1 (
b0b1 *

#30250
b0b0 -
#30300
b0b1 -

b0b0 (
b0b0 *

#30350
b0b0 -
#30400
b0b1 -

b0b0000110001 &
b0b0000110001 '
b0b1 (
b0b1 *

#30450
b0b0 -
#30500
b0b1 -

b0b0 (
b0b0 *

#30550
b0b0 -
#30600
b0b1 -

b0b1 (
b0b1 *

#30650
b0b0 -
#30700
b0b1 -

b0b0 (
b0b0 *

#30750
b0b0 -
#30800
b0b1 -

b0b0000101001 &
b0b0000101001 '
b0b1 (
b0b1 *

#30850
b0b0 -
#30900
b0b1 -

b0b0 (
b0b0 *

#30950
b0b0 -
#31000
b0b1 -

b0b1 (
b0b1 *

#31050
b0b0 -
#31100
b0b1 -

b0b0 (
b0b0 *

#31150
b0b0 -
#31200
b0b1 -

b0b0000100101 &
b0b0000100101 '
b0b1 (
b0b1 *

#31250
b0b0 -
#31300
b0b1 -

b0b0 (
b0b0 *

#31350
b0b0 -
#31400
b0b1 -

b0b1 (
b0b1 *

#31450
b0b0 -
#31500
b0b1 -

b0b0 (
b0b0 *

#31550
b0b0 -
#31600
b0b1 -

b0b0000100011 &
b0b0000100011 '
b0b1 (
b0b1 *

#31650
b0b0 -
#31700
b0b1 -

b0b0 (
b0b0 *

#31750
b0b0 -
#31800
b0b1 -

b0b1 (
b0b1 *

#31850
b0b0 -
#31900
b0b1 -

b0b0 (
b0b0 *

#31950
b0b0 -
#32000
b0b1 -

b0b1 !
b0b1 #
b0b0000100001 &
b0b0000100001 '
b0b1 (
b0b1 *

#32050
b0b0 -
#32100
b0b1 -

b0b0 (
b0b0 *

#32150
b0b0 -
#32200
b0b1 -

b0b1 (
b0b1 *

#32250
b0b0 -
#32300
b0b1 -

b0b0 (
b0b0 *

#32350
b0b0 -
#32400
b0b1 -

b0b0 !
b0b0 #
b0b1000100001 &
b0b1000100001 '
b0b1 (
b0b1 *

#32450
b0b0 -
#32500
b0b1 -

b0b0 (
b0b0 *

#32550
b0b0 -
#32600
b0b1 -

b0b1 (
b0b1 *

#32650
b0b0 -
#32700
b0b1 -

b0b0 (
b0b0 *

#32750
b0b0 -
#32800
b0b1 -

b0b0100100001 &
b0b0100100001 '
b0b1 (
b0b1 *

#32850
b0b0 -
#32900
b0b1 -

b0b0 (
b0b0 *

#32950
b0b0 -
#33000
b0b1 -

b0b1 (
b0b1 *

#33050
b0b0 -
#33100
b0b1 -

b0b0 (
b0b0 *

#33150
b0b0 -
#33200
b0b1 -

b0b0010100001 &
b0b0010100001 '
b0b1 (
b0b1 *

#33250
b0b0 -
#33300
b0b1 -

b0b0 (
b0b0 *

#33350
b0b0 -
#33400
b0b1 -

b0b1 (
b0b1 *

#33450
b0b0 -
#33500
b0b1 -

b0b0 (
b0b0 *

#33550
b0b0 -
#33600
b0b1 -

b0b0001100001 &
b0b0001100001 '
b0b1 (
b0b1 *

#33650
b0b0 -
#33700
b0b1 -

b0b0 (
b0b0 *

#33750
b0b0 -
#33800
b0b1 -

b0b1 (
b0b1 *

#33850
b0b0 -
#33900
b0b1 -

b0b0 (
b0b0 *

#33950
b0b0 -
#34000
b0b1 -

b0b0000100001 &
b0b0000100001 '
b0b1 (
b0b1 *

#34050
b0b0 -
#34100
b0b1 -

b0b0 (
b0b0 *

#34150
b0b0 -
#34200
b0b1 -

b0b1 (
b0b1 *

#34250
b0b0 -
#34300
b0b1 -

b0b0 (
b0b0 *

#34350
b0b0 -
#34400
b0b1 -

b0b0000110001 &
b0b0000110001 '
b0b1 (
b0b1 *

#34450
b0b0 -
#34500
b0b1 -

b0b0 (
b0b0 *

#34550
b0b0 -
#34600
b0b1 -

b0b1 (
b0b1 *

#34650
b0b0 -
#34700
b0b1 -

b0b0 (
b0b0 *

#34750
b0b0 -
