sar_adc_ideal_sby/sar_adc_ideal_basic/engine_0/trace.vcd
$version Generated by Yosys-SMTBMC $end
$timescale 1ns $end
$var integer 32 t smt_step $end
$var event 1 ! smt_clock $end
$scope module sar_tb_working $end
$scope module _witness_ $end
$var wire 1 n0 anyinit_auto_clk2fflogic_cc_95_sample_data_360 $end
$var wire 1 n1 anyinit_auto_clk2fflogic_cc_95_sample_data_380 $end
$var wire 1 n2 anyinit_auto_clk2fflogic_cc_95_sample_data_410 $end
$var wire 1 n3 anyinit_auto_clk2fflogic_cc_95_sample_data_420 $end
$var wire 1 n4 anyinit_auto_clk2fflogic_cc_95_sample_data_440 $end
$var wire 1 n5 anyinit_auto_clk2fflogic_cc_95_sample_data_460 $end
$upscope $end
$scope module adc_instance $end
$var wire 1 n6 clk $end
$var wire 1 n7 eoc $end
$var wire 1 n8 input_hold_digital $end
$var wire 10 n9 input_voltage_real $end
$var wire 10 n10 output_result_digital $end
$var wire 1 n11 reset $end
$var wire 1 n12 sys_clk $end
$scope module v $end
$scope module DAC_instance $end
$var wire 1 n13 clk $end
$var wire 13 n14 const_18 $end
$var wire 15 n15 const_30 $end
$var wire 10 n16 input_voltage_digital $end
$var wire 10 n17 output_voltage_real $end
$var wire 42 n18 padl_14 $end
$var wire 21 n19 padl_16 $end
$var wire 9 n20 padl_2 $end
$var wire 42 n21 padl_21 $end
$var wire 52 n22 padl_26 $end
$var wire 26 n23 padl_28 $end
$var wire 25 n24 padl_6 $end
$var wire 21 n25 padl_bits_15 $end
$var wire 13 n26 padl_bits_17 $end
$var wire 21 n27 padl_bits_22 $end
$var wire 26 n28 padl_bits_27 $end
$var wire 15 n29 padl_bits_29 $end
$var wire 8 n30 padl_bits_3 $end
$var wire 25 n31 padl_bits_7 $end
$var wire 8 n32 padl_bits_zero_19 $end
$var wire 21 n33 padl_bits_zero_20 $end
$var wire 21 n34 padl_bits_zero_25 $end
$var wire 1 n35 padl_bits_zero_31 $end
$var wire 9 n36 padr_0 $end
$var wire 21 n37 padr_23 $end
$var wire 25 n38 padr_8 $end
$var wire 1 n39 padr_bits_1 $end
$var wire 11 n40 padr_bits_24 $end
$var wire 13 n41 padr_bits_9 $end
$var wire 1 n42 reset $end
$var wire 1 n43 toSInt_10 $end
$var wire 12 n44 toSInt_imm_11 $end
$var wire 34 n45 truncR_12 $end
$var wire 28 n46 truncR_4 $end
$var wire 42 n47 truncval_13 $end
$var wire 52 n48 truncval_5 $end
$upscope $end
$scope module SAR_instance $end
$var wire 1 n49 conduct_comparison $end
$var wire 1 n50 counter $end
$var wire 1 n51 eoc $end
$var wire 1 n52 feedback_value $end
$var wire 1 n53 quantized_voltage $end
$var wire 1 n54 quantized_voltage_register $end
$var wire 1 n55 reset $end
$var wire 1 n56 sys_clk $end
$upscope $end
$var wire 1 n57 clk $end
$scope module comparator_instance $end
$var wire 1 n58 clk $end
$var wire 13 n59 const_1 $end
$var wire 15 n60 const_4 $end
$var wire 32 n61 fsm $end
$var wire 10 n62 n $end
$var wire 1 n63 out $end
$var wire 10 n64 p $end
$var wire 1 n65 reset $end
$var wire 1 n66 sys_clk $end
$var wire 15 n67 toUsInt_3 $end
$var wire 13 n68 truncR_0 $end
$var wire 14 n69 truncR_2 $end
$upscope $end
$var wire 1 n70 comparator_output_digital $end
$var wire 10 n71 comparator_output_real $end
$var wire 1 n72 eoc $end
$var wire 1 n73 input_hold_digital $end
$var wire 10 n74 input_voltage_dac_shift $end
$var wire 10 n75 input_voltage_real $end
$var wire 10 n76 n_voltage_real $end
$var wire 10 n77 output_result_digital $end
$var wire 1 n78 output_result_digital_prescale $end
$var wire 10 n79 p_voltage_real $end
$var wire 1 n80 reset $end
$scope module sah $end
$var wire 1 n81 clk $end
$var wire 32 n82 fsm $end
$var wire 1 n83 input_control_digital $end
$var wire 10 n84 input_voltage_real $end
$var wire 10 n85 output_voltage_real $end
$var wire 1 n86 reset $end
$var wire 10 n87 state_cap $end
$var wire 1 n88 sys_clk $end
$upscope $end
$var wire 1 n89 sys_clk $end
$upscope $end
$upscope $end
$var wire 1 n90 clk $end
$var wire 64 n91 cycles $end
$var wire 20 n92 digitized_value $end
$var wire 1 n93 eoc $end
$var wire 32 n94 eoc_high_counter $end
$scope module fdiv $end
$var wire 1 n95 clk $end
$var wire 32 n96 counter $end
$var wire 1 n97 input_clk_digital $end
$var wire 1 n98 output_clk_digital $end
$var wire 1 n99 reset $end
$upscope $end
$var wire 10 n100 held_value $end
$var wire 1 n101 hit_eoc $end
$var wire 1 n102 input_hold_digital $end
$var wire 10 n103 input_voltage_real $end
$var wire 10 n104 output_result_digital $end
$var wire 1 n105 reset $end
$var wire 1 n106 sys_clk $end
$var wire 32 n107 sys_counter $end
$upscope $end
$enddefinitions $end
#0
1!
b00000000000000000000000000000000 t
b1 n0
b1 n1
b1 n2
b1 n3
b1 n4
b0 n5
b0 n6
b0 n7
b0 n8
b0110100100 n9
b1000000000 n10
b1 n11
b0 n12
b0 n13
b1101001100110 n14
b000000000001000 n15
b1000000000 n16
b0011010010 n17
b000000000000000000000000000001101001100110 n18
b000000001101001100110 n19
b001101001 n20
b000000000000000000000100000000000000000000 n21
b0000000000000000000000000000000000000000000000001000 n22
b00000000000000000000001000 n23
b0110100110010000000000000 n24
b000000001101001100110 n25
b1101001100110 n26
b100000000000000000000 n27
b00000000000000000000001000 n28
b000000000001000 n29
b01101001 n30
b0110100110010000000000000 n31
b00000000 n32
b000000000000000000000 n33
b000000000000000000000 n34
b0 n35
b011010010 n36
b100000000000000000000 n37
b0110100110010000000000000 n38
b0 n39
b00000000000 n40
b0000000000000 n41
b1 n42
b0 n43
b011010011001 n44
b0110100110011000000000000000000000 n45
b0110100110010000000000000000 n46
b000000000110100110011000000000000000000000 n47
b0000000000000000000000000110100110010000000000000000 n48
b0 n49
b0 n50
b0 n51
b1 n52
b1 n53
b0 n54
b1 n55
b0 n56
b0 n57
b0 n58
b1000000000000 n59
b000000000000000 n60
b00000000000000000000000000000000 n61
b0011010010 n62
b1 n63
b0000000000 n64
b1 n65
b0 n66
b000000000000000 n67
b1000000000000 n68
b00000000000000 n69
b1 n70
b0000000001 n71
b0 n72
b0 n73
b1000000000 n74
b0110100100 n75
b0011010010 n76
b1000000000 n77
b1 n78
b0000000000 n79
b1 n80
b0 n81
b00000000000000000000000000000000 n82
b0 n83
b0110100100 n84
b0000000000 n85
b1 n86
b0000000000 n87
b0 n88
b0 n89
b0 n90
b0000000000000000000000000000000000000000000000000000000000000000 n91
b00000000000000000000 n92
b0 n93
b00000000000000000000000000000000 n94
b0 n95
b00000000000000000000000000000000 n96
b0 n97
b0 n98
b1 n99
b0000000000 n100
b0 n101
b0 n102
b0110100100 n103
b1000000000 n104
b1 n105
b0 n106
b00000000000000000000000000000000 n107
#5
#10
1!
b00000000000000000000000000000001 t
b1 n0
b1 n1
b1 n2
b1 n3
b1 n4
b1 n5
b1 n6
b0 n7
b1 n8
b0010001010 n9
b1000000000 n10
b1 n11
b0 n12
b1 n13
b1101001100110 n14
b000000000001000 n15
b1000000000 n16
b0011010010 n17
b000000000000000000000000000001101001100110 n18
b000000001101001100110 n19
b001101001 n20
b000000000000000000000100000000000000000000 n21
b0000000000000000000000000000000000000000000000001000 n22
b00000000000000000000001000 n23
b0110100110010000000000000 n24
b000000001101001100110 n25
b1101001100110 n26
b100000000000000000000 n27
b00000000000000000000001000 n28
b000000000001000 n29
b01101001 n30
b0110100110010000000000000 n31
b00000000 n32
b000000000000000000000 n33
b000000000000000000000 n34
b0 n35
b011010010 n36
b100000000000000000000 n37
b0110100110010000000000000 n38
b0 n39
b00000000000 n40
b0000000000000 n41
b1 n42
b0 n43
b011010011001 n44
b0110100110011000000000000000000000 n45
b0110100110010000000000000000 n46
b000000000110100110011000000000000000000000 n47
b0000000000000000000000000110100110010000000000000000 n48
b1 n49
b0 n50
b0 n51
b1 n52
b1 n53
b0 n54
b1 n55
b0 n56
b1 n57
b1 n58
b1000000000000 n59
b000000000000000 n60
b00000000000000000000000000000000 n61
b0011010010 n62
b1 n63
b0000000000 n64
b1 n65
b0 n66
b000000000000000 n67
b1000000000000 n68
b00000000000000 n69
b1 n70
b0000000001 n71
b0 n72
b1 n73
b1000000000 n74
b0010001010 n75
b0011010010 n76
b1000000000 n77
b1 n78
b0000000000 n79
b1 n80
b1 n81
b00000000000000000000000000000000 n82
b1 n83
b0010001010 n84
b0000000000 n85
b1 n86
b0000000000 n87
b0 n88
b0 n89
b1 n90
b0000000000000000000000000000000000000000000000000000000000000001 n91
b00000000000000000000 n92
b0 n93
b00000000000000000000000000000000 n94
b1 n95
b00000000000000000000000000000001 n96
b1 n97
b0 n98
b1 n99
b0000000000 n100
b0 n101
b1 n102
b0010001010 n103
b1000000000 n104
b1 n105
b0 n106
b00000000000000000000000000000000 n107
#15
#20
1!
b00000000000000000000000000000010 t
b1 n0
b1 n1
b1 n2
b1 n3
b1 n4
b1 n5
b0 n6
b0 n7
b1 n8
b0010001010 n9
b1000000000 n10
b1 n11
b0 n12
b0 n13
b1101001100110 n14
b000000000001000 n15
b1000000000 n16
b0011010010 n17
b000000000000000000000000000001101001100110 n18
b000000001101001100110 n19
b001101001 n20
b000000000000000000000100000000000000000000 n21
b0000000000000000000000000000000000000000000000001000 n22
b00000000000000000000001000 n23
b0110100110010000000000000 n24
b000000001101001100110 n25
b1101001100110 n26
b100000000000000000000 n27
b00000000000000000000001000 n28
b000000000001000 n29
b01101001 n30
b0110100110010000000000000 n31
b00000000 n32
b000000000000000000000 n33
b000000000000000000000 n34
b0 n35
b011010010 n36
b100000000000000000000 n37
b0110100110010000000000000 n38
b0 n39
b00000000000 n40
b0000000000000 n41
b1 n42
b0 n43
b011010011001 n44
b0110100110011000000000000000000000 n45
b0110100110010000000000000000 n46
b000000000110100110011000000000000000000000 n47
b0000000000000000000000000110100110010000000000000000 n48
b1 n49
b0 n50
b0 n51
b1 n52
b1 n53
b0 n54
b1 n55
b0 n56
b0 n57
b0 n58
b1000000000000 n59
b000000000000000 n60
b00000000000000000000000000000000 n61
b0011010010 n62
b1 n63
b0000000000 n64
b1 n65
b0 n66
b000000000000000 n67
b1000000000000 n68
b00000000000000 n69
b1 n70
b0000000001 n71
b0 n72
b1 n73
b1000000000 n74
b0010001010 n75
b0011010010 n76
b1000000000 n77
b1 n78
b0000000000 n79
b1 n80
b0 n81
b00000000000000000000000000000000 n82
b1 n83
b0010001010 n84
b0000000000 n85
b1 n86
b0000000000 n87
b0 n88
b0 n89
b0 n90
b0000000000000000000000000000000000000000000000000000000000000001 n91
b00000000000000000000 n92
b0 n93
b00000000000000000000000000000000 n94
b0 n95
b00000000000000000000000000000001 n96
b0 n97
b0 n98
b1 n99
b0000000000 n100
b0 n101
b1 n102
b0010001010 n103
b1000000000 n104
b1 n105
b0 n106
b00000000000000000000000000000000 n107
#25
#30
1!
b00000000000000000000000000000011 t
b1 n0
b1 n1
b1 n2
b1 n3
b1 n4
b1 n5
b1 n6
b0 n7
b1 n8
b0110000100 n9
b1000000000 n10
b1 n11
b1 n12
b1 n13
b1101001100110 n14
b000000000001000 n15
b1000000000 n16
b0011010010 n17
b000000000000000000000000000001101001100110 n18
b000000001101001100110 n19
b001101001 n20
b000000000000000000000100000000000000000000 n21
b0000000000000000000000000000000000000000000000001000 n22
b00000000000000000000001000 n23
b0110100110010000000000000 n24
b000000001101001100110 n25
b1101001100110 n26
b100000000000000000000 n27
b00000000000000000000001000 n28
b000000000001000 n29
b01101001 n30
b0110100110010000000000000 n31
b00000000 n32
b000000000000000000000 n33
b000000000000000000000 n34
b0 n35
b011010010 n36
b100000000000000000000 n37
b0110100110010000000000000 n38
b0 n39
b00000000000 n40
b0000000000000 n41
b1 n42
b0 n43
b011010011001 n44
b0110100110011000000000000000000000 n45
b0110100110010000000000000000 n46
b000000000110100110011000000000000000000000 n47
b0000000000000000000000000110100110010000000000000000 n48
b1 n49
b0 n50
b0 n51
b1 n52
b1 n53
b0 n54
b1 n55
b1 n56
b1 n57
b1 n58
b1000000000000 n59
b000000000000000 n60
b00000000000000000000000000000000 n61
b0011010010 n62
b1 n63
b0000000000 n64
b1 n65
b1 n66
b000000000000000 n67
b1000000000000 n68
b00000000000000 n69
b1 n70
b0000000001 n71
b0 n72
b1 n73
b1000000000 n74
b0110000100 n75
b0011010010 n76
b1000000000 n77
b1 n78
b0000000000 n79
b1 n80
b1 n81
b00000000000000000000000000000000 n82
b1 n83
b0110000100 n84
b0000000000 n85
b1 n86
b0000000000 n87
b1 n88
b1 n89
b1 n90
b0000000000000000000000000000000000000000000000000000000000000010 n91
b00000000000000000000 n92
b0 n93
b00000000000000000000000000000000 n94
b1 n95
b00000000000000000000000000000000 n96
b1 n97
b1 n98
b1 n99
b0000000000 n100
b0 n101
b1 n102
b0110000100 n103
b1000000000 n104
b1 n105
b1 n106
b00000000000000000000000000000001 n107
#35
#40
1!
b00000000000000000000000000000100 t
b1 n0
b1 n1
b1 n2
b1 n3
b1 n4
b1 n5
b0 n6
b0 n7
b1 n8
b0010001010 n9
b1000000000 n10
b1 n11
b1 n12
b0 n13
b1101001100110 n14
b000000000001000 n15
b1000000000 n16
b0011010010 n17
b000000000000000000000000000001101001100110 n18
b000000001101001100110 n19
b001101001 n20
b000000000000000000000100000000000000000000 n21
b0000000000000000000000000000000000000000000000001000 n22
b00000000000000000000001000 n23
b0110100110010000000000000 n24
b000000001101001100110 n25
b1101001100110 n26
b100000000000000000000 n27
b00000000000000000000001000 n28
b000000000001000 n29
b01101001 n30
b0110100110010000000000000 n31
b00000000 n32
b000000000000000000000 n33
b000000000000000000000 n34
b0 n35
b011010010 n36
b100000000000000000000 n37
b0110100110010000000000000 n38
b0 n39
b00000000000 n40
b0000000000000 n41
b1 n42
b0 n43
b011010011001 n44
b0110100110011000000000000000000000 n45
b0110100110010000000000000000 n46
b000000000110100110011000000000000000000000 n47
b0000000000000000000000000110100110010000000000000000 n48
b1 n49
b0 n50
b0 n51
b1 n52
b1 n53
b0 n54
b1 n55
b1 n56
b0 n57
b0 n58
b1000000000000 n59
b000000000000000 n60
b00000000000000000000000000000000 n61
b0011010010 n62
b1 n63
b0000000000 n64
b1 n65
b1 n66
b000000000000000 n67
b1000000000000 n68
b00000000000000 n69
b1 n70
b0000000001 n71
b0 n72
b1 n73
b1000000000 n74
b0010001010 n75
b0011010010 n76
b1000000000 n77
b1 n78
b0000000000 n79
b1 n80
b0 n81
b00000000000000000000000000000000 n82
b1 n83
b0010001010 n84
b0000000000 n85
b1 n86
b0000000000 n87
b1 n88
b1 n89
b0 n90
b0000000000000000000000000000000000000000000000000000000000000010 n91
b00000000000000000000 n92
b0 n93
b00000000000000000000000000000000 n94
b0 n95
b00000000000000000000000000000000 n96
b0 n97
b1 n98
b1 n99
b0000000000 n100
b0 n101
b1 n102
b0010001010 n103
b1000000000 n104
b1 n105
b1 n106
b00000000000000000000000000000001 n107
#45
#50
1!
b00000000000000000000000000000101 t
b1 n0
b1 n1
b1 n2
b1 n3
b1 n4
b1 n5
b1 n6
b0 n7
b1 n8
b0010001010 n9
b1000000000 n10
b1 n11
b1 n12
b1 n13
b1101001100110 n14
b000000000001000 n15
b1000000000 n16
b0011010010 n17
b000000000000000000000000000001101001100110 n18
b000000001101001100110 n19
b001101001 n20
b000000000000000000000100000000000000000000 n21
b0000000000000000000000000000000000000000000000001000 n22
b00000000000000000000001000 n23
b0110100110010000000000000 n24
b000000001101001100110 n25
b1101001100110 n26
b100000000000000000000 n27
b00000000000000000000001000 n28
b000000000001000 n29
b01101001 n30
b0110100110010000000000000 n31
b00000000 n32
b000000000000000000000 n33
b000000000000000000000 n34
b0 n35
b011010010 n36
b100000000000000000000 n37
b0110100110010000000000000 n38
b0 n39
b00000000000 n40
b0000000000000 n41
b1 n42
b0 n43
b011010011001 n44
b0110100110011000000000000000000000 n45
b0110100110010000000000000000 n46
b000000000110100110011000000000000000000000 n47
b0000000000000000000000000110100110010000000000000000 n48
b1 n49
b0 n50
b0 n51
b1 n52
b1 n53
b0 n54
b1 n55
b1 n56
b1 n57
b1 n58
b1000000000000 n59
b000000000000000 n60
b00000000000000000000000000000000 n61
b0011010010 n62
b1 n63
b0000000000 n64
b1 n65
b1 n66
b000000000000000 n67
b1000000000000 n68
b00000000000000 n69
b1 n70
b0000000001 n71
b0 n72
b1 n73
b1000000000 n74
b0010001010 n75
b0011010010 n76
b1000000000 n77
b1 n78
b0000000000 n79
b1 n80
b1 n81
b00000000000000000000000000000000 n82
b1 n83
b0010001010 n84
b0000000000 n85
b1 n86
b0000000000 n87
b1 n88
b1 n89
b1 n90
b0000000000000000000000000000000000000000000000000000000000000011 n91
b00000000000000000000 n92
b0 n93
b00000000000000000000000000000000 n94
b1 n95
b00000000000000000000000000000001 n96
b1 n97
b1 n98
b1 n99
b0000000000 n100
b0 n101
b1 n102
b0010001010 n103
b1000000000 n104
b1 n105
b1 n106
b00000000000000000000000000000001 n107
#55
#60
1!
b00000000000000000000000000000110 t
b1 n0
b1 n1
b1 n2
b1 n3
b1 n4
b1 n5
b0 n6
b0 n7
b1 n8
b0110000100 n9
b1000000000 n10
b1 n11
b1 n12
b0 n13
b1101001100110 n14
b000000000001000 n15
b1000000000 n16
b0011010010 n17
b000000000000000000000000000001101001100110 n18
b000000001101001100110 n19
b001101001 n20
b000000000000000000000100000000000000000000 n21
b0000000000000000000000000000000000000000000000001000 n22
b00000000000000000000001000 n23
b0110100110010000000000000 n24
b000000001101001100110 n25
b1101001100110 n26
b100000000000000000000 n27
b00000000000000000000001000 n28
b000000000001000 n29
b01101001 n30
b0110100110010000000000000 n31
b00000000 n32
b000000000000000000000 n33
b000000000000000000000 n34
b0 n35
b011010010 n36
b100000000000000000000 n37
b0110100110010000000000000 n38
b0 n39
b00000000000 n40
b0000000000000 n41
b1 n42
b0 n43
b011010011001 n44
b0110100110011000000000000000000000 n45
b0110100110010000000000000000 n46
b000000000110100110011000000000000000000000 n47
b0000000000000000000000000110100110010000000000000000 n48
b1 n49
b0 n50
b0 n51
b1 n52
b1 n53
b0 n54
b1 n55
b1 n56
b0 n57
b0 n58
b1000000000000 n59
b000000000000000 n60
b00000000000000000000000000000000 n61
b0011010010 n62
b1 n63
b0000000000 n64
b1 n65
b1 n66
b000000000000000 n67
b1000000000000 n68
b00000000000000 n69
b1 n70
b0000000001 n71
b0 n72
b1 n73
b1000000000 n74
b0110000100 n75
b0011010010 n76
b1000000000 n77
b1 n78
b0000000000 n79
b1 n80
b0 n81
b00000000000000000000000000000000 n82
b1 n83
b0110000100 n84
b0000000000 n85
b1 n86
b0000000000 n87
b1 n88
b1 n89
b0 n90
b0000000000000000000000000000000000000000000000000000000000000011 n91
b00000000000000000000 n92
b0 n93
b00000000000000000000000000000000 n94
b0 n95
b00000000000000000000000000000001 n96
b0 n97
b1 n98
b1 n99
b0000000000 n100
b0 n101
b1 n102
b0110000100 n103
b1000000000 n104
b1 n105
b1 n106
b00000000000000000000000000000001 n107
#65
#70
1!
b00000000000000000000000000000111 t
b1 n0
b1 n1
b1 n2
b1 n3
b1 n4
b1 n5
b1 n6
b0 n7
b1 n8
b0010001010 n9
b1000000000 n10
b1 n11
b0 n12
b1 n13
b1101001100110 n14
b000000000001000 n15
b1000000000 n16
b0011010010 n17
b000000000000000000000000000001101001100110 n18
b000000001101001100110 n19
b001101001 n20
b000000000000000000000100000000000000000000 n21
b0000000000000000000000000000000000000000000000001000 n22
b00000000000000000000001000 n23
b0110100110010000000000000 n24
b000000001101001100110 n25
b1101001100110 n26
b100000000000000000000 n27
b00000000000000000000001000 n28
b000000000001000 n29
b01101001 n30
b0110100110010000000000000 n31
b00000000 n32
b000000000000000000000 n33
b000000000000000000000 n34
b0 n35
b011010010 n36
b100000000000000000000 n37
b0110100110010000000000000 n38
b0 n39
b00000000000 n40
b0000000000000 n41
b1 n42
b0 n43
b011010011001 n44
b0110100110011000000000000000000000 n45
b0110100110010000000000000000 n46
b000000000110100110011000000000000000000000 n47
b0000000000000000000000000110100110010000000000000000 n48
b1 n49
b0 n50
b0 n51
b1 n52
b1 n53
b0 n54
b1 n55
b0 n56
b1 n57
b1 n58
b1000000000000 n59
b000000000000000 n60
b00000000000000000000000000000000 n61
b0011010010 n62
b1 n63
b0000000000 n64
b1 n65
b0 n66
b000000000000000 n67
b1000000000000 n68
b00000000000000 n69
b1 n70
b0000000001 n71
b0 n72
b1 n73
b1000000000 n74
b0010001010 n75
b0011010010 n76
b1000000000 n77
b1 n78
b0000000000 n79
b1 n80
b1 n81
b00000000000000000000000000000000 n82
b1 n83
b0010001010 n84
b0000000000 n85
b1 n86
b0000000000 n87
b0 n88
b0 n89
b1 n90
b0000000000000000000000000000000000000000000000000000000000000100 n91
b00000000000000000000 n92
b0 n93
b00000000000000000000000000000000 n94
b1 n95
b00000000000000000000000000000000 n96
b1 n97
b0 n98
b1 n99
b0000000000 n100
b0 n101
b1 n102
b0010001010 n103
b1000000000 n104
b1 n105
b0 n106
b00000000000000000000000000000001 n107
#75
#80
1!
b00000000000000000000000000001000 t
b1 n0
b1 n1
b1 n2
b1 n3
b1 n4
b1 n5
b0 n6
b0 n7
b1 n8
b0110000100 n9
b1000000000 n10
b1 n11
b0 n12
b0 n13
b1101001100110 n14
b000000000001000 n15
b1000000000 n16
b0011010010 n17
b000000000000000000000000000001101001100110 n18
b000000001101001100110 n19
b001101001 n20
b000000000000000000000100000000000000000000 n21
b0000000000000000000000000000000000000000000000001000 n22
b00000000000000000000001000 n23
b0110100110010000000000000 n24
b000000001101001100110 n25
b1101001100110 n26
b100000000000000000000 n27
b00000000000000000000001000 n28
b000000000001000 n29
b01101001 n30
b0110100110010000000000000 n31
b00000000 n32
b000000000000000000000 n33
b000000000000000000000 n34
b0 n35
b011010010 n36
b100000000000000000000 n37
b0110100110010000000000000 n38
b0 n39
b00000000000 n40
b0000000000000 n41
b1 n42
b0 n43
b011010011001 n44
b0110100110011000000000000000000000 n45
b0110100110010000000000000000 n46
b000000000110100110011000000000000000000000 n47
b0000000000000000000000000110100110010000000000000000 n48
b1 n49
b0 n50
b0 n51
b1 n52
b1 n53
b0 n54
b1 n55
b0 n56
b0 n57
b0 n58
b1000000000000 n59
b000000000000000 n60
b00000000000000000000000000000000 n61
b0011010010 n62
b1 n63
b0000000000 n64
b1 n65
b0 n66
b000000000000000 n67
b1000000000000 n68
b00000000000000 n69
b1 n70
b0000000001 n71
b0 n72
b1 n73
b1000000000 n74
b0110000100 n75
b0011010010 n76
b1000000000 n77
b1 n78
b0000000000 n79
b1 n80
b0 n81
b00000000000000000000000000000000 n82
b1 n83
b0110000100 n84
b0000000000 n85
b1 n86
b0000000000 n87
b0 n88
b0 n89
b0 n90
b0000000000000000000000000000000000000000000000000000000000000100 n91
b00000000000000000000 n92
b0 n93
b00000000000000000000000000000000 n94
b0 n95
b00000000000000000000000000000000 n96
b0 n97
b0 n98
b1 n99
b0000000000 n100
b0 n101
b1 n102
b0110000100 n103
b1000000000 n104
b1 n105
b0 n106
b00000000000000000000000000000001 n107
#85
#90
1!
b00000000000000000000000000001001 t
b1 n0
b1 n1
b1 n2
b1 n3
b1 n4
b1 n5
b1 n6
b0 n7
b1 n8
b0010001010 n9
b1000000000 n10
b1 n11
b0 n12
b1 n13
b1101001100110 n14
b000000000001000 n15
b1000000000 n16
b0011010010 n17
b000000000000000000000000000001101001100110 n18
b000000001101001100110 n19
b001101001 n20
b000000000000000000000100000000000000000000 n21
b0000000000000000000000000000000000000000000000001000 n22
b00000000000000000000001000 n23
b0110100110010000000000000 n24
b000000001101001100110 n25
b1101001100110 n26
b100000000000000000000 n27
b00000000000000000000001000 n28
b000000000001000 n29
b01101001 n30
b0110100110010000000000000 n31
b00000000 n32
b000000000000000000000 n33
b000000000000000000000 n34
b0 n35
b011010010 n36
b100000000000000000000 n37
b0110100110010000000000000 n38
b0 n39
b00000000000 n40
b0000000000000 n41
b1 n42
b0 n43
b011010011001 n44
b0110100110011000000000000000000000 n45
b0110100110010000000000000000 n46
b000000000110100110011000000000000000000000 n47
b0000000000000000000000000110100110010000000000000000 n48
b1 n49
b0 n50
b0 n51
b1 n52
b1 n53
b0 n54
b1 n55
b0 n56
b1 n57
b1 n58
b1000000000000 n59
b000000000000000 n60
b00000000000000000000000000000000 n61
b0011010010 n62
b1 n63
b0000000000 n64
b1 n65
b0 n66
b000000000000000 n67
b1000000000000 n68
b00000000000000 n69
b1 n70
b0000000001 n71
b0 n72
b1 n73
b1000000000 n74
b0010001010 n75
b0011010010 n76
b1000000000 n77
b1 n78
b0000000000 n79
b1 n80
b1 n81
b00000000000000000000000000000000 n82
b1 n83
b0010001010 n84
b0000000000 n85
b1 n86
b0000000000 n87
b0 n88
b0 n89
b1 n90
b0000000000000000000000000000000000000000000000000000000000000101 n91
b00000000000000000000 n92
b0 n93
b00000000000000000000000000000000 n94
b1 n95
b00000000000000000000000000000001 n96
b1 n97
b0 n98
b1 n99
b0000000000 n100
b0 n101
b1 n102
b0010001010 n103
b1000000000 n104
b1 n105
b0 n106
b00000000000000000000000000000001 n107
#95
#100
1!
b00000000000000000000000000001010 t
b1 n0
b1 n1
b1 n2
b1 n3
b1 n4
b1 n5
b0 n6
b0 n7
b1 n8
b0010001010 n9
b1000000000 n10
b1 n11
b0 n12
b0 n13
b1101001100110 n14
b000000000001000 n15
b1000000000 n16
b0011010010 n17
b000000000000000000000000000001101001100110 n18
b000000001101001100110 n19
b001101001 n20
b000000000000000000000100000000000000000000 n21
b0000000000000000000000000000000000000000000000001000 n22
b00000000000000000000001000 n23
b0110100110010000000000000 n24
b000000001101001100110 n25
b1101001100110 n26
b100000000000000000000 n27
b00000000000000000000001000 n28
b000000000001000 n29
b01101001 n30
b0110100110010000000000000 n31
b00000000 n32
b000000000000000000000 n33
b000000000000000000000 n34
b0 n35
b011010010 n36
b100000000000000000000 n37
b0110100110010000000000000 n38
b0 n39
b00000000000 n40
b0000000000000 n41
b1 n42
b0 n43
b011010011001 n44
b0110100110011000000000000000000000 n45
b0110100110010000000000000000 n46
b000000000110100110011000000000000000000000 n47
b0000000000000000000000000110100110010000000000000000 n48
b1 n49
b0 n50
b0 n51
b1 n52
b1 n53
b0 n54
b1 n55
b0 n56
b0 n57
b0 n58
b1000000000000 n59
b000000000000000 n60
b00000000000000000000000000000000 n61
b0011010010 n62
b1 n63
b0000000000 n64
b1 n65
b0 n66
b000000000000000 n67
b1000000000000 n68
b00000000000000 n69
b1 n70
b0000000001 n71
b0 n72
b1 n73
b1000000000 n74
b0010001010 n75
b0011010010 n76
b1000000000 n77
b1 n78
b0000000000 n79
b1 n80
b0 n81
b00000000000000000000000000000000 n82
b1 n83
b0010001010 n84
b0000000000 n85
b1 n86
b0000000000 n87
b0 n88
b0 n89
b0 n90
b0000000000000000000000000000000000000000000000000000000000000101 n91
b00000000000000000000 n92
b0 n93
b00000000000000000000000000000000 n94
b0 n95
b00000000000000000000000000000001 n96
b0 n97
b0 n98
b1 n99
b0000000000 n100
b0 n101
b1 n102
b0010001010 n103
b1000000000 n104
b1 n105
b0 n106
b00000000000000000000000000000001 n107
#105
#110
1!
b00000000000000000000000000001011 t
b1 n0
b1 n1
b1 n2
b1 n3
b1 n4
b1 n5
b1 n6
b0 n7
b1 n8
b0010000010 n9
b1000000000 n10
b0 n11
b1 n12
b1 n13
b1101001100110 n14
b000000000001000 n15
b1000000000 n16
b0011010010 n17
b000000000000000000000000000001101001100110 n18
b000000001101001100110 n19
b001101001 n20
b000000000000000000000100000000000000000000 n21
b0000000000000000000000000000000000000000000000001000 n22
b00000000000000000000001000 n23
b0110100110010000000000000 n24
b000000001101001100110 n25
b1101001100110 n26
b100000000000000000000 n27
b00000000000000000000001000 n28
b000000000001000 n29
b01101001 n30
b0110100110010000000000000 n31
b00000000 n32
b000000000000000000000 n33
b000000000000000000000 n34
b0 n35
b011010010 n36
b100000000000000000000 n37
b0110100110010000000000000 n38
b0 n39
b00000000000 n40
b0000000000000 n41
b0 n42
b0 n43
b011010011001 n44
b0110100110011000000000000000000000 n45
b0110100110010000000000000000 n46
b000000000110100110011000000000000000000000 n47
b0000000000000000000000000110100110010000000000000000 n48
b1 n49
b0 n50
b0 n51
b1 n52
b1 n53
b0 n54
b0 n55
b1 n56
b1 n57
b1 n58
b1000000000000 n59
b000000000000000 n60
b00000000000000000000000000000000 n61
b0011010010 n62
b1 n63
b0000000000 n64
b0 n65
b1 n66
b000000000000000 n67
b1000000000000 n68
b00000000000000 n69
b1 n70
b0000000001 n71
b0 n72
b1 n73
b1000000000 n74
b0010000010 n75
b0011010010 n76
b1000000000 n77
b1 n78
b0000000000 n79
b0 n80
b1 n81
b00000000000000000000000000000000 n82
b1 n83
b0010000010 n84
b0000000000 n85
b0 n86
b0000000000 n87
b1 n88
b1 n89
b1 n90
b0000000000000000000000000000000000000000000000000000000000000110 n91
b00000000000000000000 n92
b0 n93
b00000000000000000000000000000000 n94
b1 n95
b00000000000000000000000000000000 n96
b1 n97
b1 n98
b0 n99
b0000000000 n100
b0 n101
b1 n102
b0010000010 n103
b1000000000 n104
b0 n105
b1 n106
b00000000000000000000000000000010 n107
#115
